{
  "name": "Armour and Shield Addons",
  "flags": {},
  "description": "",
  "results": [
    {
      "_id": "RXACpfbkRsOJW7Hu",
      "flags": {},
      "type": 0,
      "text": "Armor Spikes",
      "img": "icons/svg/d20-black.svg",
      "resultId": "",
      "weight": 1,
      "range": [1, 1],
      "drawn": false
    },
    {
      "_id": "CYydzOVQ0PqLytxO",
      "flags": {},
      "type": 0,
      "text": "Locked Gauntlet",
      "img": "icons/svg/d20-black.svg",
      "resultId": "",
      "weight": 1,
      "range": [2, 2],
      "drawn": false
    },
    {
      "_id": "ApIbgxtd9lhdsP65",
      "flags": {},
      "type": 0,
      "text": "Shield Spikes",
      "img": "icons/svg/d20-black.svg",
      "resultId": "",
      "weight": 1,
      "range": [3, 3],
      "drawn": false
    }
  ],
  "formula": "1d3",
  "replacement": true,
  "displayRoll": true,
  "_id": "BXxZdNZVUmDAAU2D"
}
