{
  "name": "Common Level 2 Potions and Oils",
  "flags": {},
  "description": "",
  "results": [
    {
      "_id": "P3l7fbaRfqDFahDO",
      "flags": {},
      "type": 0,
      "text": "Potion of Aid",
      "img": "icons/svg/d20-black.svg",
      "resultId": "",
      "weight": 4,
      "range": [1, 4],
      "drawn": false
    },
    {
      "_id": "tRNOzPhXGHekBEp8",
      "flags": {},
      "type": 0,
      "text": "Potion of Align Weapon",
      "img": "icons/svg/d20-black.svg",
      "resultId": "",
      "weight": 3,
      "range": [5, 7],
      "drawn": false
    },
    {
      "_id": "NWtxKkhJyAZ3LDAm",
      "flags": {},
      "type": 0,
      "text": "Potion of Barkskin",
      "img": "icons/svg/d20-black.svg",
      "resultId": "",
      "weight": 4,
      "range": [8, 11],
      "drawn": false
    },
    {
      "_id": "xlg0KpFaKtjKFBgq",
      "flags": {},
      "type": 0,
      "text": "Potion of Bear's Endurance",
      "img": "icons/svg/d20-black.svg",
      "resultId": "",
      "weight": 5,
      "range": [12, 16],
      "drawn": false
    },
    {
      "_id": "N2atctm3kyN0GgaS",
      "flags": {},
      "type": 0,
      "text": "Potion of Blur",
      "img": "icons/svg/d20-black.svg",
      "resultId": "",
      "weight": 4,
      "range": [17, 20],
      "drawn": false
    },
    {
      "_id": "yplzzt4gpMB0TgpZ",
      "flags": {},
      "type": 0,
      "text": "Potion of Bull's Strength",
      "img": "icons/svg/d20-black.svg",
      "resultId": "",
      "weight": 5,
      "range": [21, 25],
      "drawn": false
    },
    {
      "_id": "RQDhjGEYCmp1pCuQ",
      "flags": {},
      "type": 0,
      "text": "Potion of Cat's Grace",
      "img": "icons/svg/d20-black.svg",
      "resultId": "",
      "weight": 5,
      "range": [26, 30],
      "drawn": false
    },
    {
      "_id": "xKUv8QohxoXHIVr6",
      "flags": {},
      "type": 0,
      "text": "Potion of Cure Moderate Wounds",
      "img": "icons/svg/d20-black.svg",
      "resultId": "",
      "weight": 7,
      "range": [31, 37],
      "drawn": false
    },
    {
      "_id": "h50dBvGTqTV6cDCS",
      "flags": {},
      "type": 0,
      "text": "Potion of Darkvision",
      "img": "icons/svg/d20-black.svg",
      "resultId": "",
      "weight": 4,
      "range": [38, 41],
      "drawn": false
    },
    {
      "_id": "nuoTzaTFklriq60F",
      "flags": {},
      "type": 0,
      "text": "Potion of Delay Poison",
      "img": "icons/svg/d20-black.svg",
      "resultId": "",
      "weight": 3,
      "range": [42, 44],
      "drawn": false
    },
    {
      "_id": "FZpV7SEWQdiN6sFT",
      "flags": {},
      "type": 0,
      "text": "Potion of Eagle's Splendor",
      "img": "icons/svg/d20-black.svg",
      "resultId": "",
      "weight": 5,
      "range": [45, 49],
      "drawn": false
    },
    {
      "_id": "1IFZ5dqyZqylzTPo",
      "flags": {},
      "type": 0,
      "text": "Potion of Fox's Cunning",
      "img": "icons/svg/d20-black.svg",
      "resultId": "",
      "weight": 5,
      "range": [50, 54],
      "drawn": false
    },
    {
      "_id": "wTVesvtXpshI4Mdt",
      "flags": {},
      "type": 0,
      "text": "Potion of Invisibility",
      "img": "icons/svg/d20-black.svg",
      "resultId": "",
      "weight": 7,
      "range": [55, 61],
      "drawn": false
    },
    {
      "_id": "YHCWPabbQpPkTXxu",
      "flags": {},
      "type": 0,
      "text": "Potion of Levitate",
      "img": "icons/svg/d20-black.svg",
      "resultId": "",
      "weight": 5,
      "range": [62, 66],
      "drawn": false
    },
    {
      "_id": "3c5M2HNAVuhadqej",
      "flags": {},
      "type": 0,
      "text": "Potion of Owl's Wisdom",
      "img": "icons/svg/d20-black.svg",
      "resultId": "",
      "weight": 5,
      "range": [67, 71],
      "drawn": false
    },
    {
      "_id": "wxvEEhz5HDtFVIsw",
      "flags": {},
      "type": 0,
      "text": "Potion of Protection From Arrows",
      "img": "icons/svg/d20-black.svg",
      "resultId": "",
      "weight": 2,
      "range": [72, 73],
      "drawn": false
    },
    {
      "_id": "k3laxHFNCpnUhYYS",
      "flags": {},
      "type": 0,
      "text": "Potion of Remove Paralysis",
      "img": "icons/svg/d20-black.svg",
      "resultId": "",
      "weight": 3,
      "range": [74, 76],
      "drawn": false
    },
    {
      "_id": "en6DcEQCnO8I5smu",
      "flags": {},
      "type": 0,
      "text": "Potion of Resist Energy, Acid",
      "img": "icons/svg/d20-black.svg",
      "resultId": "",
      "weight": 4,
      "range": [77, 80],
      "drawn": false
    },
    {
      "_id": "TWOUCwdYdnsublIx",
      "flags": {},
      "type": 0,
      "text": "Potion of Resist Energy, Cold",
      "img": "icons/svg/d20-black.svg",
      "resultId": "",
      "weight": 4,
      "range": [81, 84],
      "drawn": false
    },
    {
      "_id": "0XlbyEtu2D4U8t3W",
      "flags": {},
      "type": 0,
      "text": "Potion of Resist Energy, Electricity",
      "img": "icons/svg/d20-black.svg",
      "resultId": "",
      "weight": 4,
      "range": [85, 88],
      "drawn": false
    },
    {
      "_id": "EgQmDcnz3regDH1d",
      "flags": {},
      "type": 0,
      "text": "Potion of Resist Energy, Fire",
      "img": "icons/svg/d20-black.svg",
      "resultId": "",
      "weight": 4,
      "range": [89, 92],
      "drawn": false
    },
    {
      "_id": "QeQbre4xUyIUXJqx",
      "flags": {},
      "type": 0,
      "text": "Potion of Resist Energy, Sonic",
      "img": "icons/svg/d20-black.svg",
      "resultId": "",
      "weight": 2,
      "range": [93, 94],
      "drawn": false
    },
    {
      "_id": "7VKmyIuqwSiD6b4D",
      "flags": {},
      "type": 0,
      "text": "Potion of Spider Climb",
      "img": "icons/svg/d20-black.svg",
      "resultId": "",
      "weight": 4,
      "range": [95, 98],
      "drawn": false
    },
    {
      "_id": "nWhGdHTofk73CFjD",
      "flags": {},
      "type": 0,
      "text": "Potion of Undetectable Alignment",
      "img": "icons/svg/d20-black.svg",
      "resultId": "",
      "weight": 2,
      "range": [99, 100],
      "drawn": false
    }
  ],
  "formula": "1d201",
  "replacement": true,
  "displayRoll": true,
  "_id": "Eo22ZRkZ7filHo8R"
}
