{
  "name": "Greater Medium Specific Weapons",
  "flags": {},
  "description": "",
  "results": [
    {
      "_id": "fyk68GxBjj3i34ct",
      "flags": {},
      "type": 0,
      "text": "Dragoncatch Guisarme",
      "weight": 7,
      "range": [1, 7],
      "drawn": false
    },
    {
      "_id": "3AhLEARHKvvspiWI",
      "flags": {},
      "type": 0,
      "text": "Ten-Ring Sword",
      "weight": 8,
      "range": [8, 15],
      "drawn": false
    },
    {
      "_id": "fHZC43G9R7WhoKuU",
      "flags": {},
      "type": 0,
      "text": "Triton's Trident",
      "weight": 6,
      "range": [16, 21],
      "drawn": false
    },
    {
      "_id": "aRBkQhdFmjNAYyU6",
      "flags": {},
      "type": 0,
      "text": "Mace of Smiting, Lesser",
      "weight": 8,
      "range": [22, 29],
      "drawn": false
    },
    {
      "_id": "40FzleOcqfJTCQQn",
      "flags": {},
      "type": 0,
      "text": "Disarming Blade",
      "weight": 8,
      "range": [30, 37],
      "drawn": false
    },
    {
      "_id": "7kfxAfUIGx0UldVe",
      "flags": {},
      "type": 0,
      "text": "Lash of the Howler",
      "weight": 5,
      "range": [38, 42],
      "drawn": false
    },
    {
      "_id": "l61I2FMJhssrOhzu",
      "flags": {},
      "type": 0,
      "text": "Shieldsplitter Lance",
      "weight": 5,
      "range": [43, 47],
      "drawn": false
    },
    {
      "_id": "tXdjpZ73qgnQpQUd",
      "flags": {},
      "type": 0,
      "text": "Trident of Fish Command",
      "weight": 6,
      "range": [48, 53],
      "drawn": false
    },
    {
      "_id": "SPz2sbYJ4tQWnNoz",
      "flags": {},
      "type": 0,
      "text": "Quarterstaff of Vaulting",
      "weight": 6,
      "range": [54, 59],
      "drawn": false
    },
    {
      "_id": "aXusnuEhiPh8WYe8",
      "flags": {},
      "type": 0,
      "text": "Firedrake Pistol",
      "weight": 6,
      "range": [60, 65],
      "drawn": false
    },
    {
      "_id": "rPoR4SOPXZxPiSAQ",
      "flags": {},
      "type": 0,
      "text": "Ricochet Hammer",
      "weight": 6,
      "range": [66, 71],
      "drawn": false
    },
    {
      "_id": "u4hfaaIpr5PkcMJ7",
      "flags": {},
      "type": 0,
      "text": "Flame Tongue",
      "weight": 6,
      "range": [72, 77],
      "drawn": false
    },
    {
      "_id": "2s5iAYDnT0E8PKRr",
      "flags": {},
      "type": 0,
      "text": "Sparkwake Starknife",
      "weight": 8,
      "range": [78, 85],
      "drawn": false
    },
    {
      "_id": "GymLeMtfwYmHd9k2",
      "flags": {},
      "type": 0,
      "text": "Luck Blade (0 Wishes)",
      "weight": 5,
      "range": [86, 90],
      "drawn": false
    },
    {
      "_id": "6H0bjBKjTRpaqj4L",
      "flags": {},
      "type": 0,
      "text": "Sword of Subtlety",
      "weight": 5,
      "range": [91, 95],
      "drawn": false
    },
    {
      "_id": "zPRQoh3AAREAAP30",
      "flags": {},
      "type": 0,
      "text": "Sword of the Planes",
      "weight": 5,
      "range": [96, 100],
      "drawn": false
    }
  ],
  "formula": "1d100",
  "replacement": true,
  "displayRoll": true,
  "_id": "ujaPWzYkma7gLn94"
}
