{
  "name": "Lesser Minor Ring",
  "flags": {},
  "description": "",
  "results": [
    {
      "_id": "N765tLMw24uxAAMZ",
      "flags": {},
      "type": 0,
      "text": "Dungeon Ring, Prisoner's",
      "weight": 7,
      "range": [1, 7],
      "drawn": false
    },
    {
      "_id": "YA1rBDVaQHEqb0CG",
      "flags": {},
      "type": 0,
      "text": "Ring of Arcane Signets",
      "weight": 9,
      "range": [8, 16],
      "drawn": false
    },
    {
      "_id": "4GVQ5XseI4vKnPqQ",
      "flags": {},
      "type": 0,
      "text": "Ring of Spell Knowledge I",
      "weight": 9,
      "range": [17, 25],
      "drawn": false
    },
    {
      "_id": "RxVW8QxG4dKWG9UC",
      "flags": {},
      "type": 0,
      "text": "Ring of Protection +1",
      "weight": 15,
      "range": [26, 40],
      "drawn": false
    },
    {
      "_id": "S46ELTW21Lr19zQB",
      "flags": {},
      "type": 0,
      "text": "Ring of the Grasping Grave",
      "weight": 7,
      "range": [41, 47],
      "drawn": false
    },
    {
      "_id": "z9tKfnjEEDGGHfRF",
      "flags": {},
      "type": 0,
      "text": "Ring of Feather Falling",
      "weight": 10,
      "range": [48, 57],
      "drawn": false
    },
    {
      "_id": "zz07ICxFospX3Dix",
      "flags": {},
      "type": 0,
      "text": "Ring of Climbing",
      "weight": 9,
      "range": [58, 66],
      "drawn": false
    },
    {
      "_id": "E7BrIgDX2Updbhjh",
      "flags": {},
      "type": 0,
      "text": "Ring of Jumping",
      "weight": 9,
      "range": [67, 75],
      "drawn": false
    },
    {
      "_id": "95aKn0eatEZ4fkWy",
      "flags": {},
      "type": 0,
      "text": "Ring of Sustenance",
      "weight": 9,
      "range": [76, 84],
      "drawn": false
    },
    {
      "_id": "ZIroTIxGUZcufTJF",
      "flags": {},
      "type": 0,
      "text": "Ring of Swimming",
      "weight": 9,
      "range": [85, 93],
      "drawn": false
    },
    {
      "_id": "JJJqw8lX9NY6VFZO",
      "flags": {},
      "type": 0,
      "text": "Ring of Ferocious Action",
      "weight": 7,
      "range": [94, 100],
      "drawn": false
    }
  ],
  "formula": "1d100",
  "replacement": true,
  "displayRoll": true,
  "_id": "mtc2lFS6DclN7t1O"
}
