{
  "name": "Uncommon Level 1 Arcane Scrolls",
  "flags": {},
  "description": "",
  "results": [
    {
      "_id": "wW6PueMRYmGvqmN4",
      "flags": {},
      "type": 0,
      "text": "Scroll of Air Bubble",
      "img": "icons/svg/d20-black.svg",
      "resultId": "",
      "weight": 2,
      "range": [1, 2],
      "drawn": false
    },
    {
      "_id": "RaPWd8IbjCDj2Vlp",
      "flags": {},
      "type": 0,
      "text": "Scroll of Alarm",
      "img": "icons/svg/d20-black.svg",
      "resultId": "",
      "weight": 4,
      "range": [3, 6],
      "drawn": false
    },
    {
      "_id": "3CrpuEYPfSisMoen",
      "flags": {},
      "type": 0,
      "text": "Scroll of Animate Rope",
      "img": "icons/svg/d20-black.svg",
      "resultId": "",
      "weight": 2,
      "range": [7, 8],
      "drawn": false
    },
    {
      "_id": "VFo4iiMsV1kdnqwm",
      "flags": {},
      "type": 0,
      "text": "Scroll of Ant Haul",
      "img": "icons/svg/d20-black.svg",
      "resultId": "",
      "weight": 4,
      "range": [9, 12],
      "drawn": false
    },
    {
      "_id": "1y4codEzDX8g2sEG",
      "flags": {},
      "type": 0,
      "text": "Scroll of Blend",
      "img": "icons/svg/d20-black.svg",
      "resultId": "",
      "weight": 3,
      "range": [13, 15],
      "drawn": false
    },
    {
      "_id": "ZQAjqY5HT67lNQoi",
      "flags": {},
      "type": 0,
      "text": "Scroll of Break",
      "img": "icons/svg/d20-black.svg",
      "resultId": "",
      "weight": 3,
      "range": [16, 18],
      "drawn": false
    },
    {
      "_id": "kLiqHcn3rPQKPLCp",
      "flags": {},
      "type": 0,
      "text": "Scroll of Color Spray",
      "img": "icons/svg/d20-black.svg",
      "resultId": "",
      "weight": 5,
      "range": [19, 23],
      "drawn": false
    },
    {
      "_id": "iAWumTQDV1Ev4kTh",
      "flags": {},
      "type": 0,
      "text": "Scroll of Comprehend Languages",
      "img": "icons/svg/d20-black.svg",
      "resultId": "",
      "weight": 3,
      "range": [24, 26],
      "drawn": false
    },
    {
      "_id": "1msXGDzJ8IkU7Qpy",
      "flags": {},
      "type": 0,
      "text": "Scroll of Corrosive Touch",
      "img": "icons/svg/d20-black.svg",
      "resultId": "",
      "weight": 4,
      "range": [27, 30],
      "drawn": false
    },
    {
      "_id": "VUd9vOVfGK5ysgX0",
      "flags": {},
      "type": 0,
      "text": "Scroll of Detect Secret Doors",
      "img": "icons/svg/d20-black.svg",
      "resultId": "",
      "weight": 3,
      "range": [31, 33],
      "drawn": false
    },
    {
      "_id": "VGuHawymYdu46JtO",
      "flags": {},
      "type": 0,
      "text": "Scroll of Detect Undead",
      "img": "icons/svg/d20-black.svg",
      "resultId": "",
      "weight": 3,
      "range": [34, 36],
      "drawn": false
    },
    {
      "_id": "C4QysVyPdWrEijYp",
      "flags": {},
      "type": 0,
      "text": "Scroll of Erase",
      "img": "icons/svg/d20-black.svg",
      "resultId": "",
      "weight": 2,
      "range": [37, 38],
      "drawn": false
    },
    {
      "_id": "24ykJYzzOxQh3z8w",
      "flags": {},
      "type": 0,
      "text": "Scroll of Flare Burst",
      "img": "icons/svg/d20-black.svg",
      "resultId": "",
      "weight": 2,
      "range": [39, 40],
      "drawn": false
    },
    {
      "_id": "DnOP19jUCmEUQXkw",
      "flags": {},
      "type": 0,
      "text": "Scroll of Floating Disk",
      "img": "icons/svg/d20-black.svg",
      "resultId": "",
      "weight": 3,
      "range": [41, 43],
      "drawn": false
    },
    {
      "_id": "b0oMOy4F0fkbhtc6",
      "flags": {},
      "type": 0,
      "text": "Scroll of Hold Portal",
      "img": "icons/svg/d20-black.svg",
      "resultId": "",
      "weight": 3,
      "range": [44, 46],
      "drawn": false
    },
    {
      "_id": "RqjHobKxD4KYbfbR",
      "flags": {},
      "type": 0,
      "text": "Scroll of Hydraulic Push",
      "img": "icons/svg/d20-black.svg",
      "resultId": "",
      "weight": 2,
      "range": [47, 48],
      "drawn": false
    },
    {
      "_id": "QGUFe51EIsjZsQMm",
      "flags": {},
      "type": 0,
      "text": "Scroll of Icicle Dagger",
      "img": "icons/svg/d20-black.svg",
      "resultId": "",
      "weight": 3,
      "range": [49, 51],
      "drawn": false
    },
    {
      "_id": "P9PjUFWybE1V3qbQ",
      "flags": {},
      "type": 0,
      "text": "Scroll of Illusion of Calm",
      "img": "icons/svg/d20-black.svg",
      "resultId": "",
      "weight": 3,
      "range": [52, 54],
      "drawn": false
    },
    {
      "_id": "L6UWoOKV5bx364LD",
      "flags": {},
      "type": 0,
      "text": "Scroll of Jump",
      "img": "icons/svg/d20-black.svg",
      "resultId": "",
      "weight": 4,
      "range": [55, 58],
      "drawn": false
    },
    {
      "_id": "htdMObKSnZ2fHimj",
      "flags": {},
      "type": 0,
      "text": "Scroll of Magic Aura",
      "img": "icons/svg/d20-black.svg",
      "resultId": "",
      "weight": 2,
      "range": [59, 60],
      "drawn": false
    },
    {
      "_id": "AecIBQCn64MRApVL",
      "flags": {},
      "type": 0,
      "text": "Scroll of Mirror Strike",
      "img": "icons/svg/d20-black.svg",
      "resultId": "",
      "weight": 3,
      "range": [61, 63],
      "drawn": false
    },
    {
      "_id": "S8PyconJy2FIz16L",
      "flags": {},
      "type": 0,
      "text": "Scroll of Mount",
      "img": "icons/svg/d20-black.svg",
      "resultId": "",
      "weight": 3,
      "range": [64, 66],
      "drawn": false
    },
    {
      "_id": "cwENrfeCsNPew8H9",
      "flags": {},
      "type": 0,
      "text": "Scroll of Ray of Sickening",
      "img": "icons/svg/d20-black.svg",
      "resultId": "",
      "weight": 3,
      "range": [67, 69],
      "drawn": false
    },
    {
      "_id": "M2Ci9hr9M3R5T2k4",
      "flags": {},
      "type": 0,
      "text": "Scroll of Reduce Person",
      "img": "icons/svg/d20-black.svg",
      "resultId": "",
      "weight": 2,
      "range": [70, 71],
      "drawn": false
    },
    {
      "_id": "KWn7bEBMzLEVN06Z",
      "flags": {},
      "type": 0,
      "text": "Scroll of Shadow Weapon",
      "img": "icons/svg/d20-black.svg",
      "resultId": "",
      "weight": 3,
      "range": [72, 74],
      "drawn": false
    },
    {
      "_id": "hSPeLLvZKM2uLZlz",
      "flags": {},
      "type": 0,
      "text": "Scroll of Shock Shield",
      "img": "icons/svg/d20-black.svg",
      "resultId": "",
      "weight": 3,
      "range": [75, 77],
      "drawn": false
    },
    {
      "_id": "O3WoHniNNQxX2KbG",
      "flags": {},
      "type": 0,
      "text": "Scroll of Stone Fist",
      "img": "icons/svg/d20-black.svg",
      "resultId": "",
      "weight": 3,
      "range": [78, 80],
      "drawn": false
    },
    {
      "_id": "GhYfROnndIdwvPmQ",
      "flags": {},
      "type": 0,
      "text": "Scroll of Touch of the Sea",
      "img": "icons/svg/d20-black.svg",
      "resultId": "",
      "weight": 4,
      "range": [81, 84],
      "drawn": false
    },
    {
      "_id": "5VovABJshkWBVnwK",
      "flags": {},
      "type": 0,
      "text": "Scroll of Unseen Servant",
      "img": "icons/svg/d20-black.svg",
      "resultId": "",
      "weight": 4,
      "range": [85, 88],
      "drawn": false
    },
    {
      "_id": "V06w1YXNoPWWKztc",
      "flags": {},
      "type": 0,
      "text": "Scroll of Urban Grace",
      "img": "icons/svg/d20-black.svg",
      "resultId": "",
      "weight": 3,
      "range": [89, 91],
      "drawn": false
    },
    {
      "_id": "fsW9cpfGT3PKtyqt",
      "flags": {},
      "type": 0,
      "text": "Scroll of Vanish",
      "img": "icons/svg/d20-black.svg",
      "resultId": "",
      "weight": 5,
      "range": [92, 96],
      "drawn": false
    },
    {
      "_id": "9TqrRPa7CwjSUE55",
      "flags": {},
      "type": 0,
      "text": "Scroll of Ventriloquism",
      "img": "icons/svg/d20-black.svg",
      "resultId": "",
      "weight": 2,
      "range": [97, 98],
      "drawn": false
    },
    {
      "_id": "CtvB0aYesny10xQT",
      "flags": {},
      "type": 0,
      "text": "Scroll of Voice Alteration",
      "img": "icons/svg/d20-black.svg",
      "resultId": "",
      "weight": 2,
      "range": [99, 100],
      "drawn": false
    }
  ],
  "formula": "1d100",
  "replacement": true,
  "displayRoll": true,
  "_id": "WSkon3mAFXTnBHHN"
}
