{
  "_id": "HpPFigQKr6C6Dej4",
  "name": "Banded Mail",
  "type": "equipment",
  "img": "systems/pf1/icons/items/armor/banded-mail.PNG",
  "sort": 0,
  "flags": {},
  "system": {
    "description": {
      "value": "<p>Banded mail is made up of overlapping strips of metal, fastened to a sturdy backing of leather and chain. The size of the metal plates, interconnected metal bands, and layers of underlying armor make it a more significant defense than similar armors, like scale mail or splint mail.</p>"
    },
    "tags": [],
    "weight": {
      "value": 35
    },
    "price": 250,
    "hp": {
      "max": 35,
      "value": 35
    },
    "hardness": 10,
    "changes": [],
    "contextNotes": [],
    "actions": [],
    "attackNotes": [],
    "effectNotes": [],
    "links": {
      "children": [],
      "charges": []
    },
    "scriptCalls": [],
    "equipmentSubtype": "heavyArmor",
    "armor": {
      "value": 7,
      "dex": 1,
      "acp": 6
    },
    "spellFailure": 35,
    "slot": "armor"
  }
}
