{
  "_id": "xeuREriTfdZR1yCD",
  "name": "Studded Leather Armor",
  "type": "equipment",
  "img": "systems/pf1/icons/items/armor/studded-leather.PNG",
  "sort": 0,
  "flags": {},
  "system": {
    "description": {
      "value": "<p>An improved form of leather armor, studded leather armor is covered with dozens of metal protuberances. While these rounded studs offer little defense individually, in the numbers they are arrayed in upon such armor, they help catch lethal edges and channel them away from vital spots. The rigidity caused by the additional metal does, however, result in less mobility than is afforded by a suit of normal leather armor.</p>"
    },
    "tags": [],
    "weight": {
      "value": 20
    },
    "price": 25,
    "hp": {
      "max": 15,
      "value": 15
    },
    "hardness": 2,
    "identifiedName": "Studded Leather Armor",
    "changes": [],
    "contextNotes": [],
    "actions": [],
    "attackNotes": [],
    "effectNotes": [],
    "links": {
      "children": [],
      "charges": []
    },
    "scriptCalls": [],
    "armor": {
      "value": 3,
      "dex": 5,
      "acp": 1
    },
    "spellFailure": 15,
    "slot": "armor"
  }
}
