{
  "_id": "7lLKIZNFvU5i3zfk",
  "name": "Echohusk",
  "type": "feat",
  "img": "systems/pf1/icons/skills/violet_07.jpg",
  "sort": 0,
  "flags": {},
  "system": {
    "description": {
      "value": "<p><strong>Acquired/Inherited Template&nbsp;</strong>Acquired<br><strong>Simple Template&nbsp;</strong>No<br><strong>Usable with Summons</strong>&nbsp;No<br><br>Echohusks are the walking corpses of creatures slain by powerful psychic attacks and animated by the mental energies that caused their deaths. The mind and soul of an echohusk are erased from its being, leaving nothing but the psychic echo of the creature that scoured its mind.<br><br>Left unattended, echohusks do little other than attack creatures that disturb them. However, anyone who creates an echohusk possesses an innate mental link to the undead creature, and is able to command the echohusk to perform whatever gruesome tasks she desires.<br><br>Echohusks are common in and around Geb, where death from the powerful mental attacks of psychic spellcasters—even liches—is an all too common occurrence. In such areas, echohusks are found in groups, obeying the commands of their dark masters. In the deep reaches of the underworld, where lost travelers or wayward patrols might encounter psychic horrors like neothelids, masterless echohusks are more common; the ancient and terrible creatures that happen to spawn them typically have little use for mindless servants.<br><br>Many psychic creatures have attempted to perfect the technique of creating echohusks, but only the attacks of the incorporeal undead known as psychic stalkers (see page 45) can create echohusks without fail. The horrific nature of psychic stalkers is likely the reason for this phenomenon.<br><br>“Echohusk” is an acquired template that can be added to any living, intelligent corporeal creature, referred to hereafter as the base creature.<br><br><strong>Challenge Rating: </strong>This depends on the creature’s new total number of Hit Dice, as given below.<br style=\"color: #ffffff; font-family: 'Century Gothic', CenturyGothic, AppleGothic, sans-serif; font-size: 15px; background-color: #0f0f0f;\"><br style=\"color: #ffffff; font-family: 'Century Gothic', CenturyGothic, AppleGothic, sans-serif; font-size: 15px; background-color: #0f0f0f;\"></p>\n<table class=\"inner\" style=\"border-color: white; color: #ffffff; font-family: 'Century Gothic', CenturyGothic, AppleGothic, sans-serif; font-size: 15px; background-color: #0f0f0f;\">\n<tbody style=\"margin-top: 0px;\">\n<tr style=\"margin-top: 0px;\">\n<td style=\"margin: 0px; border: 1px solid white; padding: 1px 5px; text-align: center;\"><strong style=\"margin-top: 0px;\">HD</strong></td>\n<td style=\"border: 1px solid white; padding: 1px 5px; margin: 0px; text-align: center;\"><strong style=\"margin-top: 0px;\">CR</strong></td>\n<td style=\"border: 1px solid white; padding: 1px 5px; margin: 0px; text-align: center;\"><strong style=\"margin-top: 0px;\">XP</strong></td>\n</tr>\n<tr style=\"background: #3e3e3e;\">\n<td style=\"margin: 0px; border: 1px solid white; padding: 1px 5px; text-align: center;\">1</td>\n<td style=\"border: 1px solid white; padding: 1px 5px; margin: 0px; text-align: center;\">1/4</td>\n<td style=\"border: 1px solid white; padding: 1px 5px; margin: 0px; text-align: center;\">100</td>\n</tr>\n<tr>\n<td style=\"margin: 0px; border: 1px solid white; padding: 1px 5px; text-align: center;\">2</td>\n<td style=\"border: 1px solid white; padding: 1px 5px; margin: 0px; text-align: center;\">1/2</td>\n<td style=\"border: 1px solid white; padding: 1px 5px; margin: 0px; text-align: center;\">200</td>\n</tr>\n<tr style=\"background: #3e3e3e;\">\n<td style=\"margin: 0px; border: 1px solid white; padding: 1px 5px; text-align: center;\">3–4</td>\n<td style=\"border: 1px solid white; padding: 1px 5px; margin: 0px; text-align: center;\">1</td>\n<td style=\"border: 1px solid white; padding: 1px 5px; margin: 0px; text-align: center;\">400</td>\n</tr>\n<tr>\n<td style=\"margin: 0px; border: 1px solid white; padding: 1px 5px; text-align: center;\">5–6</td>\n<td style=\"border: 1px solid white; padding: 1px 5px; margin: 0px; text-align: center;\">2</td>\n<td style=\"border: 1px solid white; padding: 1px 5px; margin: 0px; text-align: center;\">600</td>\n</tr>\n<tr style=\"background: #3e3e3e;\">\n<td style=\"margin: 0px; border: 1px solid white; padding: 1px 5px; text-align: center;\">7–8</td>\n<td style=\"border: 1px solid white; padding: 1px 5px; margin: 0px; text-align: center;\">3</td>\n<td style=\"border: 1px solid white; padding: 1px 5px; margin: 0px; text-align: center;\">800</td>\n</tr>\n<tr>\n<td style=\"margin: 0px; border: 1px solid white; padding: 1px 5px; text-align: center;\">9–10</td>\n<td style=\"border: 1px solid white; padding: 1px 5px; margin: 0px; text-align: center;\">4</td>\n<td style=\"border: 1px solid white; padding: 1px 5px; margin: 0px; text-align: center;\">1,200</td>\n</tr>\n<tr style=\"background: #3e3e3e;\">\n<td style=\"margin: 0px; border: 1px solid white; padding: 1px 5px; text-align: center;\">11–12</td>\n<td style=\"border: 1px solid white; padding: 1px 5px; margin: 0px; text-align: center;\">5</td>\n<td style=\"border: 1px solid white; padding: 1px 5px; margin: 0px; text-align: center;\">1,600</td>\n</tr>\n<tr>\n<td style=\"margin: 0px; border: 1px solid white; padding: 1px 5px; text-align: center;\">13–15</td>\n<td style=\"border: 1px solid white; padding: 1px 5px; margin: 0px; text-align: center;\">6</td>\n<td style=\"border: 1px solid white; padding: 1px 5px; margin: 0px; text-align: center;\">2,400</td>\n</tr>\n<tr style=\"background: #3e3e3e;\">\n<td style=\"margin: 0px; border: 1px solid white; padding: 1px 5px; text-align: center;\">16–17</td>\n<td style=\"border: 1px solid white; padding: 1px 5px; margin: 0px; text-align: center;\">7</td>\n<td style=\"border: 1px solid white; padding: 1px 5px; margin: 0px; text-align: center;\">3,200</td>\n</tr>\n<tr>\n<td style=\"margin: 0px; border: 1px solid white; padding: 1px 5px; text-align: center;\">18–20</td>\n<td style=\"border: 1px solid white; padding: 1px 5px; margin: 0px; text-align: center;\">8</td>\n<td style=\"border: 1px solid white; padding: 1px 5px; margin: 0px; text-align: center;\">4,800</td>\n</tr>\n<tr style=\"background: #3e3e3e;\">\n<td style=\"margin: 0px; border: 1px solid white; padding: 1px 5px; text-align: center;\">21–24</td>\n<td style=\"border: 1px solid white; padding: 1px 5px; margin: 0px; text-align: center;\">9</td>\n<td style=\"border: 1px solid white; padding: 1px 5px; margin: 0px; text-align: center;\">6,400</td>\n</tr>\n<tr>\n<td style=\"margin: 0px; border: 1px solid white; padding: 1px 5px; text-align: center;\">25–28</td>\n<td style=\"border: 1px solid white; padding: 1px 5px; margin: 0px; text-align: center;\">10</td>\n<td style=\"border: 1px solid white; padding: 1px 5px; margin: 0px; text-align: center;\">9,600</td>\n</tr>\n</tbody>\n</table>\n<p><br style=\"color: #ffffff; font-family: 'Century Gothic', CenturyGothic, AppleGothic, sans-serif; font-size: 15px; background-color: #0f0f0f;\"><strong>Alignment: </strong>Always neutral evil.<br><br><strong>Type:</strong> The creature’s type changes to undead. It retains any subtypes except for alignment subtypes (such as good) and subtypes that indicate kind (such as giant). It doesn’t gain the augmented subtype. It uses all the base creature’s statistics and special abilities except as noted here.<br><br><strong>Armor Class:</strong> The creature’s natural armor bonus is based on the echohusk’s size, indicated below.<br><br style=\"color: #ffffff; font-family: 'Century Gothic', CenturyGothic, AppleGothic, sans-serif; font-size: 15px; background-color: #0f0f0f;\"></p>\n<table class=\"inner\" style=\"border-color: white; color: #ffffff; font-family: 'Century Gothic', CenturyGothic, AppleGothic, sans-serif; font-size: 15px; background-color: #0f0f0f;\">\n<tbody style=\"margin-top: 0px;\">\n<tr style=\"margin-top: 0px;\">\n<td style=\"margin: 0px; border: 1px solid white; padding: 1px 5px; text-align: center;\"><strong style=\"margin-top: 0px;\">Echohusk Size</strong></td>\n<td style=\"border: 1px solid white; padding: 1px 5px; margin: 0px; text-align: center;\"><strong style=\"margin-top: 0px;\">Natural Armor Bonus</strong></td>\n</tr>\n<tr style=\"background: #3e3e3e;\">\n<td style=\"margin: 0px; border: 1px solid white; padding: 1px 5px; text-align: center;\">Small or smaller</td>\n<td style=\"border: 1px solid white; padding: 1px 5px; margin: 0px; text-align: center;\">+0</td>\n</tr>\n<tr>\n<td style=\"margin: 0px; border: 1px solid white; padding: 1px 5px; text-align: center;\">Medium</td>\n<td style=\"border: 1px solid white; padding: 1px 5px; margin: 0px; text-align: center;\">+1</td>\n</tr>\n<tr style=\"background: #3e3e3e;\">\n<td style=\"margin: 0px; border: 1px solid white; padding: 1px 5px; text-align: center;\">Large</td>\n<td style=\"border: 1px solid white; padding: 1px 5px; margin: 0px; text-align: center;\">+2</td>\n</tr>\n<tr>\n<td style=\"margin: 0px; border: 1px solid white; padding: 1px 5px; text-align: center;\">Huge</td>\n<td style=\"border: 1px solid white; padding: 1px 5px; margin: 0px; text-align: center;\">+3</td>\n</tr>\n<tr style=\"background: #3e3e3e;\">\n<td style=\"margin: 0px; border: 1px solid white; padding: 1px 5px; text-align: center;\">Gargantuan</td>\n<td style=\"border: 1px solid white; padding: 1px 5px; margin: 0px; text-align: center;\">+6</td>\n</tr>\n<tr>\n<td style=\"margin: 0px; border: 1px solid white; padding: 1px 5px; text-align: center;\">Colossal</td>\n<td style=\"border: 1px solid white; padding: 1px 5px; margin: 0px; text-align: center;\">+10</td>\n</tr>\n</tbody>\n</table>\n<p><br style=\"color: #ffffff; font-family: 'Century Gothic', CenturyGothic, AppleGothic, sans-serif; font-size: 15px; background-color: #0f0f0f;\"><strong>Hit Dice:</strong> An echohusk retains the number of HD the base creature possessed (except those from class levels), and gains a number of additional Hit Dice given on the following table. An echohusk uses its Charisma modifier (instead of its Constitution modifier) to determine bonus hit points.<br style=\"color: #ffffff; font-family: 'Century Gothic', CenturyGothic, AppleGothic, sans-serif; font-size: 15px; background-color: #0f0f0f;\"><br style=\"color: #ffffff; font-family: 'Century Gothic', CenturyGothic, AppleGothic, sans-serif; font-size: 15px; background-color: #0f0f0f;\"></p>\n<table class=\"inner\" style=\"border-color: white; color: #ffffff; font-family: 'Century Gothic', CenturyGothic, AppleGothic, sans-serif; font-size: 15px; background-color: #0f0f0f;\">\n<tbody style=\"margin-top: 0px;\">\n<tr style=\"margin-top: 0px;\">\n<td style=\"margin: 0px; border: 1px solid white; padding: 1px 5px; text-align: center;\"><strong style=\"margin-top: 0px;\">Echohusk Size</strong></td>\n<td style=\"border: 1px solid white; padding: 1px 5px; margin: 0px; text-align: center;\"><strong style=\"margin-top: 0px;\">Bonus Hit Dice</strong></td>\n</tr>\n<tr style=\"background: #3e3e3e;\">\n<td style=\"margin: 0px; border: 1px solid white; padding: 1px 5px; text-align: center;\">Medium or smaller</td>\n<td style=\"border: 1px solid white; padding: 1px 5px; margin: 0px; text-align: center;\">—</td>\n</tr>\n<tr>\n<td style=\"margin: 0px; border: 1px solid white; padding: 1px 5px; text-align: center;\">Large</td>\n<td style=\"border: 1px solid white; padding: 1px 5px; margin: 0px; text-align: center;\">+1</td>\n</tr>\n<tr style=\"background: #3e3e3e;\">\n<td style=\"margin: 0px; border: 1px solid white; padding: 1px 5px; text-align: center;\">Huge</td>\n<td style=\"border: 1px solid white; padding: 1px 5px; margin: 0px; text-align: center;\">+2</td>\n</tr>\n<tr>\n<td style=\"margin: 0px; border: 1px solid white; padding: 1px 5px; text-align: center;\">Gargantuan</td>\n<td style=\"border: 1px solid white; padding: 1px 5px; margin: 0px; text-align: center;\">+4</td>\n</tr>\n<tr style=\"background: #3e3e3e;\">\n<td style=\"margin: 0px; border: 1px solid white; padding: 1px 5px; text-align: center;\">Colossal</td>\n<td style=\"border: 1px solid white; padding: 1px 5px; margin: 0px; text-align: center;\">+6</td>\n</tr>\n</tbody>\n</table>\n<p><br style=\"color: #ffffff; font-family: 'Century Gothic', CenturyGothic, AppleGothic, sans-serif; font-size: 15px; background-color: #0f0f0f;\"><strong>Saves:</strong> Base save bonuses are Fortitude +1/3 Hit Dice, Reflex +1/3 Hit Dice, and Will +1/2 Hit Dice + 2.<br><br><strong>Defensive Abilities:</strong> Echohusks lose their defensive abilities and gain all of the qualities and immunities granted by the undead type.<br><br><strong>Weaknesses:</strong> Echohusks gain the following weakness.<br><br><em>Vulnerable to Psychic Magic (Ex):</em> Echohusks are particularly susceptible to psychic spells and attacks, as the entire force that animates them is composed of psychic energy. They take a –4 penalty on saving throws against psychic spells and effects.<br><br><strong>Speed:</strong> An echohusk retains all of the base creature’s movement speeds. However, its maneuverability for flight drops to clumsy.<br><br><strong>Attacks:</strong> An echohusk retains all the natural weapons, manufactured weapon attacks, and weapon proficiencies of the base creature. It gains a slam attack that deals damage as if it were one size category larger than its actual size.<br><br><strong>Special Attacks: </strong>An echohusk retains none of the base creature’s special attacks.<br><br><strong>Ability Scores:</strong> An echohusk’s Strength score increases by 2. An echohusk has neither a Constitution score or an Intelligence score, its Wisdom score changes to 10, and its Charisma score changes to 14.<br><br><strong>BAB: </strong>An echohusk’s base attack bonus is equal to 3/4 of its Hit Dice.<br><br><strong>Skills:</strong> An echohusk has no skill ranks and loses any racial bonuses to skills that the base creature possessed.<br><br><strong>Feats:</strong> An echohusk loses all feats possessed by the base creature, and doesn’t gain feats as its Hit Dice increase.<br><br><strong>Special Qualities:</strong> An echohusk loses most special qualities of the base creature, but it retains any extraordinary special qualities that improve its melee or ranged attacks. An echohusk gains the following special qualities.<br><br><em>Psychic Servitude (Su):</em> Echohusks are animated not by typical necromantic energies, but rather by the mental energies of a powerful psychic creature. They cannot be commanded or created by&nbsp;animate dead,&nbsp;command undead,&nbsp;control undead, and similar necromancy spells and effects. However, any creature that creates an echohusk with its psychic attacks can command that echohusk as if it had animated it using the&nbsp;animate dead&nbsp;spell (up to 4 HD of echohusks per HD of the animating creature, and no one echohusk can possess more than twice the HD of the animating creature). Echohusks under a creature’s control don’t count against the number of other undead that the creature can control with the&nbsp;animate dead&nbsp;spell, the Command Undead feat, or other similar effects.<br><br><em>Shattered Psyche (Ex):</em> Psychic attacks that are powerful enough to destroy minds leave behind a powerful but unstable force that lashes out at those nearby. When an echohusk takes damage from a melee attack, a ranged attack from within 30 feet, or a psychic spell or effect from any distance, the creature that initiated the attack must succeed at a Will saving throw (DC = 10 + 1/2 the echohusk’s Hit Dice + the echohusk’s Charisma modifier) or take 1 point of Charisma damage and be dazed for 1 round as the psychic energies in the echohusk shatter once more.</p>"
    },
    "tags": [],
    "actions": [],
    "attackNotes": [],
    "effectNotes": [],
    "changes": [
      {
        "_id": "rf4n7obc",
        "formula": "2",
        "operator": "add",
        "subTarget": "str",
        "modifier": "untyped",
        "priority": 0,
        "value": 0,
        "target": "ability"
      }
    ],
    "contextNotes": [],
    "links": {
      "children": [],
      "charges": []
    },
    "armorProf": {
      "value": []
    },
    "weaponProf": {
      "value": []
    },
    "languages": {
      "value": []
    },
    "scriptCalls": [],
    "subType": "template",
    "associations": {
      "classes": []
    },
    "crOffset": "1"
  }
}
