{
  "_id": "B6wEQOUMv2ifm2Nj",
  "name": "Acrobatic Steps",
  "type": "feat",
  "img": "systems/pf1/icons/feats/acrobatic-step.png",
  "sort": 0,
  "flags": {},
  "system": {
    "description": {
      "value": "\n                <i>You can easily move over and through obstacles.</i>\n                <br />\n                <br />\n                \n                <p><b>Prerequisites</b></p>\n                <p> Dex 15, Nimble Moves.</p>\n                \n            <br />\n                <p><b>Benefits</b></p>\n                <p><p class=\"stat-block-1\"> Whenever you move, you may move through up to 15 feet of difficult terrain each round as if it were normal terrain. The effects of this feat stack with those provided by Nimble Moves (allowing you to move normally through a total of 20 feet of difficult terrain each round).</p></p>\n                \n            \n            "
    },
    "tags": [["General"], ["Movement"]],
    "actions": [],
    "attackNotes": [],
    "effectNotes": [],
    "changes": [],
    "contextNotes": [],
    "links": {
      "children": [],
      "charges": []
    },
    "tag": "feat_acrobaticSteps",
    "useCustomTag": true,
    "armorProf": {
      "value": []
    },
    "weaponProf": {
      "value": []
    },
    "languages": {
      "value": []
    },
    "scriptCalls": [],
    "associations": {
      "classes": []
    }
  }
}
