{
  "_id": "3MqcLuZfUJB8xMby",
  "name": "Armor Proficiency, Heavy",
  "type": "feat",
  "img": "systems/pf1/icons/feats/armor-proficiency-heavy.png",
  "sort": 0,
  "flags": {},
  "system": {
    "description": {
      "value": "<em>You are skilled at wearing heavy armor.</em><br/><br/><b>Prerequisites</b><br/>Light Armor Proficiency, Medium Armor Proficiency.<br/><br/><b>Benefits</b><br/>See Armor Proficiency, Light.<br/><br/><b>Normal</b><br/>See Armor Proficiency, Light.<br/><br/><b>Special</b><br/>Fighters and paladins automatically have Heavy Armor Proficiency as a bonus feat. They need not select it."
    },
    "tags": [["PFS"], ["Combat"]],
    "actions": [],
    "attackNotes": [],
    "effectNotes": [],
    "changes": [],
    "contextNotes": [],
    "links": {
      "children": [],
      "charges": []
    },
    "tag": "feat_armorProficiencyHeavy",
    "useCustomTag": true,
    "armorProf": {
      "value": ["hvy"]
    },
    "weaponProf": {
      "value": []
    },
    "languages": {
      "value": []
    },
    "scriptCalls": [],
    "associations": {
      "classes": []
    }
  }
}
