{
  "_id": "O0e0UCim27GPKFuW",
  "name": "Diehard",
  "type": "feat",
  "img": "systems/pf1/icons/feats/diehard.jpg",
  "sort": 0,
  "flags": {},
  "system": {
    "description": {
      "value": "<p><em>You are especially hard to kill. Not only do your wounds automatically stabilize when grievously injured, but you can remain conscious and continue to act even at death's door.</em><br /><br /><strong>Prerequisites</strong><br />Endurance.<br /><br /><strong>Benefits</strong><br />When your hit point total is below 0, but you are not dead, you automatically stabilize. You do not need to make a Constitution check each round to avoid losing additional hit points. You may choose to act as if you were disabled, rather than dying. You must make this decision as soon as you are reduced to negative hit points (even if it isn't your turn). If you do not choose to act as if you were disabled, you immediately fall unconscious.<br /><br />When using this feat, you are staggered. You can take a move action without further injuring yourself, but if you perform any standard action (or any other action deemed as strenuous, including some swift actions, such as casting a quickened spell) you take 1 point of damage after completing the act. If your negative hit points are equal to or greater than your Constitution score, you immediately die.<br /><br /><strong>Normal</strong><br />A character without this feat who is reduced to negative hit points is unconscious and dying.</p>\n<p>&nbsp;</p>\n<p>Usage: apply @Compendium[pf1.conditions.6LpiJdKskDFD4zLC]{Staggered} condition.</p>"
    },
    "tags": [["PFS"], ["General"]],
    "actions": [],
    "attackNotes": [],
    "effectNotes": [],
    "changes": [],
    "contextNotes": [
      {
        "subTarget": "conChecks",
        "text": "Diehard: you automatically stabilize."
      }
    ],
    "links": {
      "children": [],
      "charges": []
    },
    "tag": "feat_diehard",
    "useCustomTag": true,
    "armorProf": {
      "value": []
    },
    "weaponProf": {
      "value": []
    },
    "languages": {
      "value": []
    },
    "scriptCalls": [],
    "associations": {
      "classes": []
    }
  }
}
