{
  "_id": "ieltigobtFrlTXIt",
  "name": "Greater Two-Weapon Fighting",
  "type": "feat",
  "img": "systems/pf1/icons/feats/greater-two-weapon-fighting.jpg",
  "sort": 0,
  "flags": {},
  "system": {
    "description": {
      "value": "\n                <i>You are incredibly skilled at fighting with two weapons at the same time.</i>\n                <br />\n                <br />\n                \n                <p><b>Prerequisites</b></p>\n                <p> Dex 19, Improved Two-Weapon Fighting, Two-Weapon Fighting, base attack bonus +11.</p>\n                \n            <br />\n                <p><b>Benefits</b></p>\n                <p><p class=\"stat-block-1\"> You get a third attack with your off-hand weapon, albeit at a &ndash;10 penalty.</p></p>\n                \n            \n            "
    },
    "tags": [["Combat"], ["Two Weapons"], ["Weapon"], ["Offensive"]],
    "actions": [],
    "attackNotes": [],
    "effectNotes": [],
    "changes": [],
    "contextNotes": [],
    "links": {
      "children": [],
      "charges": []
    },
    "tag": "feat_greaterTwoweaponFighting",
    "useCustomTag": true,
    "armorProf": {
      "value": []
    },
    "weaponProf": {
      "value": []
    },
    "languages": {
      "value": []
    },
    "scriptCalls": [],
    "associations": {
      "classes": []
    }
  }
}
