{
  "_id": "FSDatwC1s6GoV1Sf",
  "name": "Greater Penetrating Strike",
  "type": "feat",
  "img": "systems/pf1/icons/feats/greater-penatrating-strike.jpg",
  "sort": 0,
  "flags": {},
  "system": {
    "description": {
      "value": "\n                <i>Your attacks penetrate the defenses of most foes. </i>\n                <br />\n                <br />\n                \n                <p><b>Prerequisites</b></p>\n                <p> Penetrating Strike, Weapon Focus, 16th-level fighter.</p>\n                \n            <br />\n                <p><b>Benefits</b></p>\n                <p><p class=\"stat-block-1\"> Your attacks with weapons selected with Weapon Focus ignore up to 10 points of damage reduction. This amount is reduced to 5 points for damage reduction without a type (such as DR 10/&mdash;).</p></p>\n                \n            \n            "
    },
    "tags": [["Combat"], ["Weapon"], ["Offensive"]],
    "actions": [],
    "attackNotes": [],
    "effectNotes": [],
    "changes": [],
    "contextNotes": [],
    "links": {
      "children": [],
      "charges": []
    },
    "tag": "feat_greaterPenetratingStrike",
    "useCustomTag": true,
    "armorProf": {
      "value": []
    },
    "weaponProf": {
      "value": []
    },
    "languages": {
      "value": []
    },
    "scriptCalls": [],
    "associations": {
      "classes": []
    }
  }
}
