{
  "_id": "1HfwfBOSWtdxFQ2s",
  "name": "Improved Channel",
  "type": "feat",
  "img": "systems/pf1/icons/feats/improved-channel.jpg",
  "sort": 0,
  "flags": {},
  "system": {
    "description": {
      "value": "\n                <i>Your channeled energy is harder to resist.</i>\n                <br />\n                <br />\n                \n                <p><b>Prerequisites</b></p>\n                <p> Channel energy class feature.</p>\n                \n            <br />\n                <p><b>Benefits</b></p>\n                <p><p class=\"stat-block-1\"> Add 2 to the DC of saving throws made to resist the effects of your channel energy ability. </p></p>\n                \n            \n            "
    },
    "tags": [["Channeling"]],
    "actions": [],
    "attackNotes": [],
    "effectNotes": [],
    "changes": [],
    "contextNotes": [],
    "links": {
      "children": [],
      "charges": []
    },
    "tag": "feat_improvedChannel",
    "useCustomTag": true,
    "armorProf": {
      "value": []
    },
    "weaponProf": {
      "value": []
    },
    "languages": {
      "value": []
    },
    "scriptCalls": [],
    "associations": {
      "classes": []
    }
  }
}
