{
  "_id": "yE3hVOvBq9rx6TAw",
  "name": "Spellbreaker",
  "type": "feat",
  "img": "systems/pf1/icons/feats/spellbreaker.jpg",
  "sort": 0,
  "flags": {},
  "system": {
    "description": {
      "value": "\n                <i>You can strike at enemy spellcasters who fail to cast defensively when you threaten them.</i>\n                <br />\n                <br />\n                \n                <p><b>Prerequisites</b></p>\n                <p> Disruptive, 10th-level fighter.</p>\n                \n            <br />\n                <p><b>Benefits</b></p>\n                <p><p class=\"stat-block-1\"> Enemies in your threatened area that fail their checks to cast spells defensively provoke attacks of opportunity from you.</p></p>\n                \n            <br />\n                <p><b>Normal</b></p>\n                <p><p class=\"stat-block-1\"> Enemies that fail to cast spells defensively do not provoke attacks of opportunity.</p></p>\n                \n            \n            "
    },
    "tags": [["Combat"], ["Magic"], ["Offensive"]],
    "actions": [],
    "attackNotes": [],
    "effectNotes": [],
    "changes": [],
    "contextNotes": [],
    "links": {
      "children": [],
      "charges": []
    },
    "tag": "feat_spellbreaker",
    "useCustomTag": true,
    "armorProf": {
      "value": []
    },
    "weaponProf": {
      "value": []
    },
    "languages": {
      "value": []
    },
    "scriptCalls": [],
    "associations": {
      "classes": []
    }
  }
}
