{
  "name": "Arcane Malignancies",
  "img": "icons/magic/unholy/hand-marked-pink.webp",
  "results": [
    {
      "_id": "1L0YKX6tnMvS7cYK",
      "type": 0,
      "text": "The smallest three toes on each of your feet have fused together. You take a –2 penalty on @Compendium[pf1.skills.HPsdXjjRtKNGFGRc]{Acrobatics}, @Compendium[pf1.skills.xvua9V5Zggkc77Gt]{Climb}, and @Compendium[pf1.skills.HhV5UmaRLTjtB3Xh]{Perform (dance)} checks.",
      "weight": 1,
      "range": [1, 2],
      "drawn": false,
      "flags": {},
      "img": "icons/svg/d20-black.svg",
      "rangeL": 1,
      "rangeH": 2
    },
    {
      "_id": "Bf5xcbWI27KGrv7b",
      "type": 0,
      "text": "Your incisors grow so long and sharp that you have difficulty eating. Eating takes twice as long. Consuming a potion or other magical foodstuff requires a full-round action.",
      "weight": 1,
      "range": [3, 4],
      "drawn": false,
      "flags": {},
      "img": "icons/svg/d20-black.svg",
      "rangeL": 3,
      "rangeH": 4
    },
    {
      "_id": "QdgBIpYNZadJmZcb",
      "type": 0,
      "text": "You have an extra digit on each hand, which hampers your fine motor skills. You take a –2 penalty on @Compendium[pf1.skills.L6LEhHRrn53cMuhE]{Craft}, @Compendium[pf1.skills.CCy1fajKKU3K02iQ]{Disable Device}, and @Compendium[pf1.skills.zK0CbvpYLZhTN5Wn]{Sleight of Hand} checks.",
      "weight": 1,
      "range": [5, 7],
      "drawn": false,
      "flags": {},
      "img": "icons/svg/d20-black.svg",
      "rangeL": 5,
      "rangeH": 7
    },
    {
      "_id": "Al4UbOYe90fMqlgj",
      "type": 0,
      "text": "Your limbs and torso are covered with piscine scales that you must constantly moisten. If more than 1 day passes without you applying at least a gallon of water to them, you take 1d3 points of damage each hour until you do so.",
      "weight": 1,
      "range": [8, 10],
      "drawn": false,
      "flags": {},
      "img": "icons/svg/d20-black.svg",
      "rangeL": 8,
      "rangeH": 10
    },
    {
      "_id": "bRkk8VlVH4W4q2cA",
      "type": 0,
      "text": "Your skin bears a sizable scarlet mark that flushes and lightens with your moods. You take a –2 penalty on @Compendium[pf1.skills.pAB2PYkZO3lsmeaC]{Bluff} and @Compendium[pf1.skills.lP3L1RXi9q4ha9Gu]{Disguise} checks.",
      "weight": 1,
      "range": [11, 13],
      "drawn": false,
      "flags": {},
      "img": "icons/svg/d20-black.svg",
      "rangeL": 11,
      "rangeH": 13
    },
    {
      "_id": "S4ljobUtpP8b7PUl",
      "type": 0,
      "text": "One of your eyes has grown enlarged and developed a pale, milky film. Daylight seems uncomfortably bright to you. You take a –2 penalty on saving throws against light-based spells and effects, and you are automatically @Compendium[pf1.conditions.2pICNUG3g7O4obyu]{Dazzled} for 1d6 rounds when exposed to bright light or sunlight.",
      "weight": 1,
      "range": [14, 16],
      "drawn": false,
      "flags": {},
      "img": "icons/svg/d20-black.svg",
      "rangeL": 14,
      "rangeH": 16
    },
    {
      "_id": "IL4mvn2mLOxumrp5",
      "type": 0,
      "text": "The soles of your feet are flat, and you tire quickly. You can hustle for only a half hour before becoming @Compendium[pf1.conditions.nku8mgRBNt0iXqzB]{Fatigued}, and every 4 hours spent traveling by foot in a day deals 1 point of Constitution damage.",
      "weight": 1,
      "range": [17, 19],
      "drawn": false,
      "flags": {},
      "img": "icons/svg/d20-black.svg",
      "rangeL": 17,
      "rangeH": 19
    },
    {
      "_id": "RiMg4ivo2mx7TKxG",
      "type": 0,
      "text": "Your already pallid complexion grows unusually sensitive to the rays of the sun. Exposure to direct sunlight for more than 1 hour at a time makes you @Compendium[pf1.conditions.0AJZKIpP3lS3FVKa]{Sickened} for 24 hours.",
      "weight": 1,
      "range": [20, 22],
      "drawn": false,
      "flags": {},
      "img": "icons/svg/d20-black.svg",
      "rangeL": 20,
      "rangeH": 22
    },
    {
      "_id": "z5BA05MpeAnonVkg",
      "type": 0,
      "text": "The tip of your tongue is forked and stiff. You have difficulty making yourself understood. You take a –2 penalty on @Compendium[pf1.skills.pAB2PYkZO3lsmeaC]{Bluff}, @Compendium[pf1.skills.OtfbHJhIQsNzmiTN]{Diplomacy}, and @Compendium[pf1.skills.lP3L1RXi9q4ha9Gu]{Disguise} checks to fool or persuade others.",
      "weight": 1,
      "range": [23, 25],
      "drawn": false,
      "flags": {},
      "img": "icons/svg/d20-black.svg",
      "rangeL": 23,
      "rangeH": 25
    },
    {
      "_id": "xkXSyBmLiC2mHP37",
      "type": 0,
      "text": "The painful and stiff swelling of your joints puts you at a disadvantage in combat. You take a –2 penalty on combat maneuver checks and @Compendium[pf1.skills.AOQsMtvLY4V3wFEL]{Escape Artist} checks to free yourself when grappled or pinned.",
      "weight": 1,
      "range": [26, 28],
      "drawn": false,
      "flags": {},
      "img": "icons/svg/d20-black.svg",
      "rangeL": 26,
      "rangeH": 28
    },
    {
      "_id": "BXRP2hp1WvxqOSiD",
      "type": 0,
      "text": "Your ears have stretched to an abnormal size, making you overly sensitive to loud noises. Whenever you are dealt sonic damage, you take 1 additional point of damage, and you are @Compendium[pf1.conditions.ZTA39rR8AnZcydiu]{Deafened} for 1 minute whenever you take damage from any sonic effect.",
      "weight": 1,
      "range": [29, 31],
      "drawn": false,
      "flags": {},
      "img": "icons/svg/d20-black.svg",
      "rangeL": 29,
      "rangeH": 31
    },
    {
      "_id": "IFteWwJ6EDA0GWvJ",
      "type": 0,
      "text": "The pupils of your eyes resemble a cat’s, and beasts cannot abide your presence. You take a –2 penalty on @Compendium[pf1.skills.fXauAodbOBHBi7Mj]{Handle Animal} and @Compendium[pf1.skills.mKO8Q4uMiqpMySOZ]{Ride} checks.",
      "weight": 1,
      "range": [32, 33],
      "drawn": false,
      "flags": {},
      "img": "icons/svg/d20-black.svg",
      "rangeL": 32,
      "rangeH": 33
    },
    {
      "_id": "mtMlXIkNOHFZhbk1",
      "type": 0,
      "text": "You grow velvety-soft fur along your back, arms, and legs that chafes and catches under clothing and armor, increasing the armor check penalty of any armor by 1 and applying a –1 armor check penalty to ordinary clothing. Clothing and armor can be specially fitted for you, eliminating the increased penalty but increasing their price by 50 gp.",
      "weight": 1,
      "range": [34, 35],
      "drawn": false,
      "flags": {},
      "img": "icons/svg/d20-black.svg",
      "rangeL": 34,
      "rangeH": 35
    },
    {
      "_id": "i3iA0Fikd7Vw12CI",
      "type": 0,
      "text": "You grow an extra row of sharp, crooked teeth. The uneven set of your jaws gives you constant headaches. You take a –2 penalty on concentration checks and saving throws against pain effects.",
      "weight": 1,
      "range": [36, 37],
      "drawn": false,
      "flags": {},
      "img": "icons/svg/d20-black.svg",
      "rangeL": 36,
      "rangeH": 37
    },
    {
      "_id": "VwaHD5YjLnQKli2k",
      "type": 0,
      "text": "It is nearly impossible to find armor that fits your concave chest and unusually narrow, sloping shoulders. The armor check penalty of any armor you wear increases by 1, and you take a –1 penalty to AC when wearing medium or heavy armor.",
      "weight": 1,
      "range": [38, 40],
      "drawn": false,
      "flags": {},
      "img": "icons/svg/d20-black.svg",
      "rangeL": 38,
      "rangeH": 40
    },
    {
      "_id": "j5rNurO2d8ABhTfE",
      "type": 0,
      "text": "Your throat balloons out like a frog’s, and your voice comes out as an odd croak. You take a –2 penalty on @Compendium[pf1.skills.OtfbHJhIQsNzmiTN]{Diplomacy} checks and on @Compendium[pf1.skills.HhV5UmaRLTjtB3Xh]{Perform (act, oratory, and sing)} checks.",
      "weight": 1,
      "range": [41, 42],
      "drawn": false,
      "flags": {},
      "img": "icons/svg/d20-black.svg",
      "rangeL": 41,
      "rangeH": 42
    },
    {
      "_id": "XaQ97YaGODHye2P4",
      "type": 0,
      "text": "An oozing sore has developed on your face that refuses to heal and makes you more susceptible to illness. You take a –2 penalty on saving throws against disease.",
      "weight": 1,
      "range": [43, 45],
      "drawn": false,
      "flags": {},
      "img": "icons/svg/d20-black.svg",
      "rangeL": 43,
      "rangeH": 45
    },
    {
      "_id": "Z8VPnu3SA0BFisbQ",
      "type": 0,
      "text": "Your flesh grows bark, and your major joints have become gnarled and knotted like tree limbs, causing you to move slowly and stiffly. You take a –2 penalty on Reflex saves.",
      "weight": 1,
      "range": [46, 48],
      "drawn": false,
      "flags": {},
      "img": "icons/svg/d20-black.svg",
      "rangeL": 46,
      "rangeH": 48
    },
    {
      "_id": "1e0ccATCfwRbDv1S",
      "type": 0,
      "text": "Your thin, almost translucent skin is delicate and tears easily. You take 1 point of bleed damage from slashing attacks that deal at least 1 point of damage to you.",
      "weight": 1,
      "range": [49, 51],
      "drawn": false,
      "flags": {},
      "img": "icons/svg/d20-black.svg",
      "rangeL": 49,
      "rangeH": 51
    },
    {
      "_id": "SBCPV4ACTmyzRHsu",
      "type": 0,
      "text": "A massive patch of multicolored warts covers much of your face. People cannot help but stare, and they always remember you once they’ve seen you. You take a –4 penalty on @Compendium[pf1.skills.lP3L1RXi9q4ha9Gu]{Disguise} checks.",
      "weight": 1,
      "range": [52, 54],
      "drawn": false,
      "flags": {},
      "img": "icons/svg/d20-black.svg",
      "rangeL": 52,
      "rangeH": 54
    },
    {
      "_id": "A2hJZCMzReLCV5jE",
      "type": 0,
      "text": "Your unruly hair grows with alarming speed. If you do not spend 1 hour trimming and grooming your hair every 48 hours, it snarls in nearby foliage whenever you are outdoors, imposing a –2 penalty to your Armor Class and on attack rolls and @Compendium[pf1.skills.T6nefKotIb5vKE9h]{Stealth} checks.",
      "weight": 1,
      "range": [55, 57],
      "drawn": false,
      "flags": {},
      "img": "icons/svg/d20-black.svg",
      "rangeL": 55,
      "rangeH": 57
    },
    {
      "_id": "jPZIRrAUKoiiG7nJ",
      "type": 0,
      "text": "Your limbs are thin and frail. You take a –2 penalty to CMD against disarm, grapple, and trip attempts.",
      "weight": 1,
      "range": [58, 60],
      "drawn": false,
      "flags": {},
      "img": "icons/svg/d20-black.svg",
      "rangeL": 58,
      "rangeH": 60
    },
    {
      "_id": "1PvkZc1wtWMr4Tjp",
      "type": 0,
      "text": "Your bones shatter as easily as glass. You take 2 additional points of damage each time you are hit by an attack made with a bludgeoning weapon.",
      "weight": 1,
      "range": [61, 63],
      "drawn": false,
      "flags": {},
      "img": "icons/svg/d20-black.svg",
      "rangeL": 61,
      "rangeH": 63
    },
    {
      "_id": "rBVd43kPusVE6ATb",
      "type": 0,
      "text": "One arm is turning to stone, though you retain limited mobility. You take a –4 penalty on all skill checks requiring the use of two hands and on attack rolls when wielding a two-handed weapon or fighting with two weapons.",
      "weight": 1,
      "range": [64, 65],
      "drawn": false,
      "flags": {},
      "img": "icons/svg/d20-black.svg",
      "rangeL": 64,
      "rangeH": 65
    },
    {
      "_id": "HgrxXBjRStjULWCi",
      "type": 0,
      "text": "You develop an allergy to one spell per spell level from the witch spell list (determined by your GM). Casting or being the target of a spell you’re allergic to causes you to break out in a painful rash. This rash deals 1d4 points of damage per spell level, and imposes a penalty on your Charisma equal to the level of the spell. The rash fades after a number of hours equal to the level of the spell.",
      "weight": 1,
      "range": [66, 67],
      "drawn": false,
      "flags": {},
      "img": "icons/svg/d20-black.svg",
      "rangeL": 66,
      "rangeH": 67
    },
    {
      "_id": "x5kAubzC7vAbax3M",
      "type": 0,
      "text": "The joints in your unnaturally long thumbs have fused, and you often fumble objects. When you retrieve a stored item, you have a 10% chance of dropping it.",
      "weight": 1,
      "range": [68, 69],
      "drawn": false,
      "flags": {},
      "img": "icons/svg/d20-black.svg",
      "rangeL": 68,
      "rangeH": 69
    },
    {
      "_id": "90kHOFcDxGQxKLhK",
      "type": 0,
      "text": "Your knees bend backward like a bird’s, which makes many athletic movements difficult to master. You take a –2 penalty on @Compendium[pf1.skills.xvua9V5Zggkc77Gt]{Climb} and @Compendium[pf1.skills.weCPHUuXi9sF5r4E]{Swim} checks, and your running speed is only three times your regular walking speed.",
      "weight": 1,
      "range": [70, 72],
      "drawn": false,
      "flags": {},
      "img": "icons/svg/d20-black.svg",
      "rangeL": 70,
      "rangeH": 72
    },
    {
      "_id": "V6TCPe72MHbdpjq7",
      "type": 0,
      "text": "A tenacious patch of fungus has sprouted on your back, weakening your system against toxins. You take a –2 penalty on saves against poison effects.",
      "weight": 1,
      "range": [73, 75],
      "drawn": false,
      "flags": {},
      "img": "icons/svg/d20-black.svg",
      "rangeL": 73,
      "rangeH": 75
    },
    {
      "_id": "U49Lv0Le2vZLJ5tU",
      "type": 0,
      "text": "Your misaligned eyes affect your ability to judge distances. You take a –2 penalty on ranged attack and damage rolls.",
      "weight": 1,
      "range": [76, 77],
      "drawn": false,
      "flags": {},
      "img": "icons/svg/d20-black.svg",
      "rangeL": 76,
      "rangeH": 77
    },
    {
      "_id": "aDDEQpCH3Vh1ZAyu",
      "type": 0,
      "text": "When you get flustered, heat builds up in your face until it glows with inner fire. You take a –4 penalty on @Compendium[pf1.skills.OtfbHJhIQsNzmiTN]{Diplomacy} and @Compendium[pf1.skills.HhV5UmaRLTjtB3Xh]{Perform} checks when in the presence of 5 or more creatures.",
      "weight": 1,
      "range": [78, 80],
      "drawn": false,
      "flags": {},
      "img": "icons/svg/d20-black.svg",
      "rangeL": 78,
      "rangeH": 80
    },
    {
      "_id": "r368jGxcv2xDGaC6",
      "type": 0,
      "text": "Your ears curl up like dried leaves, and you experience difficulty picking up sounds. You take a –2 penalty on hearing-based @Compendium[pf1.skills.YYmmxDgp0g3ltSUG]{Perception} checks.",
      "weight": 1,
      "range": [81, 83],
      "drawn": false,
      "flags": {},
      "img": "icons/svg/d20-black.svg",
      "rangeL": 81,
      "rangeH": 83
    },
    {
      "_id": "jOFHBYJsKdMsrHRi",
      "type": 0,
      "text": "Your curving, clawlike fingernails grow so long so quickly that they impede you in dangerous situations. You take a –2 penalty on @Compendium[pf1.skills.AOQsMtvLY4V3wFEL]{Escape Artist} and @Compendium[pf1.skills.zK0CbvpYLZhTN5Wn]{Sleight of Hand} checks.",
      "weight": 1,
      "range": [84, 86],
      "drawn": false,
      "flags": {},
      "img": "icons/svg/d20-black.svg",
      "rangeL": 84,
      "rangeH": 86
    },
    {
      "_id": "mvtkfn7GX0PtxuzP",
      "type": 0,
      "text": "One of your legs measures noticeably longer than the other, and you lose your balance easily. You take a –2 penalty to CMD against bull rush and trip attempts.",
      "weight": 1,
      "range": [87, 89],
      "drawn": false,
      "flags": {},
      "img": "icons/svg/d20-black.svg",
      "rangeL": 87,
      "rangeH": 89
    },
    {
      "_id": "2WNV1Q1cbg81dYsx",
      "type": 0,
      "text": "Your eyes have swollen to mere slits. You take a –2 penalty on sight-based @Compendium[pf1.skills.YYmmxDgp0g3ltSUG]{Perception} checks.",
      "weight": 1,
      "range": [90, 92],
      "drawn": false,
      "flags": {},
      "img": "icons/svg/d20-black.svg",
      "rangeL": 90,
      "rangeH": 92
    },
    {
      "_id": "Im2met4fcUqoLnNS",
      "type": 0,
      "text": "You develop a shaggy pelt about your neck and shoulders that makes you overheat quickly. You take a –4 penalty on checks and saves to resist environmental heat effects.",
      "weight": 1,
      "range": [93, 96],
      "drawn": false,
      "flags": {},
      "img": "icons/svg/d20-black.svg",
      "rangeL": 93,
      "rangeH": 96
    },
    {
      "_id": "LgMK0tMIGSO4oWbd",
      "type": 0,
      "text": "You grow a tail that you can’t easily conceal and that thrashes violently at inconvenient moments. You take a –2 penalty on @Compendium[pf1.skills.lP3L1RXi9q4ha9Gu]{Disguise} and @Compendium[pf1.skills.T6nefKotIb5vKE9h]{Stealth} checks.",
      "weight": 1,
      "range": [97, 98],
      "drawn": false,
      "flags": {},
      "img": "icons/svg/d20-black.svg",
      "rangeL": 97,
      "rangeH": 98
    },
    {
      "_id": "pglLcIxKmNuvfKT6",
      "type": 0,
      "text": "You grow vestigial gills. While they grant you no ability to breathe in water, they make it harder for you to catch your breath. When you are fatigued, it takes 12 hours of complete rest to recover. When you are exhausted, it takes 2 hours of complete rest to become fatigued.",
      "weight": 1,
      "range": [99, 100],
      "drawn": false,
      "flags": {},
      "img": "icons/svg/d20-black.svg",
      "rangeL": 99,
      "rangeH": 100
    }
  ],
  "formula": "1d100",
  "replacement": true,
  "displayRoll": true,
  "sort": 0,
  "flags": {},
  "_id": "Vm8ccE6qchTx2Trn"
}
