{
  "_id": "84twkW8rwnUEX4EY",
  "name": "Barbed Bolt",
  "type": "loot",
  "img": "systems/pf1/icons/items/weapons/bolt.PNG",
  "sort": 0,
  "flags": {},
  "system": {
    "description": {
      "value": "<p><strong>Source</strong> <em>Ranged Tactics Toolbox pg. 19</em></p>\n<h3 class=\"framing\"><span title=\"PFS Legal\">[PFS]</span> Statistics</h3>\n<p><strong>Cost</strong> 2 gp <strong>Weight</strong> 3 lbs.</p>\n<p><strong>Category</strong> Ammunition; <strong>Proficiency</strong> Ammunition</p>\n<h3 class=\"framing\">Description</h3>\n<p>The head of a barbed arrow resembles that of a harpoon.</p>\n<p>When a barbed arrow is attached to a length of silk rope and fired from a bow, the arrow's range increment is reduced to 30 feet, but it gains the <strong>grapple special weapon quality</strong> (<em>Pathfinder RPG Ultimate Equipment</em> 22).</p>\n<p>Barbed bolts exist for crossbows.</p>"
    },
    "tags": [],
    "weight": {
      "value": 0.15
    },
    "price": 0.1,
    "equipped": false,
    "hp": {
      "max": 1,
      "value": 1
    },
    "hardness": 5,
    "unidentified": {
      "price": 0.1
    },
    "identifiedName": "Barbed Bolt",
    "changes": [],
    "contextNotes": [],
    "links": {
      "children": []
    },
    "scriptCalls": [],
    "subType": "ammo",
    "extraType": "bolt"
  }
}
