{
  "_id": "iSURd9p5uDXTaQwP",
  "name": "Bayonet",
  "type": "weapon",
  "img": "systems/pf1/icons/items/weapons/bayonet.PNG",
  "sort": 0,
  "flags": {},
  "system": {
    "description": {
      "value": "<p><strong>Source</strong> <em>Ultimate Equipment pg. 17</em>, <em>Adventurer's Armory pg. 2</em>, <em>Pirates of the Inner Sea pg. 19</em>, <em>Advanced Player's Guide pg. 176</em>, <em>Skull and Shackles Player's Guide pg. 6</em></p><h3 class=\"framing\">Statistics</h3><p><strong>Cost</strong> 5 gp <strong>Weight</strong> 1 lb.</p><p><strong>Damage</strong> 1d4 (small), 1d6 (medium); <strong>Critical</strong> x2; <strong>Range</strong> -; <strong>Type</strong> P; <strong>Special</strong> -</p><p><strong>Category</strong> Two-Handed; <strong>Proficiency</strong> Simple</p><p><strong>Weapon Groups</strong> Blades, Light; Close</p><h3 class=\"framing\">Description</h3><p>Bayonets are close combat weapons designed to fit into the grooves or muzzles of crossbows and firearms. They allow you to make melee attacks with these weapons but render them temporarily useless as ranged weapons. Attaching or removing a bayonet is a move action.</p>"
    },
    "tags": [],
    "weight": {
      "value": 1
    },
    "price": 5,
    "hardness": 10,
    "identifiedName": "Bayonet",
    "changes": [],
    "actions": [
      {
        "_id": "nd6ua88t1om955za",
        "name": "Attack",
        "img": "systems/pf1/icons/items/weapons/bayonet.PNG",
        "description": "",
        "tag": "",
        "activation": {
          "cost": 1,
          "type": "attack"
        },
        "unchainedAction": {
          "activation": {
            "cost": 1,
            "type": ""
          }
        },
        "duration": {
          "value": null,
          "units": "inst"
        },
        "target": {
          "value": ""
        },
        "range": {
          "value": "0",
          "units": "melee",
          "maxIncrements": 1,
          "minValue": null,
          "minUnits": ""
        },
        "uses": {
          "autoDeductChargesCost": "",
          "self": {
            "value": 0,
            "maxFormula": "",
            "per": null
          },
          "per": "",
          "value": 0,
          "maxFormula": ""
        },
        "measureTemplate": {
          "type": "",
          "size": "",
          "overrideColor": false,
          "customColor": "",
          "overrideTexture": false,
          "customTexture": ""
        },
        "attackName": "",
        "actionType": "mwak",
        "attackBonus": "",
        "critConfirmBonus": "",
        "damage": {
          "parts": [
            [
              "sizeRoll(1, 6, @size)",
              {
                "values": ["piercing"],
                "custom": ""
              }
            ]
          ],
          "critParts": [],
          "nonCritParts": []
        },
        "attackParts": [],
        "formulaicAttacks": {
          "count": {
            "formula": "min(3, ceil(@attributes.bab.total / 5) - 1)"
          },
          "bonus": {
            "formula": "@formulaicAttack * -5"
          },
          "label": null
        },
        "formula": "",
        "ability": {
          "attack": "str",
          "damage": "str",
          "damageMult": 1.5,
          "critRange": 20,
          "critMult": 2
        },
        "save": {
          "dc": "0",
          "type": "",
          "description": ""
        },
        "effectNotes": [],
        "attackNotes": [],
        "soundEffect": "",
        "powerAttack": {
          "multiplier": "",
          "damageBonus": 2,
          "critMultiplier": 1
        },
        "naturalAttack": {
          "primaryAttack": true,
          "secondary": {
            "attackBonus": "-5",
            "damageMult": 0.5
          }
        },
        "nonlethal": false,
        "usesAmmo": false,
        "spellEffect": "",
        "spellArea": "",
        "conditionals": [],
        "enh": {
          "value": null
        }
      }
    ],
    "uses": {
      "per": ""
    },
    "attackNotes": [],
    "effectNotes": [],
    "contextNotes": [],
    "links": {
      "children": []
    },
    "tag": "bayonet",
    "scriptCalls": [],
    "held": "2h",
    "weaponGroups": {
      "value": ["bladesLight", "close"]
    },
    "weaponSubtype": "2h"
  }
}
