{
  "_id": "gYFqEtGQkZFiPPmG",
  "name": "Dragoon Pistol",
  "type": "weapon",
  "img": "icons/weapons/guns/gun-red.webp",
  "sort": 0,
  "flags": {},
  "system": {
    "description": {
      "value": "<p><strong>Source</strong> <em>Villain Codex pg. 57</em></p><h3 class=\"framing\">Statistics</h3><p><strong>Cost</strong> 1,500 gp <strong>Weight</strong> 5 lbs.</p><p><strong>Damage</strong> 1d6 (small), 1d8 (medium); <strong>Critical</strong> x3; <strong>Range</strong> 30 ft.; <strong>Type</strong> B and P; <strong>Special</strong> -</p><p><strong>Misfire</strong> 1 (5 ft.); <strong>Capacity</strong> 3</p><p><strong>Category</strong> One-Handed; <strong>Proficiency</strong> Exotic</p><h3 class=\"framing\">Description</h3><p>Like the dragoon musket, this long-barreled pistol is more precise than a typical pistol but slightly less deadly on a critical hit. It can fire only dragoon cartridges or specially modified <em>mage shot</em>.</p>"
    },
    "tags": [],
    "weight": {
      "value": 5
    },
    "price": 1500,
    "hardness": 10,
    "identifiedName": "Dragoon Pistol",
    "changes": [],
    "actions": [
      {
        "_id": "6h61fx01rxp9koy6",
        "name": "Attack",
        "img": "icons/weapons/guns/gun-red.webp",
        "description": "",
        "tag": "",
        "activation": {
          "cost": 1,
          "type": "attack"
        },
        "unchainedAction": {
          "activation": {
            "cost": 1,
            "type": ""
          }
        },
        "duration": {
          "value": null,
          "units": "inst"
        },
        "target": {
          "value": ""
        },
        "range": {
          "value": "30",
          "units": "ft",
          "maxIncrements": 10,
          "minValue": null,
          "minUnits": ""
        },
        "uses": {
          "autoDeductChargesCost": "",
          "self": {
            "value": 0,
            "maxFormula": "",
            "per": null
          },
          "per": "",
          "value": 0,
          "maxFormula": ""
        },
        "measureTemplate": {
          "type": "",
          "size": "",
          "overrideColor": false,
          "customColor": "",
          "overrideTexture": false,
          "customTexture": ""
        },
        "attackName": "",
        "actionType": "rwak",
        "attackBonus": "",
        "critConfirmBonus": "",
        "damage": {
          "parts": [
            [
              "sizeRoll(1, 8, @size)",
              {
                "values": ["bludgeoning", "piercing"],
                "custom": ""
              }
            ]
          ],
          "critParts": [],
          "nonCritParts": []
        },
        "attackParts": [],
        "formulaicAttacks": {
          "count": {
            "formula": "min(3, ceil(@attributes.bab.total / 5) - 1)"
          },
          "bonus": {
            "formula": "@formulaicAttack * -5"
          },
          "label": ""
        },
        "formula": "",
        "ability": {
          "attack": "dex",
          "damage": "",
          "damageMult": 1,
          "critRange": 20,
          "critMult": 3
        },
        "save": {
          "dc": "0",
          "type": "",
          "description": ""
        },
        "effectNotes": [],
        "attackNotes": [],
        "soundEffect": "",
        "powerAttack": {
          "multiplier": "",
          "damageBonus": 2,
          "critMultiplier": 1
        },
        "naturalAttack": {
          "primaryAttack": true,
          "secondary": {
            "attackBonus": "-5",
            "damageMult": 0.5
          }
        },
        "nonlethal": false,
        "usesAmmo": true,
        "spellEffect": "",
        "spellArea": "",
        "conditionals": [],
        "enh": {
          "value": null
        },
        "ammoType": "dragoonBullet"
      }
    ],
    "uses": {
      "per": ""
    },
    "attackNotes": [],
    "effectNotes": [],
    "contextNotes": [],
    "links": {
      "children": []
    },
    "tag": "dragoonPistol",
    "scriptCalls": [],
    "weaponGroups": {
      "value": ["firearms"]
    },
    "subType": "exotic",
    "weaponSubtype": "ranged",
    "ammoType": "dragoonBullet"
  }
}
