{
  "_id": "VM6EF0t88wdSMQDd",
  "name": "Gnome Hooked Hammer",
  "type": "weapon",
  "img": "systems/pf1/icons/items/weapons/gnome-hooked-hammer.png",
  "sort": 0,
  "flags": {},
  "system": {
    "description": {
      "value": "<p><strong>Source</strong> <em>Ultimate Equipment pg. 20</em>, <em>PRPG Core Rulebook pg. 143</em></p><h3 class=\"framing\"><span title=\"PFS Legal\">[PFS]</span> Statistics</h3><p><strong>Cost</strong> 20 gp <strong>Weight</strong> 6 lbs.</p><p><strong>Damage</strong> 1d6/1d4 (small), 1d8/1d6 (medium); <strong>Critical</strong> x3/x4; <strong>Range</strong> -; <strong>Type</strong> B or P; <strong>Special</strong> double, trip</p><p><strong>Category</strong> Two-Handed; <strong>Proficiency</strong> Exotic</p><p><strong>Weapon Groups</strong> Double</p><h3 class=\"framing\">Description</h3><p>A gnome hooked hammer is a double weapon-an ingenious tool with a hammer head at one end of its haft and a long, curved pick at the other. The hammer's blunt head is a bludgeoning weapon that deals 1d6 points of damage (critical multiplier x3). Its hook is a piercing weapon that deals 1d4 points of damage (critical multiplier x4). You can use either head as the primary weapon. Gnomes treat hooked hammers as martial weapons.</p>"
    },
    "tags": [],
    "weight": {
      "value": 6
    },
    "price": 20,
    "hardness": 10,
    "identifiedName": "Gnome Hooked Hammer",
    "changes": [],
    "actions": [
      {
        "_id": "8bx7f79sxrl41e7s",
        "name": "Attack",
        "img": "systems/pf1/icons/items/weapons/gnome-hooked-hammer.png",
        "description": "",
        "tag": "",
        "activation": {
          "cost": 1,
          "type": "attack"
        },
        "unchainedAction": {
          "activation": {
            "cost": 1,
            "type": ""
          }
        },
        "duration": {
          "value": null,
          "units": "inst"
        },
        "target": {
          "value": ""
        },
        "range": {
          "value": "0",
          "units": "melee",
          "maxIncrements": 1,
          "minValue": null,
          "minUnits": ""
        },
        "uses": {
          "autoDeductChargesCost": "",
          "self": {
            "value": 0,
            "maxFormula": "",
            "per": null
          },
          "per": "",
          "value": 0,
          "maxFormula": ""
        },
        "measureTemplate": {
          "type": "",
          "size": "",
          "overrideColor": false,
          "customColor": "",
          "overrideTexture": false,
          "customTexture": ""
        },
        "attackName": "",
        "actionType": "mwak",
        "attackBonus": "",
        "critConfirmBonus": "",
        "damage": {
          "parts": [
            [
              "sizeRoll(1, 8, @size)",
              {
                "values": ["bludgeoning", "piercing"],
                "custom": ""
              }
            ]
          ],
          "critParts": [],
          "nonCritParts": []
        },
        "attackParts": [],
        "formulaicAttacks": {
          "count": {
            "formula": "min(3, ceil(@attributes.bab.total / 5) - 1)"
          },
          "bonus": {
            "formula": "@formulaicAttack * -5"
          },
          "label": null
        },
        "formula": "",
        "ability": {
          "attack": "str",
          "damage": "str",
          "damageMult": 1.5,
          "critRange": 20,
          "critMult": 3
        },
        "save": {
          "dc": "0",
          "type": "",
          "description": ""
        },
        "effectNotes": [],
        "attackNotes": [],
        "soundEffect": "",
        "powerAttack": {
          "multiplier": "",
          "damageBonus": 2,
          "critMultiplier": 1
        },
        "naturalAttack": {
          "primaryAttack": true,
          "secondary": {
            "attackBonus": "-5",
            "damageMult": 0.5
          }
        },
        "nonlethal": false,
        "usesAmmo": false,
        "spellEffect": "",
        "spellArea": "",
        "conditionals": [],
        "enh": {
          "value": null
        }
      }
    ],
    "uses": {
      "per": ""
    },
    "attackNotes": [],
    "effectNotes": [],
    "contextNotes": [],
    "links": {
      "children": []
    },
    "tag": "gnomeHookedHammer",
    "scriptCalls": [],
    "held": "2h",
    "weaponGroups": {
      "value": ["double"]
    },
    "subType": "exotic",
    "weaponSubtype": "2h"
  }
}
