{
  "_id": "lNkiFRCBELwKFaTg",
  "name": "Horse Bow",
  "type": "weapon",
  "img": "systems/pf1/icons/items/weapons/orc-hornbow.png",
  "sort": 0,
  "flags": {},
  "system": {
    "description": {
      "value": "<p><strong>Source</strong> <em>Merchant's Manifest pg. 24</em></p><h3 class=\"framing\">Statistics</h3><p><strong>Cost</strong> 150 gp <strong>Weight</strong> 3 lbs.</p><p><strong>Damage</strong> 1d6 (small), 1d8 (medium); <strong>Critical</strong> x3; <strong>Range</strong> 110 ft.; <strong>Type</strong> P; <strong>Special</strong> -</p><p><strong>Category</strong> Ranged; <strong>Proficiency</strong> Exotic</p><h3 class=\"framing\">Description</h3><p>The horse bow functions like a composite longbow, but it is designed to be used on horseback. A rider using a horse bow can make ranged attacks while mounted; furthermore, she does not take a penalty to attack rolls when her mount is taking a double move action, and she takes only a -4 penalty on attack rolls when her mount is running. The price of this item is for a default horse bow; each point of Strength bonus granted by the horse bow adds 150 gp to its cost.</p>"
    },
    "tags": [],
    "weight": {
      "value": 3
    },
    "price": 150,
    "hp": {
      "max": 5,
      "value": 5
    },
    "hardness": 5,
    "identifiedName": "Horse Bow",
    "changes": [],
    "actions": [
      {
        "_id": "1hr6fct5ajo2t2c5",
        "name": "Attack",
        "img": "systems/pf1/icons/items/weapons/orc-hornbow.png",
        "description": "",
        "tag": "",
        "activation": {
          "cost": 1,
          "type": "attack"
        },
        "unchainedAction": {
          "activation": {
            "cost": 1,
            "type": ""
          }
        },
        "duration": {
          "value": null,
          "units": "inst"
        },
        "target": {
          "value": ""
        },
        "range": {
          "value": "110",
          "units": "ft",
          "maxIncrements": 1,
          "minValue": null,
          "minUnits": ""
        },
        "uses": {
          "autoDeductChargesCost": "",
          "self": {
            "value": 0,
            "maxFormula": "",
            "per": null
          },
          "per": "",
          "value": 0,
          "maxFormula": ""
        },
        "measureTemplate": {
          "type": "",
          "size": "",
          "overrideColor": false,
          "customColor": "",
          "overrideTexture": false,
          "customTexture": ""
        },
        "attackName": "",
        "actionType": "rwak",
        "attackBonus": "",
        "critConfirmBonus": "",
        "damage": {
          "parts": [
            [
              "sizeRoll(1, 8, @size) + min(@abilities.str.mod, 0)",
              {
                "values": ["piercing"],
                "custom": ""
              }
            ]
          ],
          "critParts": [],
          "nonCritParts": []
        },
        "attackParts": [],
        "formulaicAttacks": {
          "count": {
            "formula": "min(3, ceil(@attributes.bab.total / 5) - 1)"
          },
          "bonus": {
            "formula": "@formulaicAttack * -5"
          },
          "label": ""
        },
        "formula": "",
        "ability": {
          "attack": "dex",
          "damage": "",
          "damageMult": 1,
          "critRange": 20,
          "critMult": 3
        },
        "save": {
          "dc": "0",
          "type": "",
          "description": ""
        },
        "effectNotes": [],
        "attackNotes": [],
        "soundEffect": "",
        "powerAttack": {
          "multiplier": "",
          "damageBonus": 2,
          "critMultiplier": 1
        },
        "naturalAttack": {
          "primaryAttack": true,
          "secondary": {
            "attackBonus": "-5",
            "damageMult": 0.5
          }
        },
        "nonlethal": false,
        "usesAmmo": true,
        "spellEffect": "",
        "spellArea": "",
        "conditionals": [],
        "enh": {
          "value": null
        },
        "ammoType": "arrow"
      }
    ],
    "uses": {
      "per": ""
    },
    "attackNotes": [],
    "effectNotes": [],
    "contextNotes": [],
    "links": {
      "children": []
    },
    "tag": "horseBow",
    "scriptCalls": [],
    "weaponGroups": {
      "value": []
    },
    "subType": "exotic",
    "weaponSubtype": "ranged",
    "ammoType": "arrow"
  }
}
