{
  "_id": "KVnt2bU40TdySu6L",
  "name": "Lizard King War Trident",
  "type": "weapon",
  "img": "icons/weapons/polearms/trident-silver-blue.webp",
  "sort": 0,
  "flags": {},
  "system": {
    "description": {
      "value": "<p><strong>Source</strong> <em>Classic Monsters Revisited pg. 38</em></p>\n<h3 class=\"framing\"><span title=\"3.5 Material\">[3.5]</span> Statistics</h3>\n<p><strong>Cost</strong> 20 gp <strong>Weight</strong> 12 lbs.</p>\n<p><strong>Damage</strong> see text (small), see text (medium); <strong>Critical</strong> x3; <strong>Range</strong> 10 ft.; <strong>Type</strong> P; <strong>Special</strong> brace</p>\n<p><strong>Category</strong> Two-Handed; <strong>Proficiency</strong> Martial</p>\n<h3 class=\"framing\">Description</h3>\n<p>Upon his 100th birthday, a lizard king's status is officially acknowledged, and he is honored with the presentation of a special weapon, the war trident, reserved exclusively for the use of his kind. These large, two-handed tridents are much heavier than normal (12 pounds) in order to take advantage of their wielders' great strength, and as a result they lose their range increment but deal 1d10 points of damage and have a x3 critical hit multiplier. In addition, extensive ritualistic practice with this weapon gives the lizard king the Improved Critical (war trident) feat as a bonus feat. A war trident is worth 20 gp, although most are masterwork and many are inlaid with precious metals and fetch higher prices.</p>"
    },
    "tags": [],
    "weight": {
      "value": 12
    },
    "price": 20,
    "hardness": 10,
    "identifiedName": "Lizard King War Trident",
    "changes": [],
    "actions": [
      {
        "_id": "4gghr0xjseu2iw4h",
        "name": "Attack",
        "img": "icons/weapons/polearms/trident-silver-blue.webp",
        "description": "",
        "tag": "",
        "activation": {
          "cost": 1,
          "type": "attack"
        },
        "unchainedAction": {
          "activation": {
            "cost": 1,
            "type": ""
          }
        },
        "duration": {
          "value": null,
          "units": "inst"
        },
        "target": {
          "value": ""
        },
        "range": {
          "value": "10",
          "units": "melee",
          "maxIncrements": 1,
          "minValue": null,
          "minUnits": ""
        },
        "uses": {
          "autoDeductChargesCost": "",
          "self": {
            "value": 0,
            "maxFormula": "",
            "per": null
          },
          "per": null,
          "value": 0,
          "maxFormula": ""
        },
        "measureTemplate": {
          "type": "",
          "size": "",
          "overrideColor": false,
          "customColor": "",
          "overrideTexture": false,
          "customTexture": ""
        },
        "attackName": "",
        "actionType": "mwak",
        "attackBonus": "",
        "critConfirmBonus": "",
        "damage": {
          "parts": [
            [
              "NULL",
              {
                "values": ["piercing"],
                "custom": ""
              }
            ]
          ],
          "critParts": [],
          "nonCritParts": []
        },
        "attackParts": [],
        "formulaicAttacks": {
          "count": {
            "formula": "min(3, ceil(@attributes.bab.total / 5) - 1)"
          },
          "bonus": {
            "formula": "@formulaicAttack * -5"
          },
          "label": null
        },
        "formula": "",
        "ability": {
          "attack": "str",
          "damage": "str",
          "damageMult": 1.5,
          "critRange": 20,
          "critMult": 3
        },
        "save": {
          "dc": 0,
          "type": "",
          "description": ""
        },
        "effectNotes": [],
        "attackNotes": [],
        "soundEffect": "",
        "powerAttack": {
          "multiplier": "",
          "damageBonus": 2,
          "critMultiplier": 1
        },
        "naturalAttack": {
          "primaryAttack": true,
          "secondary": {
            "attackBonus": "-5",
            "damageMult": 0.5
          }
        },
        "nonlethal": false,
        "usesAmmo": false,
        "spellEffect": "",
        "spellArea": "",
        "conditionals": [],
        "enh": {
          "value": null
        }
      }
    ],
    "attackNotes": [],
    "effectNotes": [],
    "contextNotes": [],
    "links": {
      "children": []
    },
    "tag": "lizardKingWarTrident",
    "scriptCalls": [],
    "held": "2h",
    "weaponGroups": {
      "value": []
    },
    "subType": "martial",
    "weaponSubtype": "2h"
  }
}
