{
  "_id": "Fkt9Z6CdwJpgRqsY",
  "name": "Rocket Springal",
  "type": "weapon",
  "img": "icons/weapons/artillery/ballista-wood-green.webp",
  "sort": 0,
  "flags": {},
  "system": {
    "description": {
      "value": "<p><strong>Source</strong> <em>Ultimate Combat pg. 163</em></p><h3 class=\"framing\">Statistics</h3><p><strong>Cost</strong> 6,000 gp <strong>Weight</strong> -</p><p><strong>Damage</strong> 3d10; <strong>Critical</strong> x4; <strong>Range</strong> 100 ft. (50 ft. min.); <strong>Type</strong> fire</p><p><strong>Crew</strong> 3; <strong>Aim</strong> 2; <strong>Load</strong> 3; <strong>Speed</strong> 0 ft.</p><p><strong>Category</strong> Indirect-Fire (Huge); <strong>Proficiency</strong> Siege Engine</p><h3 class=\"framing\">Description</h3><p>A springal uses a torsion-cranked composite paddle to strike a firing rack containing multiple arrows or black-powder-propelled rockets, which rain down in an arc over a burst area. Springals are indirect-fire weapons that affect an area centered on the target square (targeting DC 20).</p><p></p><p> <em>Arrow</em>: This springal propels a group of arrows that rains down on the targeted square and in a 15-foot burst around that square. One use of arrow springal ammunition costs 20 gp and weighs 10 pounds.</p><p></p><p> <em>Rocket</em>: This highly volatile springal propels a group of black-powder rockets that rain down on the targeted square and in a 15-foot burst around the area. If the rocket springal misfires, it explodes, dealing its damage in a 20- foot blast around the springal. This explosion destroys the rocket springal. One use of rocket springal ammunition costs 500 gp and weighs 30 pounds.</p>"
    },
    "tags": [],
    "price": 6000,
    "hardness": 10,
    "identifiedName": "Rocket Springal",
    "changes": [],
    "actions": [
      {
        "_id": "lfkecaegacskwao3",
        "name": "Attack",
        "img": "icons/weapons/artillery/ballista-wood-green.webp",
        "description": "",
        "tag": "",
        "activation": {
          "cost": 1,
          "type": "attack"
        },
        "unchainedAction": {
          "activation": {
            "cost": 1,
            "type": ""
          }
        },
        "duration": {
          "value": null,
          "units": "inst"
        },
        "target": {
          "value": ""
        },
        "range": {
          "value": "100",
          "units": "ft",
          "maxIncrements": 1,
          "minValue": null,
          "minUnits": ""
        },
        "uses": {
          "autoDeductChargesCost": "",
          "self": {
            "value": 0,
            "maxFormula": "",
            "per": null
          },
          "per": null,
          "value": 0,
          "maxFormula": ""
        },
        "measureTemplate": {
          "type": "",
          "size": "",
          "overrideColor": false,
          "customColor": "",
          "overrideTexture": false,
          "customTexture": ""
        },
        "attackName": "",
        "actionType": "rwak",
        "attackBonus": "",
        "critConfirmBonus": "",
        "damage": {
          "parts": [
            [
              "sizeRoll(3, 10, @size)",
              {
                "values": ["fire"],
                "custom": ""
              }
            ]
          ],
          "critParts": [],
          "nonCritParts": []
        },
        "attackParts": [],
        "formulaicAttacks": {
          "count": {
            "formula": "min(3, ceil(@attributes.bab.total / 5) - 1)"
          },
          "bonus": {
            "formula": "@formulaicAttack * -5"
          },
          "label": null
        },
        "formula": "",
        "ability": {
          "attack": "dex",
          "damage": "str",
          "damageMult": 1,
          "critRange": "",
          "critMult": "4"
        },
        "save": {
          "dc": 0,
          "type": "",
          "description": ""
        },
        "effectNotes": [],
        "attackNotes": [],
        "soundEffect": "",
        "powerAttack": {
          "multiplier": "",
          "damageBonus": 2,
          "critMultiplier": 1
        },
        "naturalAttack": {
          "primaryAttack": true,
          "secondary": {
            "attackBonus": "-5",
            "damageMult": 0.5
          }
        },
        "nonlethal": false,
        "usesAmmo": false,
        "spellEffect": "",
        "spellArea": "",
        "conditionals": [],
        "enh": {
          "value": null
        }
      }
    ],
    "attackNotes": [],
    "effectNotes": [],
    "contextNotes": [],
    "links": {
      "children": []
    },
    "tag": "rocketSpringal",
    "scriptCalls": [],
    "weaponGroups": {
      "value": []
    },
    "subType": "exotic",
    "weaponSubtype": "ranged"
  }
}
