{
  "_id": "UkKkbJb1HrKfkEP2",
  "name": "Trip Arrow",
  "type": "loot",
  "img": "systems/pf1/icons/items/weapons/arrow-special.PNG",
  "sort": 0,
  "flags": {},
  "system": {
    "description": {
      "value": "<p><strong>Source</strong> <em>Alchemy Manual pg. 21</em>, <em>Elves of Golarion pg. 23</em><br /><strong>Price</strong> 25 gp; <strong>Weight</strong> -<br /><strong>Category</strong> Alchemical Weapons</p>\n<h2 class=\"framing\">Description</h2>\n<p>This squat arrow has a large, bulbous metal tip that expands and flattens in flight. If you hit a creature with a trip arrow, the arrow deals no damage but <strong>performs a trip combat maneuver</strong> against the target with a <strong>CMB of +5</strong>.</p>\n<p>For the purpose of determining Combat Maneuver Bonuses or penalties based on size, the arrow is treated as if it were the size of the creature it was designed for.</p>\n<h2 class=\"framing\">Alchemical Recipe</h2>\n<p><strong>Recipe</strong> (20 cold iron + 15 magnesium + 20 myrrh)/earth; <strong>Craft</strong> 25<br /><strong>Time</strong> 10 minutes; <strong>Tools</strong> -; <strong>Type</strong> alchemical weapon</p>"
    },
    "tags": [],
    "price": 25,
    "equipped": false,
    "hp": {
      "max": 1,
      "value": 1
    },
    "hardness": 5,
    "unidentified": {
      "price": 25
    },
    "identifiedName": "Trip Arrow",
    "changes": [],
    "contextNotes": [],
    "links": {
      "children": []
    },
    "tag": "tripArrow",
    "scriptCalls": [],
    "subType": "ammo",
    "extraType": "arrow"
  }
}
