{
  "_id": "zn5a55rPoW9DSJOc",
  "name": "Belt of Incredible Dexterity +6",
  "type": "equipment",
  "img": "systems/pf1/icons/items/equipment/belt-girdle.jpg",
  "sort": 0,
  "flags": {},
  "system": {
    "description": {
      "value": "<p>This belt has a large silver buckle, usually depicting the image of a tiger.</p>\n<p>The belt grants the wearer an&nbsp;<em>enhancement bonus</em>&nbsp;to&nbsp;<em>Dexterity</em>&nbsp;of +2, +4, or +6. Treat this as a temporary ability bonus for the first 24 hours the belt is worn.</p>",
      "unidentified": "<p>This belt has a large silver buckle depicting the image of a tiger.</p>"
    },
    "tags": [],
    "weight": {
      "value": 1
    },
    "price": 36000,
    "resizing": true,
    "unidentified": {
      "name": "Belt"
    },
    "identifiedName": "Belt of Incredible Dexterity +6",
    "cl": 8,
    "aura": {
      "school": "trs"
    },
    "changes": [
      {
        "_id": "j5691lgs",
        "formula": "6",
        "operator": "add",
        "subTarget": "dex",
        "modifier": "enh",
        "priority": 0,
        "value": 0,
        "target": "ability"
      }
    ],
    "contextNotes": [],
    "actions": [],
    "attackNotes": [],
    "effectNotes": [],
    "links": {
      "children": [],
      "charges": []
    },
    "scriptCalls": [],
    "subType": "misc",
    "equipmentSubtype": "wondrous",
    "slot": "belt"
  }
}
