{
  "_id": "kedpoijexuzmffkp",
  "name": "Boline",
  "type": "loot",
  "img": "systems/pf1/icons/items/inventory/dice.jpg",
  "sort": 0,
  "flags": {},
  "system": {
    "description": {
      "value": "\r\n<p class=\"source\"><b>Source</b>: <a href=\"http://amzn.to/2eT3m9D\" target=\"_blank\" rel=\"noopener\">PZO9481</a></p>\r\n<p><b>Price</b> 10 gp; <b>Weight</b> 2 lbs.</p>\r\n<p>Bolines are hook-shaped knives commonly used by herbalists and spellcasters to harvest ingredients for their craft. A boline's blade is typically 5 inches long, and is too small and irregular to use as a weapon. You can use a boline to finely slice the herbs in a <em>healer's kit</em>, so you can treat <em>deadly</em> wounds with only a single use from a <em>healer's kit</em> rather than two uses.</p>\r\n\r\n"
    },
    "tags": [],
    "weight": {
      "value": 2
    },
    "price": 10,
    "equipped": false,
    "changes": [],
    "contextNotes": [],
    "links": {
      "children": []
    },
    "scriptCalls": [],
    "subType": "gear"
  }
}
