{
  "_id": "rhqropvelppztlnm",
  "name": "Box, Scroll",
  "type": "loot",
  "img": "systems/pf1/icons/items/inventory/dice.jpg",
  "sort": 0,
  "flags": {},
  "system": {
    "description": {
      "value": " \n<p><b>Price</b> 5 gp; <b>Weight</b> 1 lb.</p> \n<p>This wooden box easily holds 10 scrolls and has small clips or bookmarks for easier indexing. Retrieving a scroll from a held scroll box is a move action. A scroll box has hardness 5, 5 hit points, a break DC of 20. A scroll box is water-tight.</p> \n"
    },
    "tags": [],
    "weight": {
      "value": 1
    },
    "price": 5,
    "equipped": false,
    "changes": [],
    "contextNotes": [],
    "links": {
      "children": []
    },
    "scriptCalls": [],
    "subType": "gear"
  }
}
