{
  "_id": "rctxgmkocuvjcjyo",
  "name": "Canteen",
  "type": "loot",
  "img": "systems/pf1/icons/items/inventory/dice.jpg",
  "sort": 0,
  "flags": {},
  "system": {
    "description": {
      "value": " \n<p><b>Price</b> 2 gp; <b>Weight</b> 1 lb.</p> \n<p>This hollow container is made of wood, a gourd, or metal, and carries liquid like a <em>waterskin</em>, but is more resistant to punctures and cuts.</p> \n"
    },
    "tags": [],
    "weight": {
      "value": 1
    },
    "price": 2,
    "equipped": false,
    "changes": [],
    "contextNotes": [],
    "links": {
      "children": []
    },
    "scriptCalls": [],
    "subType": "gear"
  }
}
