{
  "_id": "ollwxbprzkekqhhf",
  "name": "Fishing net (25 sq. ft.)",
  "type": "loot",
  "img": "systems/pf1/icons/items/inventory/dice.jpg",
  "sort": 0,
  "flags": {},
  "system": {
    "description": {
      "value": "<h4><span id=\"Fishing_net_25_sq_ft\"><a name=\"TOC-Fishing-net-25-sq.-ft.-\"></a>Fishing net (25 sq. ft.)</span></h4>\r\n<p class=\"source\"><b>Source</b> <em>PZO1110</em></p>\r\n<p>A net for fishing.</p>\r\n"
    },
    "tags": [],
    "equipped": false,
    "changes": [],
    "contextNotes": [],
    "links": {
      "children": []
    },
    "scriptCalls": [],
    "subType": "gear"
  }
}
