{
  "_id": "jkbfhstxwydccotf",
  "name": "Jug, Clay",
  "type": "loot",
  "img": "systems/pf1/icons/items/inventory/dice.jpg",
  "sort": 0,
  "flags": {},
  "system": {
    "description": {
      "value": " \n<p class=\"source\"><b>Source</b> <em>PZO1110</em></p> \n<p>This basic jug is fitted with a stopper and holds 1 gallon of liquid.</p> \n<p><b>Empty Weight</b>: 1 lb.; <b>Capacity</b>: 1 gallon/8 lb.</p> \n"
    },
    "tags": [],
    "equipped": false,
    "changes": [],
    "contextNotes": [],
    "links": {
      "children": []
    },
    "scriptCalls": [],
    "subType": "gear"
  }
}
