{
  "_id": "giuefknbzntggywu",
  "name": "Kit, Tanner's",
  "type": "loot",
  "img": "systems/pf1/icons/items/inventory/dice.jpg",
  "sort": 0,
  "flags": {},
  "system": {
    "description": {
      "value": "\r\n<p><b>Price</b> 10 gp; <b>Weight</b> 5 lbs.</p>\r\n<p>This kit contains a fleshing knife, a <em>bottle</em> of tanning solution, a small tanning board, and a leather apron. If you use this kit to harvest and tan an <em>animal's</em> hide, you receive a +5 <em>circumstance bonus</em> on <em>Craft</em> checks to create leather items such as belts, boots, cloaks, clothing, gloves, or hide or <em>leather armor</em>. A kit contains enough tanning solution to create a total of 150 pounds of leather items.</p>\r\n\r\n"
    },
    "tags": [],
    "weight": {
      "value": 5
    },
    "price": 10,
    "equipped": false,
    "changes": [],
    "contextNotes": [],
    "links": {
      "children": []
    },
    "scriptCalls": [],
    "subType": "gear"
  }
}
