{
  "_id": "dsipnnttsrmcrqgx",
  "name": "Kit, Zombie Slayer's",
  "type": "loot",
  "img": "systems/pf1/icons/items/inventory/dice.jpg",
  "sort": 0,
  "flags": {},
  "system": {
    "description": {
      "value": "\r\n<p class=\"source\"><b>Source</b>: <em>USH</em></p>\r\n<p><b>Price</b> 170 gp; <b>Weight</b> 31 lbs.</p>\r\n<p>This large satchel contains the tools needed to put down potential <em>zombie</em> uprisings. The kit includes a shovel, two flasks of oil, a bullseye <em>lantern</em>, a <em>flask</em> of <em>alchemist's fire</em>, two flasks of <em>holy water</em>, 50 feet of hemp <em>rope</em>, a crowbar, a <em>hammer</em> and 10 nails, two vials of <em>antiplague</em>, and a wooden <em>holy symbol</em>.</p>\r\n\r\n"
    },
    "tags": [],
    "weight": {
      "value": 31
    },
    "price": 170,
    "equipped": false,
    "changes": [],
    "contextNotes": [],
    "links": {
      "children": []
    },
    "scriptCalls": [],
    "subType": "gear"
  }
}
