{
  "_id": "WWKhzslqDsrmw4ka",
  "name": "Kit, Shaman's",
  "type": "container",
  "img": "icons/containers/chest/chest-reinforced-steel-red.webp",
  "sort": 0,
  "flags": {},
  "system": {
    "description": {
      "value": null
    },
    "tags": [],
    "weight": {
      "value": 43.5
    },
    "identifiedName": "Kit, Shaman's",
    "inventoryItems": [
      {
        "_id": "lSCPUK5Ea6R0t4fz",
        "name": "Backpack",
        "permission": {
          "default": 0,
          "ZuWclcb9BUy2aZSN": 3
        },
        "type": "container",
        "flags": {
          "core": {
            "sourceId": "Item.CcUuzTh1CCp2NMRv"
          }
        },
        "img": "systems/pf1/icons/items/inventory/backpack.jpg",
        "effects": [],
        "labels": {
          "equipped": "<i class=\"fas fa-times\"></i>",
          "carried": "<i class=\"fas fa-check\"></i>",
          "identified": "<i class=\"fas fa-check\"></i>"
        },
        "hasAttack": false,
        "hasMultiAttack": false,
        "hasDamage": false,
        "hasAction": false,
        "showUnidentifiedData": false,
        "isStack": false,
        "isCharged": false,
        "price": 2,
        "empty": false,
        "totalWeight": 2,
        "units": "lbs",
        "system": {
          "basePrice": 2,
          "unidentified": {
            "basePrice": 0,
            "price": 0,
            "name": ""
          },
          "description": {
            "value": "<p>This leather knapsack has one large pocket that closes with a buckled strap and holds about 2 cubic feet of material. Some may have one or more smaller pockets on the sides.</p>",
            "chat": "",
            "unidentified": ""
          },
          "tags": [],
          "quantity": 1,
          "weight": {
            "value": 2
          },
          "price": 2,
          "identified": true,
          "hp": {
            "max": 10,
            "value": 10
          },
          "hardness": 0,
          "carried": true,
          "identifiedName": "Backpack",
          "cl": 0,
          "aura": {
            "custom": false,
            "school": ""
          },
          "inventoryItems": [],
          "maxWeight": null,
          "weightReduction": 0,
          "baseWeight": 2,
          "damage": {
            "parts": [],
            "critParts": [],
            "nonCritParts": []
          },
          "weightConverted": 2,
          "weightUnits": "lbs",
          "priceUnits": "gp",
          "size": "med",
          "range": {
            "maxIncrements": 1
          },
          "-=baseWeight": null
        }
      },
      {
        "_id": "wjvxmolafiegvesl",
        "name": "Pouch, Belt",
        "permission": {
          "default": 0,
          "T9i9xVjdkHeFZC72": 3
        },
        "type": "loot",
        "flags": {
          "core": {
            "sourceId": "Compendium.pf1.items.wjvxmolafiegvesl"
          }
        },
        "img": "icons/containers/bags/coinpouch-simple-leather-tan.webp",
        "effects": [],
        "labels": {
          "equipped": "<i class=\"fas fa-times\"></i>",
          "carried": "<i class=\"fas fa-check\"></i>",
          "identified": "<i class=\"fas fa-check\"></i>"
        },
        "hasAttack": false,
        "hasMultiAttack": false,
        "hasDamage": false,
        "hasAction": false,
        "showUnidentifiedData": false,
        "isStack": false,
        "isCharged": false,
        "price": 1,
        "empty": false,
        "totalWeight": 0.5,
        "units": "lbs",
        "system": {
          "subType": "gear",
          "description": {
            "value": " \n<p class=\"source\"><b>Source</b> <em>PZO1110</em></p> \n<p>A belt pouch is crafted of soft cloth or leather. They typically hold up to 10 lb. or 1/5 cubic ft. of items.</p> \n<p><b>Empty Weight</b>: 1/2 lb.<sup style=\"font-size: 10px\">1</sup> <b>Capacity</b>: 1/5 cubic ft./10 lb.<sup style=\"font-size: 10px\">1</sup></p> \n<p class=\"source\"><sup style=\"font-size: 10px\">1</sup> When made for Medium characters. Weighs one-quarter the normal amount when made for Small characters. Weighs twice the normal amount when made for Large characters. Containers carry one-quarter the normal amount when made for Small characters.</p> \n",
            "chat": "",
            "unidentified": ""
          },
          "tags": [],
          "quantity": 1,
          "weight": {
            "value": 0.5
          },
          "price": 1,
          "identified": true,
          "hp": {
            "max": 10,
            "value": 10
          },
          "hardness": 0,
          "carried": true,
          "unidentified": {
            "price": 0,
            "name": ""
          },
          "identifiedName": "Pouch, Belt",
          "cl": 0,
          "aura": {
            "custom": false,
            "school": ""
          },
          "links": {
            "children": []
          },
          "damage": {
            "parts": [],
            "critParts": [],
            "nonCritParts": []
          },
          "attackParts": [],
          "conditionals": [],
          "contextNotes": [],
          "weightConverted": 0.5,
          "weightUnits": "lbs",
          "priceUnits": "gp",
          "size": "med",
          "equipped": false,
          "range": {
            "maxIncrements": 1
          }
        }
      },
      {
        "_id": "ygmrcisvftnvjyob",
        "name": "Flint And Steel",
        "permission": {
          "default": 0,
          "T9i9xVjdkHeFZC72": 3
        },
        "type": "loot",
        "flags": {
          "core": {
            "sourceId": "Compendium.pf1.items.ygmrcisvftnvjyob"
          }
        },
        "img": "icons/commodities/stone/rock-chunk-grey.webp",
        "effects": [],
        "labels": {
          "equipped": "<i class=\"fas fa-times\"></i>",
          "carried": "<i class=\"fas fa-check\"></i>",
          "identified": "<i class=\"fas fa-check\"></i>"
        },
        "hasAttack": false,
        "hasMultiAttack": false,
        "hasDamage": false,
        "hasAction": false,
        "showUnidentifiedData": false,
        "isStack": false,
        "isCharged": false,
        "price": 1,
        "empty": false,
        "totalWeight": 0,
        "units": "lbs",
        "system": {
          "subType": "gear",
          "description": {
            "value": "<p>Lighting a <em>torch</em> with a <em>flint and steel</em> is a full-round action. Lighting any other fire with them takes at least that long.</p>",
            "chat": "",
            "unidentified": ""
          },
          "tags": [],
          "quantity": 1,
          "weight": {
            "value": 0
          },
          "price": 1,
          "identified": true,
          "hp": {
            "max": 10,
            "value": 10
          },
          "hardness": 0,
          "carried": true,
          "unidentified": {
            "price": 0,
            "name": ""
          },
          "identifiedName": "Flint And Steel",
          "cl": 0,
          "aura": {
            "custom": false,
            "school": ""
          },
          "links": {
            "children": []
          },
          "damage": {
            "parts": [],
            "critParts": [],
            "nonCritParts": []
          },
          "attackParts": [],
          "conditionals": [],
          "contextNotes": [],
          "weightConverted": 0,
          "weightUnits": "lbs",
          "priceUnits": "gp",
          "size": "med",
          "equipped": false,
          "range": {
            "maxIncrements": 1
          }
        }
      },
      {
        "_id": "yMoclCylbCRKyaZF",
        "name": "Soap",
        "permission": {
          "default": 0,
          "ZuWclcb9BUy2aZSN": 3
        },
        "type": "consumable",
        "flags": {
          "core": {
            "sourceId": "Item.cDlDlPy1JSnN6KyN"
          }
        },
        "img": "systems/pf1/icons/items/inventory/soap.jpg",
        "effects": [],
        "labels": {
          "equipped": "<i class=\"fas fa-times\"></i>",
          "carried": "<i class=\"fas fa-check\"></i>",
          "identified": "<i class=\"fas fa-check\"></i>",
          "activation": "Special",
          "target": "",
          "range": "",
          "duration": "",
          "damage": "",
          "damageTypes": ""
        },
        "hasAttack": false,
        "hasMultiAttack": false,
        "hasDamage": false,
        "hasEffect": "",
        "hasAction": true,
        "showUnidentifiedData": false,
        "isStack": false,
        "hasUses": false,
        "isCharged": true,
        "price": 0.01,
        "empty": false,
        "totalWeight": 0,
        "units": "lbs",
        "system": {
          "uses": {
            "value": 50,
            "max": 0,
            "maxFormula": "50",
            "per": "charges",
            "autoDeductChargesCost": "1"
          },
          "description": {
            "value": "<p class=\"source\" style=\"box-sizing: border-box; user-select: text; color: #191813; font-size: 13px;\"><strong style=\"box-sizing: border-box; user-select: text;\">Source</strong>&nbsp;<em>PPZO9410</em></p>\n<p style=\"box-sizing: border-box; user-select: text; color: #191813; font-size: 13px;\">You can use this thick block of soap to scrub clothes, pots, linens, or anything else that might be dirty. A bar of soap has approximately 50 uses.</p>",
            "chat": "",
            "unidentified": ""
          },
          "tags": [],
          "quantity": 1,
          "weight": {
            "value": 0
          },
          "price": 0.01,
          "identified": true,
          "hp": {
            "max": 10,
            "value": 10
          },
          "hardness": 0,
          "carried": true,
          "unidentified": {
            "price": 0,
            "name": ""
          },
          "identifiedName": "Soap",
          "cl": 0,
          "aura": {
            "custom": false,
            "school": ""
          },
          "activation": {
            "cost": 1,
            "type": "special"
          },
          "duration": {
            "value": null,
            "units": ""
          },
          "target": {
            "value": ""
          },
          "range": {
            "value": null,
            "units": "",
            "long": null,
            "maxIncrements": 1
          },
          "measureTemplate": {
            "type": "",
            "size": "",
            "overrideColor": false,
            "customColor": "",
            "overrideTexture": false,
            "customTexture": ""
          },
          "actionType": "",
          "attackBonus": "",
          "critConfirmBonus": "",
          "damage": {
            "parts": [],
            "critParts": [],
            "nonCritParts": []
          },
          "attackParts": [],
          "formula": "",
          "ability": {
            "attack": null,
            "damage": null,
            "damageMult": 1,
            "critRange": 20,
            "critMult": 2
          },
          "save": {
            "dc": 0,
            "type": "",
            "description": ""
          },
          "effectNotes": [],
          "attackNotes": [],
          "soundEffect": "",
          "links": {
            "children": [],
            "charges": []
          },
          "attack": {
            "parts": []
          },
          "weightConverted": 0,
          "weightUnits": "lbs",
          "priceUnits": "gp",
          "size": "med",
          "unchainedAction": {
            "activation": {
              "cost": 1,
              "type": "special"
            }
          },
          "actions": [
            {
              "_id": "JAkcf4XbKp0tavT0",
              "name": "Use",
              "img": "systems/pf1/icons/items/inventory/soap.jpg",
              "description": "",
              "tag": "",
              "activation": {
                "cost": 1,
                "type": "special"
              },
              "unchainedAction": {
                "activation": {
                  "cost": 1,
                  "type": ""
                }
              },
              "duration": {
                "value": null,
                "units": ""
              },
              "target": {
                "value": ""
              },
              "range": {
                "value": null,
                "units": "",
                "maxIncrements": 1,
                "minValue": null,
                "minUnits": "",
                "long": null
              },
              "uses": {
                "autoDeductChargesCost": "",
                "self": {
                  "value": 0,
                  "maxFormula": "",
                  "per": null
                },
                "value": 50,
                "max": 0,
                "maxFormula": "50",
                "per": "charges"
              },
              "measureTemplate": {
                "type": "",
                "size": "",
                "overrideColor": false,
                "customColor": "",
                "overrideTexture": false,
                "customTexture": ""
              },
              "attackName": "",
              "actionType": "",
              "attackBonus": "",
              "critConfirmBonus": "",
              "damage": {
                "parts": [],
                "critParts": [],
                "nonCritParts": []
              },
              "attackParts": [],
              "formulaicAttacks": {
                "count": {
                  "formula": ""
                },
                "bonus": {
                  "formula": ""
                },
                "label": null
              },
              "formula": "",
              "ability": {
                "attack": null,
                "damage": null,
                "damageMult": 1,
                "critRange": 20,
                "critMult": 2
              },
              "save": {
                "dc": 0,
                "type": "",
                "description": ""
              },
              "effectNotes": "",
              "attackNotes": "",
              "soundEffect": "",
              "powerAttack": {
                "multiplier": "",
                "damageBonus": 2,
                "critMultiplier": 1
              },
              "naturalAttack": {
                "primaryAttack": true,
                "secondary": {
                  "attackBonus": "-5",
                  "damageMult": 0.5
                }
              },
              "nonlethal": false,
              "usesAmmo": false,
              "spellEffect": "",
              "spellArea": "",
              "conditionals": [],
              "enh": {
                "value": null
              }
            }
          ],
          "subType": "misc"
        }
      },
      {
        "_id": "snfogneawzopfzzl",
        "name": "Torch",
        "permission": {
          "default": 0,
          "T9i9xVjdkHeFZC72": 3
        },
        "type": "loot",
        "flags": {
          "core": {
            "sourceId": "Compendium.pf1.items.snfogneawzopfzzl"
          }
        },
        "img": "systems/pf1/icons/items/inventory/torch.jpg",
        "effects": [],
        "labels": {
          "equipped": "<i class=\"fas fa-times\"></i>",
          "carried": "<i class=\"fas fa-check\"></i>",
          "identified": "<i class=\"fas fa-check\"></i>"
        },
        "hasAttack": false,
        "hasMultiAttack": false,
        "hasDamage": false,
        "hasAction": false,
        "showUnidentifiedData": false,
        "isStack": true,
        "isCharged": false,
        "price": 0.01,
        "empty": false,
        "totalWeight": 10,
        "units": "lbs",
        "system": {
          "subType": "gear",
          "description": {
            "value": "<p><strong>Price</strong> 1 cp; <strong>Weight</strong> 1 lb.</p>\n<p>A torch burns for 1 hour, shedding normal light in a 20-foot radius and increasing the light level by one step for an additional 20 feet beyond that area (darkness becomes dim light and dim light becomes normal light). A torch does not increase the light level in normal light or bright light. If a torch is used in combat, treat it as a one-handed improvised weapon that deals bludgeoning damage equal to that of a gauntlet of its size, plus 1 point of fire damage.</p>",
            "chat": "",
            "unidentified": ""
          },
          "tags": [],
          "quantity": 10,
          "weight": {
            "value": 1
          },
          "price": 0.01,
          "identified": true,
          "hp": {
            "max": 10,
            "value": 10
          },
          "hardness": 0,
          "carried": true,
          "unidentified": {
            "price": 0,
            "name": ""
          },
          "identifiedName": "Torch",
          "cl": 0,
          "aura": {
            "custom": false,
            "school": ""
          },
          "links": {
            "children": []
          },
          "damage": {
            "parts": [],
            "critParts": [],
            "nonCritParts": []
          },
          "attackParts": [],
          "conditionals": [],
          "contextNotes": [],
          "weightConverted": 1,
          "weightUnits": "lbs",
          "priceUnits": "gp",
          "size": "med",
          "equipped": false,
          "range": {
            "maxIncrements": 1
          }
        }
      },
      {
        "_id": "bsztkhkrhgmsbqpt",
        "name": "Waterskin",
        "permission": {
          "default": 0,
          "T9i9xVjdkHeFZC72": 3
        },
        "type": "loot",
        "flags": {
          "core": {
            "sourceId": "Compendium.pf1.items.bsztkhkrhgmsbqpt"
          }
        },
        "img": "systems/pf1/icons/items/inventory/waterskin.jpg",
        "effects": [],
        "labels": {
          "equipped": "<i class=\"fas fa-times\"></i>",
          "carried": "<i class=\"fas fa-check\"></i>",
          "identified": "<i class=\"fas fa-check\"></i>"
        },
        "hasAttack": false,
        "hasMultiAttack": false,
        "hasDamage": false,
        "hasAction": false,
        "showUnidentifiedData": false,
        "isStack": false,
        "isCharged": false,
        "price": 1,
        "empty": false,
        "totalWeight": 4,
        "units": "lbs",
        "system": {
          "subType": "gear",
          "description": {
            "value": " \n<p class=\"source\"><b>Source</b> <em>PZO1110</em></p> \n<p>A water or wineskin holds 1/2 gallon of liquid and weighs 4 lb when full.</p> \n<p><b>Empty Weight</b>: -; <b>Capacity</b>: 1/2 gallon/4 lb.<sup style=\"font-size: 10px\">1</sup></p> \n<p class=\"source\"><sup style=\"font-size: 10px\">1</sup> When made for Medium characters. Weighs one-quarter the normal amount when made for Small characters. Weighs twice the normal amount when made for Large characters. Containers carry one-quarter the normal amount when made for Small characters.</p> \n<p><a name=\"table-magic-containers\"></a></p> \n<h3 style=\"margin-top: 30px;border-bottom-style: solid;border-bottom-width: thin\"><a name=\"TOC-Magic-Containers\"></a>Magic Containers</h3> \n<p>Magic containers come in almost as many varieties as there are <em>alchemists</em>, and so are of inestimable value to <em>alchemists</em> with specific needs. Some of the most well-known magic containers are described here.</p> \n<p>Because of a varied nature of alchemical items and their effects, not all combinations of alchemical items and magic bottles are viable or even make sense, even though they technically might be allowed by the rules. The GM should have the final say on whether or not a particular alchemical item can function within one of the magical containers listed in this section.</p> \n<table border=\"1\" cellpadding=\"5\"> \n <thead> \n  <tr> \n   <th colspan=\"4\" class=\"text\">Magic Containers</th> \n  </tr> \n  <tr> \n   <th class=\"text\">Item</th> \n   <th class=\"text\">Price</th> \n   <th class=\"text\">Weight</th> \n   <th class=\"text\">Source</th> \n  </tr> \n </thead> \n <tbody> \n  <tr> \n   <td class=\"text\"><i>Focusing Flask</i></td> \n   <td class=\"money number\">700 gp</td> \n   <td class=\"money text\">1 lb.</td> \n   <td class=\"source text\"><em>PPC:AM</em></td> \n  </tr> \n  <tr> \n   <td class=\"text\"><i>Retort of Control</i></td> \n   <td class=\"money number\">13,000 gp</td> \n   <td class=\"marker\">-</td> \n   <td class=\"source text\"><em>PPC:AM</em></td> \n  </tr> \n  <tr> \n   <td class=\"text\"><i>Vial of Efficacious Medicine</i></td> \n   <td class=\"money number\">7,000 gp</td> \n   <td class=\"marker\">-</td> \n   <td class=\"source text\"><em>PPC:AM</em></td> \n  </tr> \n  <tr> \n   <td class=\"text\"><i>Winged Bottle</i></td> \n   <td class=\"money number\">1,620 gp</td> \n   <td class=\"money text\">1 lb.</td> \n   <td class=\"source text\"><em>PPC:AM</em></td> \n  </tr> \n </tbody> \n</table> \n",
            "chat": "",
            "unidentified": ""
          },
          "tags": [],
          "quantity": 1,
          "weight": {
            "value": 4
          },
          "price": 1,
          "identified": true,
          "hp": {
            "max": 10,
            "value": 10
          },
          "hardness": 0,
          "carried": true,
          "unidentified": {
            "price": 0,
            "name": ""
          },
          "identifiedName": "Waterskin",
          "cl": 0,
          "aura": {
            "custom": false,
            "school": ""
          },
          "links": {
            "children": []
          },
          "damage": {
            "parts": [],
            "critParts": [],
            "nonCritParts": []
          },
          "weightConverted": 4,
          "weightUnits": "lbs",
          "priceUnits": "gp",
          "attackParts": [],
          "conditionals": [],
          "contextNotes": [],
          "size": "med",
          "equipped": false,
          "range": {
            "maxIncrements": 1
          }
        }
      },
      {
        "_id": "manvtbznrwjmnrua",
        "name": "Rations, Trail",
        "permission": {
          "default": 0,
          "T9i9xVjdkHeFZC72": 3
        },
        "type": "loot",
        "flags": {
          "core": {
            "sourceId": "Compendium.pf1.items.manvtbznrwjmnrua"
          }
        },
        "img": "systems/pf1/icons/items/inventory/meat.jpg",
        "effects": [],
        "labels": {
          "equipped": "<i class=\"fas fa-times\"></i>",
          "carried": "<i class=\"fas fa-check\"></i>",
          "identified": "<i class=\"fas fa-check\"></i>"
        },
        "hasAttack": false,
        "hasMultiAttack": false,
        "hasDamage": false,
        "hasAction": false,
        "showUnidentifiedData": false,
        "isStack": true,
        "isCharged": false,
        "price": 0.5,
        "empty": false,
        "totalWeight": 5,
        "units": "lbs",
        "system": {
          "subType": "gear",
          "description": {
            "value": "<h4><span id=\"Rations_Trail\"><a name=\"TOC-Rations-Trail\"></a>Rations, Trail</span></h4>\r\n<p><b>Price</b> 5 sp; <b>Weight</b> 1 lb.</p>\r\n<p>The listed price is for a day's worth of food. This bland food is usually some kind of hard tack, jerky, and dried fruit, though the contents vary from region to region and the race of those creating it. As long as it stays dry, it can go for months without spoiling.</p>\r\n",
            "chat": "",
            "unidentified": ""
          },
          "tags": [],
          "quantity": 5,
          "weight": {
            "value": 1
          },
          "price": 0.5,
          "identified": true,
          "hp": {
            "max": 10,
            "value": 10
          },
          "hardness": 0,
          "carried": true,
          "unidentified": {
            "price": 0,
            "name": ""
          },
          "identifiedName": "Rations, Trail",
          "cl": 0,
          "aura": {
            "custom": false,
            "school": ""
          },
          "links": {
            "children": []
          },
          "damage": {
            "parts": []
          },
          "weightConverted": 1,
          "weightUnits": "lbs",
          "priceUnits": "gp",
          "size": "med",
          "equipped": false,
          "range": {
            "maxIncrements": 1
          }
        }
      },
      {
        "_id": "qlmtnppwxkubqyhp",
        "name": "Rope",
        "permission": {
          "default": 0,
          "T9i9xVjdkHeFZC72": 3
        },
        "type": "loot",
        "flags": {
          "core": {
            "sourceId": "Compendium.pf1.items.qlmtnppwxkubqyhp"
          }
        },
        "img": "systems/pf1/icons/items/inventory/dice.jpg",
        "effects": [],
        "labels": {
          "equipped": "<i class=\"fas fa-times\"></i>",
          "carried": "<i class=\"fas fa-check\"></i>",
          "identified": "<i class=\"fas fa-check\"></i>"
        },
        "hasAttack": false,
        "hasMultiAttack": false,
        "hasDamage": false,
        "hasAction": false,
        "showUnidentifiedData": false,
        "isStack": false,
        "isCharged": false,
        "price": 1,
        "empty": false,
        "totalWeight": 10,
        "units": "lbs",
        "system": {
          "subType": "gear",
          "description": {
            "value": "<h4><span id=\"Rope\"><a name=\"TOC-Rope\"></a>Rope</span></h4>\r\n<p><b>Hempen</b> The DC to escape hemp rope bonds is equal to 20 + the CMB of the creature that tied the bonds. Ropes do not need to make a check every round to maintain the pin. If the DC to escape is higher than 20 + the tying creatures CMB, the tied up creature cannot escape from the bonds, even with a natural 20 on the check. This rope has 2 hit points and can be burst with a DC 23 Strength check. <b>Price</b> 1 gp; <b>Weight</b> 10 lbs.</p>\r\n<p><b>FYI</b>: The <em>Equipment Trick</em> feat provides a number of options for using this item in combat.</p>\r\n<p><b>Silk Rope</b> This 50-foot length of silk rope has 4 hit points and can be broken with a DC 24 Strength check. <b>Price</b> 10 gp; <b>Weight</b> 5 lbs.</p>\r\n<p><b>Bloodvine Rope</b> This 50-foot length of tough, lightweight rope is made from alchemically treated bloodvine, a rare scarlet-colored vine that grows only in warm jungle environments. Though prized by climbers for its durability, bloodvine can also be used to bind creatures. Bloodvine rope has a <em>hardness</em> of 5 and 10 <em>hit points</em>, and can be broken with a DC 30 <em>Strength</em> check. A creature bound by bloodvine rope can escape with a DC 35 <em>Escape Artist</em> check or a DC 30 <em>Strength</em> check. The DC to create bloodvine rope with <em>Craft</em> (alchemy) is 30. <b>Price</b> 200 gp; <b>Weight</b> 5 lbs. <b>Source</b> <em>PRG:ACG</em></p>\r\n<p><b>Spider's Silk Rope</b> This 50-foot length of rope is woven of strands of silk from monstrous spiders. Rare to virtually nonexistent on the surface world, it is commonly used by the dark elves, though shorter spider's silk rope scraps (generally no more than 10 feet long) occasionally appear among goblins. Spider's silk rope has 6 hit points and can be broken with a DC 25 Strength check. <b>Price</b> 100 gp; <b>Weight</b> 4 lbs.</p>\r\n",
            "chat": "",
            "unidentified": ""
          },
          "tags": [],
          "quantity": 1,
          "weight": {
            "value": 10
          },
          "price": 1,
          "identified": true,
          "hp": {
            "max": 10,
            "value": 10
          },
          "hardness": 0,
          "carried": true,
          "unidentified": {
            "price": 0,
            "name": ""
          },
          "identifiedName": "",
          "cl": 0,
          "aura": {
            "custom": false,
            "school": ""
          },
          "links": {
            "children": []
          },
          "damage": {
            "parts": []
          },
          "weightConverted": 10,
          "weightUnits": "lbs",
          "priceUnits": "gp",
          "size": "med",
          "equipped": false,
          "range": {
            "maxIncrements": 1
          }
        }
      },
      {
        "_id": "iegwwsarycqwoezj",
        "name": "Bedroll",
        "permission": {
          "default": 0,
          "T9i9xVjdkHeFZC72": 3
        },
        "type": "loot",
        "flags": {
          "core": {
            "sourceId": "Compendium.pf1.items.iegwwsarycqwoezj"
          }
        },
        "img": "systems/pf1/icons/items/inventory/cloth-blue.jpg",
        "effects": [],
        "labels": {
          "equipped": "<i class=\"fas fa-times\"></i>",
          "carried": "<i class=\"fas fa-check\"></i>",
          "identified": "<i class=\"fas fa-check\"></i>"
        },
        "hasAttack": false,
        "hasMultiAttack": false,
        "hasDamage": false,
        "hasAction": false,
        "showUnidentifiedData": false,
        "isStack": false,
        "isCharged": false,
        "price": 0.1,
        "empty": false,
        "totalWeight": 5,
        "units": "lbs",
        "system": {
          "subType": "gear",
          "description": {
            "value": "<p>This consists of two woolen sheets sewn together along the bottom and one side to create a bag for sleeping in. Some have cloth straps along the open side so the bedroll can be tied closed while you are sleeping. It can be rolled and tied into a tight coil for storage or transport. Most people use a <em>blanket</em> with the bedroll to stay warm or provide a ground cushion.</p>",
            "chat": "",
            "unidentified": ""
          },
          "tags": [],
          "quantity": 1,
          "weight": {
            "value": 5
          },
          "price": 0.1,
          "identified": true,
          "hp": {
            "max": 10,
            "value": 10
          },
          "hardness": 0,
          "carried": true,
          "unidentified": {
            "price": 0,
            "name": ""
          },
          "identifiedName": "Bedroll",
          "cl": 0,
          "aura": {
            "custom": false,
            "school": ""
          },
          "links": {
            "children": []
          },
          "damage": {
            "parts": [],
            "critParts": [],
            "nonCritParts": []
          },
          "attackParts": [],
          "conditionals": [],
          "contextNotes": [],
          "weightConverted": 5,
          "weightUnits": "lbs",
          "priceUnits": "gp",
          "size": "med",
          "equipped": false,
          "range": {
            "maxIncrements": 1
          }
        }
      },
      {
        "_id": "habofoapdifirevm",
        "name": "Pot, Cooking (Iron)",
        "permission": {
          "default": 0,
          "T9i9xVjdkHeFZC72": 3
        },
        "type": "loot",
        "flags": {
          "core": {
            "sourceId": "Compendium.pf1.items.habofoapdifirevm"
          }
        },
        "img": "icons/tools/cooking/cauldron-empty.webp",
        "effects": [],
        "labels": {
          "equipped": "<i class=\"fas fa-times\"></i>",
          "carried": "<i class=\"fas fa-check\"></i>",
          "identified": "<i class=\"fas fa-check\"></i>"
        },
        "hasAttack": false,
        "hasMultiAttack": false,
        "hasDamage": false,
        "hasAction": false,
        "showUnidentifiedData": false,
        "isStack": false,
        "isCharged": false,
        "price": 0.8,
        "empty": false,
        "totalWeight": 4,
        "units": "lbs",
        "system": {
          "subType": "gear",
          "description": {
            "value": " \n<p class=\"source\"><b>Source</b> <em>PZO1110</em></p> \n<p>Cooking pots come in a variety of materials, but the most common is formed of iron.</p> \n<p>A mithral cooking pot weighs 2 lbs. and costs 2,001 gp.</p> \n<p><b>Empty Weight</b>: 2 lb.; <b>Capacity</b>: 1 gallon/8 lb.</p> \n",
            "chat": "",
            "unidentified": ""
          },
          "tags": [],
          "quantity": 1,
          "weight": {
            "value": 4
          },
          "price": 0.8,
          "identified": true,
          "hp": {
            "max": 10,
            "value": 10
          },
          "hardness": 0,
          "carried": true,
          "unidentified": {
            "price": 0,
            "name": ""
          },
          "identifiedName": "Pot, Cooking (Iron)",
          "cl": 0,
          "aura": {
            "custom": false,
            "school": ""
          },
          "links": {
            "children": []
          },
          "damage": {
            "parts": [],
            "critParts": [],
            "nonCritParts": []
          },
          "weightConverted": 4,
          "attackParts": [],
          "conditionals": [],
          "contextNotes": [],
          "weightUnits": "lbs",
          "priceUnits": "gp",
          "size": "med",
          "equipped": false,
          "range": {
            "maxIncrements": 1
          }
        }
      },
      {
        "_id": "Ueae6c2qqJJGpncA",
        "name": "Mess Kit",
        "permission": {
          "default": 0,
          "ZuWclcb9BUy2aZSN": 3
        },
        "type": "container",
        "flags": {
          "core": {
            "sourceId": "Item.F1QKvOYGM9u5YI1x"
          }
        },
        "img": "icons/containers/chest/chest-simple-box-red.webp",
        "effects": [],
        "labels": {
          "equipped": "<i class=\"fas fa-times\"></i>",
          "carried": "<i class=\"fas fa-check\"></i>",
          "identified": "<i class=\"fas fa-check\"></i>"
        },
        "hasAttack": false,
        "hasMultiAttack": false,
        "hasDamage": false,
        "hasAction": false,
        "showUnidentifiedData": false,
        "isStack": false,
        "isCharged": false,
        "price": 0.2,
        "empty": false,
        "totalWeight": 1,
        "units": "lbs",
        "system": {
          "basePrice": 0.2,
          "unidentified": {
            "basePrice": 0,
            "price": 0,
            "name": ""
          },
          "description": {
            "value": "<p><span style=\"color: #191813; font-size: 13px;\">This kit includes a plate, bowl, cup, fork, knife, and spoon, made of wood, horn, or tin. Each item has a handle or small hole, and can be tied together using the included leather cord.</span></p>",
            "chat": "",
            "unidentified": ""
          },
          "tags": [],
          "quantity": 1,
          "weight": {
            "value": 0.1
          },
          "price": 0.2,
          "identified": true,
          "hp": {
            "max": 10,
            "value": 10
          },
          "hardness": 0,
          "carried": true,
          "identifiedName": "Mess Kit",
          "cl": 0,
          "aura": {
            "custom": false,
            "school": ""
          },
          "inventoryItems": [
            {
              "name": "Plate",
              "type": "loot",
              "_id": "t95qxxcbkgau4zwa",
              "img": "systems/pf1/icons/items/inventory/dice.jpg",
              "labels": {
                "equipped": "<i class=\"fas fa-times\"></i>",
                "carried": "<i class=\"fas fa-check\"></i>",
                "identified": "<i class=\"fas fa-check\"></i>"
              },
              "hasAttack": false,
              "hasMultiAttack": false,
              "hasDamage": false,
              "hasAction": false,
              "showUnidentifiedData": false,
              "isStack": false,
              "isCharged": false,
              "price": 0,
              "empty": false,
              "totalWeight": 0.4,
              "units": "lbs",
              "system": {
                "subType": "tradeGoods",
                "description": {
                  "value": "",
                  "chat": "",
                  "unidentified": ""
                },
                "tags": [],
                "quantity": 1,
                "weight": {
                  "value": 0.4
                },
                "price": 0,
                "identified": true,
                "hp": {
                  "max": 10,
                  "value": 10
                },
                "hardness": 0,
                "carried": true,
                "unidentified": {
                  "price": 0,
                  "name": ""
                },
                "identifiedName": "Plate",
                "cl": 0,
                "aura": {
                  "custom": false,
                  "school": ""
                },
                "links": {
                  "children": []
                },
                "typeName": "Trade Good",
                "weightConverted": 0.4,
                "weightUnits": "lbs",
                "priceUnits": "gp",
                "damage": {
                  "parts": [],
                  "critParts": [],
                  "nonCritParts": []
                },
                "attackParts": [],
                "conditionals": [],
                "contextNotes": [],
                "size": "med",
                "equipped": false,
                "range": {
                  "maxIncrements": 1
                }
              }
            },
            {
              "name": "Bowl",
              "type": "loot",
              "img": "icons/containers/kitchenware/bowl-clay-brown.webp",
              "labels": {
                "equipped": "<i class=\"fas fa-times\"></i>",
                "carried": "<i class=\"fas fa-check\"></i>",
                "identified": "<i class=\"fas fa-check\"></i>"
              },
              "hasAttack": false,
              "hasMultiAttack": false,
              "hasDamage": false,
              "hasAction": false,
              "showUnidentifiedData": false,
              "isStack": false,
              "isCharged": false,
              "price": 0,
              "empty": false,
              "totalWeight": 0.2,
              "units": "lbs",
              "_id": "q4asw26dyrjavece",
              "system": {
                "subType": "tradeGoods",
                "description": {
                  "value": "",
                  "chat": "",
                  "unidentified": ""
                },
                "tags": [],
                "quantity": 1,
                "weight": {
                  "value": 0.2
                },
                "price": 0,
                "identified": true,
                "hp": {
                  "max": 10,
                  "value": 10
                },
                "hardness": 0,
                "carried": true,
                "unidentified": {
                  "price": 0,
                  "name": ""
                },
                "identifiedName": "Bowl",
                "cl": 0,
                "aura": {
                  "custom": false,
                  "school": ""
                },
                "links": {
                  "children": []
                },
                "typeName": "Trade Good",
                "weightConverted": 0.2,
                "weightUnits": "lbs",
                "priceUnits": "gp",
                "damage": {
                  "parts": [],
                  "critParts": [],
                  "nonCritParts": []
                },
                "attackParts": [],
                "conditionals": [],
                "contextNotes": [],
                "size": "med",
                "equipped": false,
                "range": {
                  "maxIncrements": 1
                }
              }
            },
            {
              "name": "Fork",
              "type": "loot",
              "img": "icons/tools/cooking/fork-steel-tan.webp",
              "labels": {
                "equipped": "<i class=\"fas fa-times\"></i>",
                "carried": "<i class=\"fas fa-check\"></i>",
                "identified": "<i class=\"fas fa-check\"></i>"
              },
              "hasAttack": false,
              "hasMultiAttack": false,
              "hasDamage": false,
              "hasAction": false,
              "showUnidentifiedData": false,
              "isStack": false,
              "isCharged": false,
              "price": 0,
              "empty": false,
              "totalWeight": 0.1,
              "units": "lbs",
              "_id": "e1r0sdabl9awmxid",
              "system": {
                "subType": "tradeGoods",
                "description": {
                  "value": "",
                  "chat": "",
                  "unidentified": ""
                },
                "tags": [],
                "quantity": 1,
                "weight": {
                  "value": 0.1
                },
                "price": 0,
                "identified": true,
                "hp": {
                  "max": 10,
                  "value": 10
                },
                "hardness": 0,
                "carried": true,
                "unidentified": {
                  "price": 0,
                  "name": ""
                },
                "identifiedName": "Fork",
                "cl": 0,
                "aura": {
                  "custom": false,
                  "school": ""
                },
                "links": {
                  "children": []
                },
                "typeName": "Trade Good",
                "weightConverted": 0.1,
                "weightUnits": "lbs",
                "priceUnits": "gp",
                "damage": {
                  "parts": [],
                  "critParts": [],
                  "nonCritParts": []
                },
                "attackParts": [],
                "conditionals": [],
                "contextNotes": [],
                "size": "med",
                "equipped": false,
                "range": {
                  "maxIncrements": 1
                }
              }
            },
            {
              "name": "Knife",
              "type": "loot",
              "img": "icons/tools/cooking/knife-chef-steel-brown.webp",
              "labels": {
                "equipped": "<i class=\"fas fa-times\"></i>",
                "carried": "<i class=\"fas fa-check\"></i>",
                "identified": "<i class=\"fas fa-check\"></i>"
              },
              "hasAttack": false,
              "hasMultiAttack": false,
              "hasDamage": false,
              "hasAction": false,
              "showUnidentifiedData": false,
              "isStack": false,
              "isCharged": false,
              "price": 0,
              "empty": false,
              "totalWeight": 0.1,
              "units": "lbs",
              "_id": "swpiosj6uadvp8xy",
              "system": {
                "subType": "tradeGoods",
                "description": {
                  "value": "",
                  "chat": "",
                  "unidentified": ""
                },
                "tags": [],
                "quantity": 1,
                "weight": {
                  "value": 0.1
                },
                "price": 0,
                "identified": true,
                "hp": {
                  "max": 10,
                  "value": 10
                },
                "hardness": 0,
                "carried": true,
                "unidentified": {
                  "price": 0,
                  "name": ""
                },
                "identifiedName": "Knife",
                "cl": 0,
                "aura": {
                  "custom": false,
                  "school": ""
                },
                "links": {
                  "children": []
                },
                "typeName": "Trade Good",
                "weightConverted": 0.1,
                "weightUnits": "lbs",
                "priceUnits": "gp",
                "damage": {
                  "parts": [],
                  "critParts": [],
                  "nonCritParts": []
                },
                "attackParts": [],
                "conditionals": [],
                "contextNotes": [],
                "size": "med",
                "equipped": false,
                "range": {
                  "maxIncrements": 1
                }
              }
            },
            {
              "name": "Spoon",
              "type": "loot",
              "img": "icons/tools/cooking/soup-ladle.webp",
              "labels": {
                "equipped": "<i class=\"fas fa-times\"></i>",
                "carried": "<i class=\"fas fa-check\"></i>",
                "identified": "<i class=\"fas fa-check\"></i>"
              },
              "hasAttack": false,
              "hasMultiAttack": false,
              "hasDamage": false,
              "hasAction": false,
              "showUnidentifiedData": false,
              "isStack": false,
              "isCharged": false,
              "price": 0,
              "empty": false,
              "totalWeight": 0.1,
              "units": "lbs",
              "_id": "pxs9209y5ybsemki",
              "system": {
                "subType": "tradeGoods",
                "description": {
                  "value": "",
                  "chat": "",
                  "unidentified": ""
                },
                "tags": [],
                "quantity": 1,
                "weight": {
                  "value": 0.1
                },
                "price": 0,
                "identified": true,
                "hp": {
                  "max": 10,
                  "value": 10
                },
                "hardness": 0,
                "carried": true,
                "unidentified": {
                  "price": 0,
                  "name": ""
                },
                "identifiedName": "Spoon",
                "cl": 0,
                "aura": {
                  "custom": false,
                  "school": ""
                },
                "links": {
                  "children": []
                },
                "typeName": "Trade Good",
                "weightConverted": 0.1,
                "weightUnits": "lbs",
                "priceUnits": "gp",
                "damage": {
                  "parts": [],
                  "critParts": [],
                  "nonCritParts": []
                },
                "attackParts": [],
                "conditionals": [],
                "contextNotes": [],
                "size": "med",
                "equipped": false,
                "range": {
                  "maxIncrements": 1
                }
              }
            }
          ],
          "maxWeight": null,
          "weightReduction": 0,
          "baseWeight": 0.1,
          "damage": {
            "parts": [],
            "critParts": [],
            "nonCritParts": []
          },
          "attackParts": [],
          "conditionals": [],
          "contextNotes": [],
          "weightConverted": 1,
          "weightUnits": "lbs",
          "priceUnits": "gp",
          "size": "med",
          "range": {
            "maxIncrements": 1
          },
          "-=baseWeight": null
        }
      },
      {
        "_id": "jewqhqesccxrvivd",
        "name": "Candle",
        "permission": {
          "default": 0,
          "T9i9xVjdkHeFZC72": 3
        },
        "type": "loot",
        "flags": {
          "core": {
            "sourceId": "Compendium.pf1.items.jewqhqesccxrvivd"
          }
        },
        "img": "systems/pf1/icons/items/inventory/candle.jpg",
        "effects": [],
        "labels": {
          "equipped": "<i class=\"fas fa-times\"></i>",
          "carried": "<i class=\"fas fa-check\"></i>",
          "identified": "<i class=\"fas fa-check\"></i>"
        },
        "hasAttack": false,
        "hasMultiAttack": false,
        "hasDamage": false,
        "hasAction": false,
        "showUnidentifiedData": false,
        "isStack": true,
        "isCharged": false,
        "price": 0.01,
        "empty": false,
        "totalWeight": 0,
        "units": "lbs",
        "system": {
          "subType": "gear",
          "description": {
            "value": "<h4><span id=\"Candle\"><a name=\"TOC-Candle\"></a>Candle</span></h4>\r\n<p>A candle dimly illuminates a small area, increasing the light level in a 5-foot radius by one step (darkness becomes dim light and dim light becomes normal light). A candle cannot increase the light level above normal light. A candle burns for 1 hour. <b>Price</b> 1 cp; <b>Weight</b> -</p>\r\n<p><b>Candle, Helmet</b> This device consists of a helmet with a short, thin spike on top upon which a <em>candle</em> is stuck, freeing your hands for other tasks. <b>Price</b> 2 gp; <b>Weight</b> 4 lbs.</p>\r\n<p><b>Candle Lamp</b> A candle lamp is a small lantern-like device with glass panels and a slot to hold a <em>candle</em>. It protects the <em>candle</em> from drafts and catches wax drippings. It provides the same light as a <em>candle</em>, but can be shuttered such that it only illuminates 1 to 3 adjacent squares. You can use a <em>candle lamp</em> to keep your hands warm. <b>Price</b> 5 gp; <b>Weight</b> 1 lb.</p>\r\n<p><b>Candlestick</b> This saucer-like object has a flat bottom, a handle, and a spike on top. You can affix a <em>candle</em> onto the spike (up to 3 inches in diameter) and hold the candlestick by the handle. The flat bottom means you're able to set it down and not worry about the <em>candle</em> falling over and extinguishing itself. A typical candlestick is crafted from baked <em>clay</em> or a cheap metal such as copper, but elaborate and expensive ones exist. <b>Price</b> 1 cp; <b>Weight</b> 1/2 lb.</p>\r\n",
            "chat": "",
            "unidentified": ""
          },
          "tags": [],
          "quantity": 10,
          "weight": {
            "value": 0
          },
          "price": 0.01,
          "identified": true,
          "hp": {
            "max": 10,
            "value": 10
          },
          "hardness": 0,
          "carried": true,
          "unidentified": {
            "price": 0,
            "name": ""
          },
          "identifiedName": "Candle",
          "cl": 0,
          "aura": {
            "custom": false,
            "school": ""
          },
          "links": {
            "children": []
          },
          "damage": {
            "parts": [],
            "critParts": [],
            "nonCritParts": []
          },
          "attackParts": [],
          "conditionals": [],
          "contextNotes": [],
          "weightConverted": 0,
          "weightUnits": "lbs",
          "priceUnits": "gp",
          "size": "med",
          "equipped": false,
          "range": {
            "maxIncrements": 1
          }
        }
      },
      {
        "_id": "ucgkbtqiybhyiwwk",
        "name": "Pouch, Spell Component",
        "permission": {
          "default": 0,
          "T9i9xVjdkHeFZC72": 3
        },
        "type": "loot",
        "flags": {
          "core": {
            "sourceId": "Compendium.pf1.items.ucgkbtqiybhyiwwk"
          }
        },
        "img": "systems/pf1/icons/items/inventory/pouch-sealed.jpg",
        "effects": [],
        "labels": {
          "equipped": "<i class=\"fas fa-times\"></i>",
          "carried": "<i class=\"fas fa-check\"></i>",
          "identified": "<i class=\"fas fa-check\"></i>"
        },
        "hasAttack": false,
        "hasMultiAttack": false,
        "hasDamage": false,
        "hasAction": false,
        "showUnidentifiedData": false,
        "isStack": false,
        "isCharged": false,
        "price": 5,
        "empty": false,
        "totalWeight": 2,
        "units": "lbs",
        "system": {
          "subType": "gear",
          "description": {
            "value": "\r\n<p><b>Price</b> 5 gp; <b>Weight</b> 2 lbs.</p>\r\n<p>A spellcaster with a spell component pouch is assumed to have all the material <em>components</em> and focuses needed for spellcasting, except for <em>components</em> that have a specific cost, divine focuses, and focuses that wouldn't fit in a pouch. Most spell component pouches are waterproof and can be strung onto a belt or bandolier.</p>\r\n\r\n",
            "chat": "",
            "unidentified": ""
          },
          "tags": [],
          "quantity": 1,
          "weight": {
            "value": 2
          },
          "price": 5,
          "identified": true,
          "hp": {
            "max": 10,
            "value": 10
          },
          "hardness": 0,
          "carried": true,
          "unidentified": {
            "price": 0,
            "name": ""
          },
          "identifiedName": "Pouch, Spell Component",
          "cl": 0,
          "aura": {
            "custom": false,
            "school": ""
          },
          "links": {
            "children": []
          },
          "damage": {
            "parts": []
          },
          "weightConverted": 2,
          "weightUnits": "lbs",
          "priceUnits": "gp",
          "size": "med",
          "equipped": false,
          "range": {
            "maxIncrements": 1
          }
        }
      },
      {
        "_id": "s5KkeKPLnneb0WR4",
        "name": "Holy symbol (Wood)",
        "permission": {
          "default": 0,
          "tbXbnTpRAtmE0QDr": 3
        },
        "type": "loot",
        "flags": {
          "core": {
            "sourceId": "Compendium.pf1.items.s5KkeKPLnneb0WR4"
          }
        },
        "img": "systems/pf1/icons/items/inventory/dice.jpg",
        "effects": [],
        "labels": {
          "equipped": "<i class=\"fas fa-times\"></i>",
          "carried": "<i class=\"fas fa-check\"></i>",
          "identified": "<i class=\"fas fa-check\"></i>"
        },
        "hasAttack": false,
        "hasMultiAttack": false,
        "hasDamage": false,
        "hasAction": false,
        "showUnidentifiedData": false,
        "isStack": false,
        "isCharged": false,
        "price": 1,
        "empty": false,
        "totalWeight": 0,
        "units": "lbs",
        "system": {
          "subType": "gear",
          "description": {
            "value": "<p style=\"box-sizing: border-box; user-select: text; color: #191813; font-size: 13px;\">Source&nbsp;<a style=\"box-sizing: border-box; user-select: text;\" href=\"http://paizo.com/products/btpy8tmc?Pathfinder-Roleplaying-Game-Ultimate-Equipment\" target=\"_blank\" rel=\"noopener\">Ultimate Equipment pg. 57</a><br style=\"box-sizing: border-box; user-select: text;\">Price&nbsp;100 gp (gold), 5 gp (iron), 500 gp (platinum), 25 gp (silver), 1 gp (wooden);&nbsp;Weight&nbsp;1 lb. (gold), 1 lb. (iron), 1 lb. (platinum), 1 lb. (silver), — (wooden)</p>\n<h3 style=\"box-sizing: border-box; user-select: text; color: #191813;\">Description</h3>\n<p style=\"box-sizing: border-box; user-select: text; color: #191813; font-size: 13px;\">A holy symbol focuses positive energy and is used by good clerics and paladins (or by neutral clerics who want to cast good spells or channel positive energy). Each religion has its own holy symbol. The material used to make the holy symbol has no effect on its powers, though a religion may place special significance on a particular material.<br style=\"box-sizing: border-box; user-select: text;\"><br style=\"box-sizing: border-box; user-select: text;\">Unholy Symbols: An unholy symbol is like a holy symbol except that it focuses negative energy and is used by evil clerics (or by neutral clerics who want to cast evil spells or channel negative energy).</p>",
            "chat": "",
            "unidentified": ""
          },
          "tags": [],
          "quantity": 1,
          "weight": {
            "value": 0
          },
          "price": 1,
          "identified": true,
          "hp": {
            "max": 10,
            "value": 10
          },
          "hardness": 0,
          "carried": true,
          "unidentified": {
            "price": 0,
            "name": ""
          },
          "identifiedName": "Holy symbol (Wood)",
          "cl": 0,
          "aura": {
            "custom": false,
            "school": ""
          },
          "links": {
            "children": []
          },
          "damage": {
            "parts": []
          },
          "weightConverted": 0,
          "weightUnits": "lbs",
          "priceUnits": "gp",
          "size": "med",
          "equipped": false,
          "range": {
            "maxIncrements": 1
          }
        }
      }
    ]
  }
}
