{
  "_id": "jvnlfptrftfhlkkp",
  "name": "Map",
  "type": "loot",
  "img": "systems/pf1/icons/items/inventory/dice.jpg",
  "sort": 0,
  "flags": {},
  "system": {
    "description": {
      "value": "<h4><span id=\"Map\"><a name=\"TOC-Map\"></a>Map</span></h4>\r\n<p class=\"source\"><b>Source</b> <em>PPZO9410</em></p>\r\n<p>A geographically relevant map grants a user a +1 <em>circumstance bonus</em> on <em>Survival</em> checks made to navigate in the wilderness. It also can be used to grant the same bonus on <em>Knowledge</em> (dungeoneering) checks made to navigate underground.</p>\r\n"
    },
    "tags": [],
    "equipped": false,
    "changes": [],
    "contextNotes": [],
    "links": {
      "children": []
    },
    "scriptCalls": [],
    "subType": "gear"
  }
}
