{
  "_id": "tdsxeblxeohbxbzl",
  "name": "Mask, Battle",
  "type": "loot",
  "img": "systems/pf1/icons/items/inventory/mask-bone.jpg",
  "sort": 0,
  "flags": {},
  "system": {
    "description": {
      "value": " \n<p class=\"source\"><b>Source</b> <em>PZO1121</em></p> \n<p>Made from wood, bone, or similar materials, this mask covers its wearer's actual appearance and identity by depicting a hateful, leering face instead. Because of a battle mask's excellent craftsmanship and exquisite details, the wearer gains a +1 bonus on Intimidate checks made to demoralize an opponent.</p> \n"
    },
    "tags": [],
    "weight": {
      "value": 2
    },
    "price": 50,
    "equipped": false,
    "identifiedName": "Mask, Battle",
    "changes": [],
    "contextNotes": [],
    "links": {
      "children": []
    },
    "scriptCalls": [],
    "subType": "gear"
  }
}
