{
  "_id": "detecfeexzqvpogf",
  "name": "Mead, Linnorm",
  "type": "loot",
  "img": "systems/pf1/icons/items/inventory/dice.jpg",
  "sort": 0,
  "flags": {},
  "system": {
    "description": {
      "value": "<h4><span id=\"Mead_Linnorm\"><a name=\"TOC-Mead-Linnorm\"></a>Mead, Linnorm</span></h4>\r\n<p class=\"source\"><b>Source</b> <em>PPZO9410</em></p>\r\n<p>This honey mead is sweet and strong and, according to <em>bards</em>, is an indisputable aid to singing.</p>\r\n<p>The listed prices are for a tavern or restaurant in an average city.</p>\r\n"
    },
    "tags": [],
    "equipped": false,
    "changes": [],
    "contextNotes": [],
    "links": {
      "children": []
    },
    "scriptCalls": [],
    "subType": "gear"
  }
}
