{
  "_id": "kufxykxfevwmibqj",
  "name": "Meat",
  "type": "loot",
  "img": "systems/pf1/icons/items/inventory/dice.jpg",
  "sort": 0,
  "flags": {},
  "system": {
    "description": {
      "value": "<h4><span id=\"Meat\"><a name=\"TOC-Meat\"></a>Meat</span></h4>\r\n<p class=\"source\"><b>Source</b> <em>PZO1110</em></p>\r\n<p>The listed prices are for a tavern or restaurant in an average city.</p>\r\n"
    },
    "tags": [],
    "equipped": false,
    "changes": [],
    "contextNotes": [],
    "links": {
      "children": []
    },
    "scriptCalls": [],
    "subType": "gear"
  }
}
