{
  "_id": "GFOu4GXWqb6MJQQJ",
  "name": "Outfit, Monk's",
  "type": "equipment",
  "img": "systems/pf1/icons/items/equipment/belt-girdle.jpg",
  "sort": 0,
  "flags": {},
  "system": {
    "description": {
      "value": "<p class=\"source\" style=\"box-sizing: border-box; user-select: text; color: #191813; font-size: 13px;\"><strong style=\"box-sizing: border-box; user-select: text;\">Source</strong>&nbsp;<em>PZO1110</em></p>\n<p style=\"box-sizing: border-box; user-select: text; color: #191813; font-size: 13px;\">This simple outfit includes sandals, loose breeches, and a loose shirt, and is bound together with sashes. The outfit is designed to give you maximum mobility, and it's made of high-quality fabric. You can conceal small weapons in pockets hidden in the folds, and the sashes are strong enough to serve as short ropes.</p>"
    },
    "tags": [],
    "weight": {
      "value": 2
    },
    "price": 5,
    "identifiedName": "Outfit, Monk's",
    "changes": [],
    "contextNotes": [],
    "actions": [],
    "attackNotes": [],
    "effectNotes": [],
    "links": {
      "children": [],
      "charges": []
    },
    "scriptCalls": [],
    "subType": "misc",
    "equipmentSubtype": "clothing",
    "slot": "body"
  }
}
