{
  "_id": "RfQvOISVKf3WU8Nl",
  "name": "Outfit, Cold-Weather",
  "type": "equipment",
  "img": "systems/pf1/icons/items/equipment/cloak-fur.jpg",
  "sort": 0,
  "flags": {},
  "system": {
    "description": {
      "value": "<p class=\"source\" style=\"box-sizing: border-box; user-select: text; color: #191813; font-size: 13px;\"><strong style=\"box-sizing: border-box; user-select: text;\">Source</strong>&nbsp;<em>PZO1110</em></p>\n<p style=\"box-sizing: border-box; user-select: text; color: #191813; font-size: 13px;\">This outfit includes a wool coat, linen shirt, wool cap, heavy cloak, thick pants or skirt, and boots. This outfit grants a +5&nbsp;<em>circumstance bonus</em>&nbsp;on&nbsp;<em>Fortitude</em>&nbsp;<em>saving throws</em>&nbsp;against exposure to cold weather.</p>"
    },
    "tags": [],
    "weight": {
      "value": 7
    },
    "price": 8,
    "identifiedName": "Outfit, Cold-Weather",
    "changes": [],
    "contextNotes": [
      {
        "text": "+[[5]] <b>Circumstance</b> vs cold weather effects",
        "target": "savingThrows",
        "subTarget": "fort"
      }
    ],
    "actions": [],
    "attackNotes": [],
    "effectNotes": [],
    "links": {
      "children": [],
      "charges": []
    },
    "scriptCalls": [],
    "subType": "misc",
    "equipmentSubtype": "clothing",
    "slot": "body"
  }
}
