{
  "_id": "sdhjmqpfjlqohjoj",
  "name": "Saltpeter",
  "type": "loot",
  "img": "systems/pf1/icons/items/inventory/dice.jpg",
  "sort": 0,
  "flags": {},
  "system": {
    "description": {
      "value": "\r\n<p class=\"source\"><b>Source</b> <em>PZO9445</em></p>\r\n<p><b>Price</b> 3 gp; <b>Weight</b> -</p>\r\n<p>Saltpeter is used to create fertilizers, propellants, fireworks, and preservatives.</p>\r\n<p class=\"header\">Alchemical Power Component</p>\r\n<p><b>Doses</b> 1 (1 gp); <b>Spells</b> fire descriptor</p>\r\n<p>Spells with the [fire] descriptor deal +1 fire damage.</p>\r\n"
    },
    "tags": [],
    "price": 3,
    "equipped": false,
    "changes": [],
    "contextNotes": [],
    "links": {
      "children": []
    },
    "scriptCalls": [],
    "subType": "gear"
  }
}
