{
  "_id": "oqpgxjihuqavhkbo",
  "name": "Sugar Lemons",
  "type": "loot",
  "img": "systems/pf1/icons/items/inventory/dice.jpg",
  "sort": 0,
  "flags": {},
  "system": {
    "description": {
      "value": "<h4><span id=\"Sugar_Lemons\">Sugar Lemons</span></h4>\r\n<p class=\"source\"><b>Source</b> <a href=\"https://amzn.to/2pCBzMR\" target=\"_blank\" rel=\"noopener\">PPC:MM</a></p>\r\n<p><b>Price</b> 1 gp; <b>Weight</b> 1 lb.</p>\r\n<p>Sugar lemons make prized preserves when ground, salted, and sealed in jars, adding an intense citrus flavor when sprinkled atop other foods. If, within 8 hours of consuming a <em>meal</em> seasoned with Sugar lemons, you gain the <em>confused</em> condition, you can roll 1d6 and subtract the result from the result of your d% roll to determine what action you take for the first round in which you are <em>confused</em>. This benefit does not stack with itself.</p>\r\n<p>The price and weight listed represent a jar containing enough preserved lemons to season 10 meals.</p>\r\n"
    },
    "tags": [],
    "weight": {
      "value": 1
    },
    "price": 1,
    "equipped": false,
    "changes": [],
    "contextNotes": [],
    "links": {
      "children": []
    },
    "scriptCalls": [],
    "subType": "gear"
  }
}
