{
  "_id": "rfetjvpidsjuesdw",
  "name": "Tepache",
  "type": "loot",
  "img": "systems/pf1/icons/items/inventory/dice.jpg",
  "sort": 0,
  "flags": {},
  "system": {
    "description": {
      "value": "<h4><span id=\"Tepache\"><a name=\"TOC-Tepache\"></a>Tepache</span></h4>\r\n<p><b>Price</b> 1 sp; <b>Weight</b> 1/2 lb.</p>\r\n<p>This mildly alcoholic beverage is made of beer, pineapple (or other tropical fruit), sugar, and cinnamon, then fermented a few days and served cold with chili <em>powder</em>. It is sweet and pleasant but common only in warmer climates.</p>\r\n"
    },
    "tags": [],
    "weight": {
      "value": 0.5
    },
    "price": 0.1,
    "equipped": false,
    "changes": [],
    "contextNotes": [],
    "links": {
      "children": []
    },
    "scriptCalls": [],
    "subType": "gear"
  }
}
