{
  "_id": "9OAxJICb7xkxnclB",
  "name": "Tools, Thieves' (Concealable)",
  "type": "loot",
  "img": "systems/pf1/icons/items/inventory/lockpick.jpg",
  "sort": 0,
  "flags": {},
  "system": {
    "description": {
      "value": "<p>This kit contains lockpicks and other tools you need to use the @Compendium[pf1.skills.CCy1fajKKU3K02iQ]{Disable Device} skill. Without these tools, you must use improvised tools, and you take a -2 circumstance penalty on @Compendium[pf1.skills.CCy1fajKKU3K02iQ]{Disable Device} checks.</p>\n<p>Smaller and made of stronger materials than most <em>thieves' tools</em>, the items in this kit are much easier to conceal. You gain a +4 bonus on @Compendium[pf1.skills.zK0CbvpYLZhTN5Wn]{Sleight of Hand}&nbsp;skill checks to conceal these tools on your body. They otherwise function as masterwork thieves tools (granting a +2 <em>circumstance bonus</em> on @Compendium[pf1.skills.CCy1fajKKU3K02iQ]{Disable Device}&nbsp;checks). <strong>Source</strong> <a href=\"http://www.opengamingstore.com/collections/all-products/products/ultimate-intrigue-pathfinder-rpg\" target=\"_blank\" rel=\"noopener\">PZO1134</a></p>"
    },
    "tags": [],
    "weight": {
      "value": 0.5
    },
    "price": 190,
    "equipped": false,
    "identifiedName": "Tools, Thieves' (Concealable)",
    "changes": [
      {
        "_id": "l8afzshe",
        "formula": "2",
        "operator": "add",
        "subTarget": "dev",
        "modifier": "circumstance",
        "priority": 0,
        "value": 0
      }
    ],
    "contextNotes": [],
    "links": {
      "children": []
    },
    "tag": "toolsThievesConcealable",
    "scriptCalls": [],
    "subType": "gear"
  }
}
