{
  "_id": "fcfgvhauvtobaibg",
  "name": "Vial",
  "type": "loot",
  "img": "systems/pf1/icons/items/inventory/dice.jpg",
  "sort": 0,
  "flags": {},
  "system": {
    "description": {
      "value": " \n<p class=\"source\"><b>Source</b> <em>PZO1110</em></p> \n<p>A vial is made out of glass or steel and holds 1 ounce of liquid.</p> \n<p><b>Empty Weight</b>: -; <b>Capacity</b>: 1 ounce/-</p> \n"
    },
    "tags": [],
    "price": 1,
    "equipped": false,
    "changes": [],
    "contextNotes": [],
    "links": {
      "children": []
    },
    "scriptCalls": [],
    "subType": "gear"
  }
}
