{
  "_id": "xU6T3RFfBgPCFiDi",
  "name": "Ability Score Increase (SPI)",
  "type": "feat",
  "img": "systems/pf1/icons/skills/blood_12.jpg",
  "sort": 0,
  "flags": {},
  "system": {
    "description": {
      "value": "<p>The phantom adds 1 to one of its ability scores.</p>"
    },
    "tags": [],
    "actions": [],
    "attackNotes": [],
    "effectNotes": [],
    "changes": [],
    "contextNotes": [],
    "links": {
      "children": [],
      "charges": []
    },
    "tag": "classFeat_abilityScoreIncreaseSpi",
    "useCustomTag": true,
    "armorProf": {
      "value": []
    },
    "weaponProf": {
      "value": []
    },
    "languages": {
      "value": []
    },
    "scriptCalls": [],
    "subType": "classFeat",
    "associations": {
      "classes": [["Spiritualist"], ["Phantom"]]
    },
    "abilityType": "ex"
  }
}
