{
  "_id": "wGbwDOutbUN5ohar",
  "name": "Adept Disarmer",
  "type": "feat",
  "img": "systems/pf1/icons/items/inventory/banner-red.jpg",
  "sort": 0,
  "flags": {},
  "system": {
    "description": {
      "value": "<p>At 8th level, the cavalier gains @Compendium[pf1.feats.711B9WNFgpdDKKf2]{Improved Disarm}&nbsp;as a bonus feat. In addition, whenever he makes a successful disarm check, as long as he has at least one hand free and the dropped item can be held in one hand, he can automatically pick up the dropped item in his free hand.</p>"
    },
    "tags": [],
    "actions": [],
    "attackNotes": [],
    "effectNotes": [],
    "changes": [],
    "contextNotes": [],
    "links": {
      "children": [],
      "charges": []
    },
    "tag": "classFeat_adeptDisarmer",
    "useCustomTag": true,
    "armorProf": {
      "value": []
    },
    "weaponProf": {
      "value": []
    },
    "languages": {
      "value": []
    },
    "scriptCalls": [],
    "subType": "classFeat",
    "associations": {
      "classes": [["Cavalier"]]
    },
    "abilityType": "ex"
  }
}
