{
  "_id": "HdicbVXhaMwatXXe",
  "name": "Basic Pyrokinesis",
  "type": "feat",
  "img": "systems/pf1/icons/spells/fireball-red-3.jpg",
  "sort": 0,
  "flags": {},
  "system": {
    "description": {
      "value": "<p><strong>Element&nbsp;</strong>fire;&nbsp;<strong>Type&nbsp;</strong>utility (Sp);&nbsp;<strong>Level&nbsp;</strong>1;&nbsp;<strong>Burn&nbsp;</strong>0</p>\n<p>You can use your inner flame to reproduce the effects of a @Compendium[pf1.spells.eg67vvykmv9c6j7h]{Flare}, @Compendium[pf1.spells.ip9onjfp6nf1vlv9]{Light}, or @Compendium[pf1.spells.eg2gwmkpoaqljkzu]{Spark} cantrip, except that the light you create with light produces heat like a normal flame; using any of the three abilities ends any previous light effect from this wild talent.</p>"
    },
    "tags": [],
    "actions": [],
    "attackNotes": [],
    "effectNotes": [],
    "changes": [],
    "contextNotes": [],
    "links": {
      "children": [],
      "charges": []
    },
    "tag": "classFeat_basicPyrokinesis",
    "useCustomTag": true,
    "armorProf": {
      "value": []
    },
    "weaponProf": {
      "value": []
    },
    "languages": {
      "value": []
    },
    "scriptCalls": [],
    "subType": "classFeat",
    "associations": {
      "classes": [["Kineticist"]]
    },
    "abilityType": "sp"
  }
}
