{
  "_id": "ikAOdwl6gXzsm2V0",
  "name": "Brilliant Infusion",
  "type": "feat",
  "img": "systems/pf1/icons/spells/fireball-red-3.jpg",
  "sort": 0,
  "flags": {},
  "system": {
    "description": {
      "value": "<p><strong>Element</strong>&nbsp;fire;&nbsp;<strong>Type&nbsp;</strong>substance infusion;&nbsp;<strong>Level</strong>&nbsp;6<strong>;&nbsp;Burn</strong>&nbsp;4<br><strong>Prerequisite</strong>&nbsp;flash infusion<br><strong>Associated Blasts</strong>&nbsp;blue flame, fire, plasma<br><strong>Saving Throw</strong>&nbsp;none</p>\n<p>Your kinetic blast leaves an afterglow that banishes the darkness. Treat each square of the path of your ranged attack kinetic blast, the target square of your melee attack kinetic blast, or the area of your area of effect kinetic blast as the center of a&nbsp;continual flame&nbsp;effect that lasts until the end of your next turn.</p>\n<p>This effect counts as a 6th-level spell with the light descriptor.</p>"
    },
    "tags": [],
    "actions": [],
    "attackNotes": [],
    "effectNotes": [],
    "changes": [],
    "contextNotes": [],
    "links": {
      "children": [],
      "charges": []
    },
    "tag": "classFeat_brilliantInfusion",
    "useCustomTag": true,
    "armorProf": {
      "value": []
    },
    "weaponProf": {
      "value": []
    },
    "languages": {
      "value": []
    },
    "scriptCalls": [],
    "subType": "classFeat",
    "associations": {
      "classes": [["Kineticist"]]
    }
  }
}
