{
  "_id": "cJ0PUlm41aroXQa8",
  "name": "Caves Subdomain",
  "type": "feat",
  "img": "systems/pf1/icons/skills/yellow_15.jpg",
  "sort": 0,
  "flags": {},
  "system": {
    "description": {
      "value": "<p><strong>Replacement Domain Spells:</strong></p>\n<ul>\n<li>2nd—@Compendium[pf1.spells.8w67l6dzzsi6oz5f]{Create Pit}</li>\n<li>3rd—@Compendium[pf1.spells.55yke7az6gco0tyn]{Spiked Pit}</li>\n<li>6th—@Compendium[pf1.spells.4osvw3l6mq9unkec]{Hungry Pit}</li>\n</ul>"
    },
    "tags": [],
    "actions": [],
    "attackNotes": [],
    "effectNotes": [],
    "changes": [],
    "contextNotes": [],
    "links": {
      "children": [],
      "charges": []
    },
    "tag": "classFeat_cavesSubdomain",
    "useCustomTag": true,
    "armorProf": {
      "value": []
    },
    "weaponProf": {
      "value": []
    },
    "languages": {
      "value": []
    },
    "scriptCalls": [],
    "subType": "classFeat",
    "associations": {
      "classes": [["Cleric"]]
    }
  }
}
