{
  "_id": "fElHWtNuE3RyqJTJ",
  "name": "Chaos Totem, Lesser",
  "type": "feat",
  "img": "systems/pf1/icons/feats/deafening-critical.jpg",
  "sort": 0,
  "flags": {},
  "system": {
    "description": {
      "value": "<p>While raging, the barbarian gains a +1 deflection bonus to AC against the attacks of lawful creatures and a +1 resistance bonus on saving throws against confusion, insanity, polymorph, and effects with the lawful descriptor. This bonus increases by +1 for each chaos totem rage power she possesses.</p>"
    },
    "tags": [],
    "actions": [],
    "attackNotes": [],
    "effectNotes": [],
    "changes": [],
    "contextNotes": [],
    "links": {
      "children": [],
      "charges": []
    },
    "tag": "classFeat_chaosTotemLesser",
    "useCustomTag": true,
    "armorProf": {
      "value": []
    },
    "weaponProf": {
      "value": []
    },
    "languages": {
      "value": []
    },
    "scriptCalls": [],
    "subType": "classFeat",
    "associations": {
      "classes": [["Barbarian"], ["Skald"]]
    },
    "abilityType": "su"
  }
}
