{
  "_id": "208rhHNDXWdiCZ1m",
  "name": "Constrict (2 pts)",
  "type": "feat",
  "img": "systems/pf1/icons/skills/blue_26.jpg",
  "sort": 0,
  "flags": {},
  "system": {
    "description": {
      "value": "<p>An eidolon gains powerful muscles that allow it to crush those it grapples. Whenever the eidolon successfully grapples a foe using the grab evolution, it deals additional damage equal to the amount of damage dealt by the attack used by the grab evolution.</p>\n<p>This evolution is only available to eidolons of the serpentine base form.</p>"
    },
    "tags": [],
    "actions": [],
    "attackNotes": [],
    "effectNotes": [],
    "changes": [],
    "contextNotes": [],
    "links": {
      "children": [],
      "charges": []
    },
    "tag": "classFeat_constrict2Pts",
    "useCustomTag": true,
    "armorProf": {
      "value": []
    },
    "weaponProf": {
      "value": []
    },
    "languages": {
      "value": []
    },
    "scriptCalls": [],
    "subType": "classFeat",
    "associations": {
      "classes": [["Eidolon"]]
    },
    "abilityType": "ex"
  }
}
