{
  "_id": "TF9JLx9PwVnN5QPx",
  "name": "Deceptive Flourish",
  "type": "feat",
  "img": "systems/pf1/icons/skills/violet_03.jpg",
  "sort": 0,
  "flags": {},
  "system": {
    "description": {
      "value": "<p>You gain a +2&nbsp;<em>enhancement bonus</em>&nbsp;on&nbsp;<em>Bluff</em>&nbsp;and&nbsp;<em>Disguise</em>&nbsp;skill checks. This bonus increases by 1 for every 5&nbsp;<em>wizard</em> levels you have, up to a maximum of +6 at 20th level. At 20th level, you gain the benefits of @Compendium[pf1.spells.8nrt26t37v7koqr8]{Misdirection}&nbsp;(<em>Will</em>&nbsp;DC = 20 + your&nbsp;<em>Intelligence</em> modifier) or @Compendium[pf1.spells.awia42zci8nufpfl]{Nondetection}&nbsp;permanently. At will as a&nbsp;<em>standard action</em>, you can change which of the two spells is active, and each time you&nbsp;<em>activate</em> @Compendium[pf1.spells.8nrt26t37v7koqr8]{Misdirection}, you can choose a new creature or object as the secondary object.</p>"
    },
    "tags": [],
    "actions": [],
    "attackNotes": [],
    "effectNotes": [],
    "changes": [
      {
        "_id": "ij6c0rgl",
        "formula": "2 + (floor(@classes.wizard.level / 5))",
        "operator": "add",
        "subTarget": "skill.blf",
        "modifier": "enh",
        "priority": 0,
        "value": 0,
        "target": "skill"
      },
      {
        "_id": "h39o8dbh",
        "formula": "2 + (floor(@classes.wizard.level / 5))",
        "operator": "add",
        "subTarget": "skill.dis",
        "modifier": "enh",
        "priority": 0,
        "value": 0,
        "target": "skill"
      }
    ],
    "contextNotes": [],
    "links": {
      "children": [],
      "charges": []
    },
    "tag": "classFeat_deceptiveFlourish",
    "useCustomTag": true,
    "armorProf": {
      "value": []
    },
    "weaponProf": {
      "value": []
    },
    "languages": {
      "value": []
    },
    "scriptCalls": [],
    "subType": "classFeat",
    "associations": {
      "classes": [["Wizard"]]
    },
    "abilityType": "su"
  }
}
