{
  "_id": "kd8fZDzxw6uILYT4",
  "name": "Defoliant Bomb",
  "type": "feat",
  "img": "systems/pf1/icons/items/potions/unique-3.jpg",
  "sort": 0,
  "flags": {},
  "system": {
    "description": {
      "value": "<p>These poisonous bombs clear away foliage, dealing extra damage to plant creatures.<br><br>When the alchemist creates a bomb, he can choose to have it deal extra damage against plant creatures but less damage against other creatures. Against creatures with the plant type, a defoliant bomb deals 1d8 points of damage, plus 1d8 points of damage for every odd-numbered level the alchemist possesses, instead of 1d6. Against all other creatures, the defoliant bomb only deals 1d4 points of damage, plus 1d4 points of damage for every odd-numbered level, instead of 1d6. This is a poison effect. A defoliant bomb kills all normal vegetation in the target's square and its splash area; any plant-based difficult terrain in the affected area becomes normal terrain.</p>"
    },
    "tags": [],
    "actions": [],
    "attackNotes": [],
    "effectNotes": [],
    "changes": [],
    "contextNotes": [],
    "links": {
      "children": [],
      "charges": []
    },
    "tag": "classFeat_defoliantBomb",
    "useCustomTag": true,
    "armorProf": {
      "value": []
    },
    "weaponProf": {
      "value": []
    },
    "languages": {
      "value": []
    },
    "scriptCalls": [],
    "subType": "classFeat",
    "associations": {
      "classes": [["Alchemist"]]
    }
  }
}
