{
  "_id": "jqXRcfZYvBL50z0q",
  "name": "Demanding Challenge",
  "type": "feat",
  "img": "systems/pf1/icons/feats/stunning-critical.jpg",
  "sort": 0,
  "flags": {},
  "system": {
    "description": {
      "value": "<p>At 12th level, whenever a cavalier declares a challenge, his target must pay attention to the threat he poses. As long as the target is within the threatened area of the cavalier, it takes a –2 penalty to its AC from attacks made by anyone other than the cavalier.</p>"
    },
    "tags": [],
    "actions": [],
    "attackNotes": [],
    "effectNotes": [],
    "changes": [],
    "contextNotes": [],
    "links": {
      "children": [],
      "charges": []
    },
    "tag": "classFeat_demandingChallenge",
    "useCustomTag": true,
    "armorProf": {
      "value": []
    },
    "weaponProf": {
      "value": []
    },
    "languages": {
      "value": []
    },
    "scriptCalls": [],
    "subType": "classFeat",
    "associations": {
      "classes": [["Cavalier"]]
    },
    "abilityType": "ex"
  }
}
