{
  "_id": "aQ0aWLmgTI3TIGXo",
  "name": "Detect Undead",
  "type": "feat",
  "img": "systems/pf1/icons/skills/affliction_17.jpg",
  "sort": 0,
  "flags": {},
  "system": {
    "description": {
      "value": "<p>At will, a vampire hunter can use @Compendium[pf1.spells.aa0w7tk852iqn3ni]{Detect Undead}, as the spell. A vampire hunter can, as a&nbsp;<em>move action</em>, concentrate on a single item or individual within 60 feet and determine if it is&nbsp;<em>undead</em>, learning the strength of its aura as if he had studied it for 3 rounds. While focusing on one individual or object, the vampire hunter does not @Compendium[pf1.spells.aa0w7tk852iqn3ni]{Detect Undead}&nbsp;in any other object or individual within range.</p>"
    },
    "tags": [],
    "actions": [
      {
        "_id": "y60buvuoqdtfhphw",
        "name": "Use",
        "img": "systems/pf1/icons/skills/affliction_17.jpg",
        "description": "",
        "tag": "",
        "activation": {
          "cost": 1,
          "type": "move"
        },
        "unchainedAction": {
          "activation": {
            "cost": 1,
            "type": ""
          }
        },
        "duration": {
          "value": null,
          "units": ""
        },
        "target": {
          "value": ""
        },
        "range": {
          "value": null,
          "units": "",
          "maxIncrements": 1,
          "minValue": null,
          "minUnits": ""
        },
        "uses": {
          "autoDeductChargesCost": "",
          "self": {
            "value": 0,
            "maxFormula": "",
            "per": null
          },
          "per": "",
          "value": 0,
          "maxFormula": ""
        },
        "measureTemplate": {
          "type": "",
          "size": "0",
          "overrideColor": false,
          "customColor": "",
          "overrideTexture": false,
          "customTexture": ""
        },
        "attackName": "",
        "actionType": "",
        "attackBonus": "",
        "critConfirmBonus": "",
        "damage": {
          "parts": [],
          "critParts": [],
          "nonCritParts": []
        },
        "attackParts": [],
        "formulaicAttacks": {
          "count": {
            "formula": ""
          },
          "bonus": {
            "formula": ""
          },
          "label": null
        },
        "formula": "",
        "ability": {
          "attack": null,
          "damage": null,
          "damageMult": 1,
          "critRange": 20,
          "critMult": 2
        },
        "save": {
          "dc": 0,
          "type": "",
          "description": ""
        },
        "effectNotes": [],
        "attackNotes": [],
        "soundEffect": "",
        "powerAttack": {
          "multiplier": "",
          "damageBonus": 2,
          "critMultiplier": 1
        },
        "naturalAttack": {
          "primaryAttack": true,
          "secondary": {
            "attackBonus": "-5",
            "damageMult": 0.5
          }
        },
        "nonlethal": false,
        "usesAmmo": false,
        "spellEffect": "",
        "spellArea": "",
        "conditionals": [],
        "enh": {
          "value": null
        }
      }
    ],
    "uses": {
      "per": ""
    },
    "attackNotes": [],
    "effectNotes": [],
    "changes": [],
    "contextNotes": [],
    "links": {
      "children": [],
      "charges": []
    },
    "tag": "classFeat_detectUndead",
    "useCustomTag": true,
    "armorProf": {
      "value": []
    },
    "weaponProf": {
      "value": []
    },
    "languages": {
      "value": []
    },
    "scriptCalls": [],
    "subType": "classFeat",
    "associations": {
      "classes": [["Vampire Hunter"]]
    },
    "abilityType": "sp"
  }
}
