{
  "_id": "895121uet38n7iDJ",
  "name": "Disintegrating Infusion",
  "type": "feat",
  "img": "systems/pf1/icons/spells/fire-arrows-jade-2.jpg",
  "sort": 0,
  "flags": {},
  "system": {
    "description": {
      "value": "<p><strong>Element&nbsp;</strong>aether;&nbsp;<strong>Type&nbsp;</strong>substance infusion;&nbsp;<strong>Level&nbsp;</strong>6;&nbsp;<strong>Burn&nbsp;</strong>4<br><strong>Associated Blasts&nbsp;</strong>force<br><strong>Saving Throw&nbsp;</strong>Fortitude partial; see text</p>\n<p>You can use force to rip your targets apart. Against creatures, your kinetic blast deals double its normal amount of damage, but targets receive a saving throw to reduce the damage to half the blast’s normal amount of damage (for a total of 1/4 of the blast’s increased damage). Any creature reduced to 0 or fewer hit points by the blast is disintegrated, as the spell&nbsp;disintegrate.</p>\n<p>You can use the infused blast to destroy force effects or objects as&nbsp;disintegrate, but for each force effect or 10-foot cube of nonliving matter you destroy in this way, you must accept 1 point of burn, which can’t be reduced by effects such as infusion specialization or gather power.</p>"
    },
    "tags": [],
    "actions": [
      {
        "_id": "2hecrtq3schv45va",
        "name": "Use",
        "img": "systems/pf1/icons/spells/fire-arrows-jade-2.jpg",
        "description": "",
        "tag": "",
        "activation": {
          "cost": 1,
          "type": ""
        },
        "unchainedAction": {
          "activation": {
            "cost": 1,
            "type": ""
          }
        },
        "duration": {
          "value": null,
          "units": ""
        },
        "target": {
          "value": ""
        },
        "range": {
          "value": null,
          "units": "",
          "maxIncrements": 1,
          "minValue": null,
          "minUnits": ""
        },
        "uses": {
          "autoDeductChargesCost": "",
          "self": {
            "value": 0,
            "maxFormula": "",
            "per": null
          },
          "per": null,
          "value": 0,
          "maxFormula": ""
        },
        "measureTemplate": {
          "type": "",
          "size": "",
          "overrideColor": false,
          "customColor": "",
          "overrideTexture": false,
          "customTexture": ""
        },
        "attackName": "",
        "actionType": "save",
        "attackBonus": "",
        "critConfirmBonus": "",
        "damage": {
          "parts": [],
          "critParts": [],
          "nonCritParts": []
        },
        "attackParts": [],
        "formulaicAttacks": {
          "count": {
            "formula": ""
          },
          "bonus": {
            "formula": ""
          },
          "label": null
        },
        "formula": "",
        "ability": {
          "attack": null,
          "damage": "",
          "damageMult": 1,
          "critRange": 20,
          "critMult": 2
        },
        "save": {
          "dc": "0",
          "type": "fort",
          "description": "Fortitude partial; see text"
        },
        "effectNotes": [],
        "attackNotes": [],
        "soundEffect": "",
        "powerAttack": {
          "multiplier": "",
          "damageBonus": 2,
          "critMultiplier": 1
        },
        "naturalAttack": {
          "primaryAttack": true,
          "secondary": {
            "attackBonus": "-5",
            "damageMult": 0.5
          }
        },
        "nonlethal": false,
        "usesAmmo": false,
        "spellEffect": "",
        "spellArea": "",
        "conditionals": [],
        "enh": {
          "value": null
        }
      }
    ],
    "attackNotes": [],
    "effectNotes": [],
    "changes": [],
    "contextNotes": [],
    "links": {
      "children": [],
      "charges": []
    },
    "tag": "classFeat_disintegratingInfusion",
    "useCustomTag": true,
    "armorProf": {
      "value": []
    },
    "weaponProf": {
      "value": []
    },
    "languages": {
      "value": []
    },
    "scriptCalls": [],
    "subType": "classFeat",
    "associations": {
      "classes": [["Kineticist"]]
    }
  }
}
