{
  "_id": "VUR9dwJLHieLwbEH",
  "name": "Divine Infusion",
  "type": "feat",
  "img": "systems/pf1/icons/skills/arrow_18.jpg",
  "sort": 0,
  "flags": {},
  "system": {
    "description": {
      "value": "<p>At 3rd level and every 3 levels thereafter, an omdura can select one divine infusion. Each infusion adds an effect to the omdura’s divine touch ability. The types of infusions available to the omdura are determined by the type of energy the omdura delivers with her divine touch. An omdura who delivers positive energy adds a mercy to her divine touch, treating her omdura level as her&nbsp;<em>paladin</em>&nbsp;level and her divine touch as the&nbsp;<em>paladin’s</em>&nbsp;<em>lay on hands</em>&nbsp;ability. An omdura who delivers negative energy adds a cruelty to her divine touch, treating her omdura level as her&nbsp;<em>antipaladin</em>&nbsp;level and her divine&nbsp;<em>touch</em>&nbsp;as the&nbsp;<em>antipaladin’s</em>&nbsp;touch of corruption ability. At 6th, 9th, and 12th level, she adds infusions to the list of those she can select as though she were a&nbsp;<em>paladin</em>&nbsp;or&nbsp;<em>antipaladin</em>&nbsp;(depending on her divine touch ability) of her omdura level. Divine infusion functions as either the cruelty or mercy class ability, depending on the omdura’s divine touch energy, for the purposes of feats, spells, or effects that work with those class features.</p>"
    },
    "tags": [],
    "actions": [
      {
        "_id": "9su4dwklgt8wiplg",
        "name": "Use",
        "img": "systems/pf1/icons/skills/arrow_18.jpg",
        "description": "",
        "tag": "",
        "activation": {
          "cost": 1,
          "type": "passive"
        },
        "unchainedAction": {
          "activation": {
            "cost": 1,
            "type": "passive"
          }
        },
        "duration": {
          "value": null,
          "units": ""
        },
        "target": {
          "value": ""
        },
        "range": {
          "value": null,
          "units": "",
          "maxIncrements": 1,
          "minValue": null,
          "minUnits": ""
        },
        "uses": {
          "autoDeductChargesCost": "",
          "self": {
            "value": 0,
            "maxFormula": "",
            "per": null
          },
          "per": "",
          "value": 0,
          "maxFormula": ""
        },
        "measureTemplate": {
          "type": "",
          "size": "0",
          "overrideColor": false,
          "customColor": "",
          "overrideTexture": false,
          "customTexture": ""
        },
        "attackName": "",
        "actionType": "",
        "attackBonus": "",
        "critConfirmBonus": "",
        "damage": {
          "parts": [],
          "critParts": [],
          "nonCritParts": []
        },
        "attackParts": [],
        "formulaicAttacks": {
          "count": {
            "formula": ""
          },
          "bonus": {
            "formula": ""
          },
          "label": null
        },
        "formula": "",
        "ability": {
          "attack": null,
          "damage": null,
          "damageMult": 1,
          "critRange": 20,
          "critMult": 2
        },
        "save": {
          "dc": 0,
          "type": "",
          "description": ""
        },
        "effectNotes": [],
        "attackNotes": [],
        "soundEffect": "",
        "powerAttack": {
          "multiplier": "",
          "damageBonus": 2,
          "critMultiplier": 1
        },
        "naturalAttack": {
          "primaryAttack": true,
          "secondary": {
            "attackBonus": "-5",
            "damageMult": 0.5
          }
        },
        "nonlethal": false,
        "usesAmmo": false,
        "spellEffect": "",
        "spellArea": "",
        "conditionals": [],
        "enh": {
          "value": null
        }
      }
    ],
    "uses": {
      "per": ""
    },
    "attackNotes": [],
    "effectNotes": [],
    "changes": [],
    "contextNotes": [],
    "links": {
      "children": [],
      "charges": []
    },
    "tag": "classFeat_divineInfusion",
    "useCustomTag": true,
    "armorProf": {
      "value": []
    },
    "weaponProf": {
      "value": []
    },
    "languages": {
      "value": []
    },
    "scriptCalls": [],
    "subType": "classFeat",
    "associations": {
      "classes": [["Omdura"]]
    },
    "abilityType": "su"
  }
}
