{
  "_id": "zIIz4l6KYCUnoZtQ",
  "name": "Drugged",
  "type": "feat",
  "img": "systems/pf1/icons/skills/violet_02.jpg",
  "sort": 0,
  "flags": {},
  "system": {
    "description": {
      "value": "<p>The witch can combine her magic with her poisons to weaken her enemies’ minds. When the witch creates a poison, she can require the target of the poison to attempt a Will save rather than a Fortitude save.</p>\n<p>The witch must use this hex when she crafts the poison, and once used, the hex can’t be undone without remaking the poison.</p>"
    },
    "tags": [],
    "actions": [],
    "attackNotes": [],
    "effectNotes": [],
    "changes": [],
    "contextNotes": [],
    "links": {
      "children": [],
      "charges": []
    },
    "tag": "classFeat_drugged",
    "useCustomTag": true,
    "armorProf": {
      "value": []
    },
    "weaponProf": {
      "value": []
    },
    "languages": {
      "value": []
    },
    "scriptCalls": [],
    "subType": "classFeat",
    "associations": {
      "classes": [["Witch"]]
    },
    "abilityType": "su"
  }
}
