{
  "_id": "IXqYkTnaEgHG2ui3",
  "name": "Earth Domain",
  "type": "feat",
  "img": "systems/pf1/icons/skills/yellow_05.jpg",
  "sort": 0,
  "flags": {},
  "system": {
    "description": {
      "value": "<p><strong>Granted Powers:</strong> You have mastery over earth, metal, and stone, can fire darts of acid, and command earth creatures.</p>\n<p><strong>Domain Spells:</strong></p>\n<ul>\n<li>1st—@Compendium[pf1.spells.fv9mgob508qv99zz]{Magic Stone}</li>\n<li>2nd—@Compendium[pf1.spells.i8yzlekyl29dm3zz]{Soften Earth and Stone}</li>\n<li>3rd—@Compendium[pf1.spells.g1evszmk8wfgnsv5]{Stone Shape}</li>\n<li>4th—@Compendium[pf1.spells.hfyycpn0wdimx1n9]{Spike Stones}</li>\n<li>5th—@Compendium[pf1.spells.l83djt5019ujasjh]{Wall Of Stone}</li>\n<li>6th—@Compendium[pf1.spells.knyako6zopc1chrv]{Stoneskin}</li>\n<li>7th—@Compendium[pf1.spells.v42t5kpxc8mvd615]{Elemental Body IV} (earth only)</li>\n<li>8th—@Compendium[pf1.spells.a5gcbpwfhu4hh5ic]{Earthquake}</li>\n<li>9th—@Compendium[pf1.spells.pfy97qyneoa391ek]{Elemental Swarm} (earth spell only)</li>\n</ul>"
    },
    "tags": [],
    "actions": [],
    "attackNotes": [],
    "effectNotes": [],
    "changes": [],
    "contextNotes": [],
    "links": {
      "children": [],
      "charges": []
    },
    "tag": "classFeat_earthDomain",
    "useCustomTag": true,
    "armorProf": {
      "value": []
    },
    "weaponProf": {
      "value": []
    },
    "languages": {
      "value": []
    },
    "scriptCalls": [],
    "subType": "classFeat",
    "associations": {
      "classes": [["Cleric"]]
    }
  }
}
