{
  "_id": "Ce5bdKql2WZR8AsL",
  "name": "Efreeti Bloodline",
  "type": "feat",
  "img": "systems/pf1/icons/skills/fire_12.jpg",
  "sort": 0,
  "flags": {},
  "system": {
    "description": {
      "value": "<p><em>You were born with the power of fire genies, and the magic of the efreet is strong in you.</em></p>\n<p><strong>Class Skill:</strong>&nbsp;<em>Knowledge</em>&nbsp;(planes).</p>\n<p><strong>Bonus Spells:</strong></p>\n<ul>\n<li>@Compendium[pf1.spells.jnlr9cuepka1l26e]{Enlarge Person}&nbsp;(3rd),</li>\n<li>@Compendium[pf1.spells.q4ixxjb4v281g2xv]{Scorching Ray}&nbsp;(5th),</li>\n<li>@Compendium[pf1.spells.6oq1wcryviik9ice]{Fireball}&nbsp;(7th),</li>\n<li>@Compendium[pf1.spells.92hth51cs9oi0nfe]{Wall Of Fire}&nbsp;(9th),</li>\n<li>@Compendium[pf1.spells.enp0cwf0itsgjxv7]{Persistent Image}&nbsp;(11th),</li>\n<li>@Compendium[pf1.spells.qf4bqjgeff1q4hjt]{Planar Binding}&nbsp;(13th),</li>\n<li>@Compendium[pf1.spells.q3st18udsalnyz5v]{Plane Shift}&nbsp;(15th),</li>\n<li>@Compendium[pf1.spells.y4oyspjsp6cc7btp]{Giant Form II} (17th),</li>\n<li>@Compendium[pf1.spells.nnj51dwfkwd15ngj]{Wish}&nbsp;(19th).</li>\n</ul>\n<p><strong>Bonus Feats:</strong></p>\n<ul>\n<li>@Compendium[pf1.feats.JreaiTHdyWFNj3Tb]{Dodge},</li>\n<li>@Compendium[pf1.feats.77gXSucrxfrE9yWk]{Empower Spell},</li>\n<li>@Compendium[pf1.feats.fVRnBIHR4Jq6btvm]{Great Fortitude},</li>\n<li>@Compendium[pf1.feats.Uuiu3p982omhMEPj]{Improved Initiative},</li>\n<li>@Compendium[pf1.feats.0bZf3SDkvVOe2ujH]{Lightning Reflexes},</li>\n<li>@Compendium[pf1.feats.FUW5mIXHNBBIQ1Sq]{Power Attack},</li>\n<li>@Compendium[pf1.feats.7zJTztNW7hdaqjKc]{Skill Focus} (<em>Knowledge</em>&nbsp;[planes]),</li>\n<li>@Compendium[pf1.feats.vWiTqHC4Y3Xn1Pme]{Weapon Finesse}.</li>\n</ul>\n<p><strong>Bloodline Arcana:</strong> Whenever you cast a spell that deals energy damage, you can change the type of damage to fire. This also changes the spell’s descriptors to match this energy type.</p>"
    },
    "tags": [],
    "actions": [],
    "attackNotes": [],
    "effectNotes": [],
    "changes": [],
    "contextNotes": [],
    "links": {
      "children": [],
      "charges": []
    },
    "tag": "classFeat_efreetiBloodline",
    "useCustomTag": true,
    "armorProf": {
      "value": []
    },
    "weaponProf": {
      "value": []
    },
    "languages": {
      "value": []
    },
    "scriptCalls": [],
    "subType": "classFeat",
    "associations": {
      "classes": [["Sorcerer"]]
    }
  }
}
