{
  "_id": "0y1Rc3leTsI35oo0",
  "name": "Evocation Resonant School",
  "type": "feat",
  "img": "systems/pf1/icons/items/weapons/lantern-staff.png",
  "sort": 0,
  "flags": {},
  "system": {
    "description": {
      "value": "<p><em>Implements focused on evocation grant the ability to create and direct energy to protect and to destroy.</em><br><br><strong>Implements: </strong>Gloves, rod, staff, wand.</p>"
    },
    "tags": [],
    "actions": [],
    "attackNotes": [],
    "effectNotes": [],
    "changes": [],
    "contextNotes": [],
    "links": {
      "children": [],
      "charges": []
    },
    "tag": "classFeat_evocationResonantSchool",
    "useCustomTag": true,
    "armorProf": {
      "value": []
    },
    "weaponProf": {
      "value": []
    },
    "languages": {
      "value": []
    },
    "scriptCalls": [],
    "subType": "classFeat",
    "associations": {
      "classes": [["Occultist"]]
    }
  }
}
