{
  "_id": "djeTXdRxFBlCysCU",
  "name": "Expert Leaper (UC)",
  "type": "feat",
  "img": "systems/pf1/icons/items/weapons/hunga-munga.PNG",
  "sort": 0,
  "flags": {},
  "system": {
    "description": {
      "value": "<p>When using the Acrobatics skill to jump, a rogue with this talent is always considered to have a running start and adds her rogue level to the check result. Whenever she deliberately falls, a successful DC 15 Acrobatics check allows her to ignore the first 20 feet fallen. For every 5 by which she exceeds the DC of this check, she can ignore an additional 10 feet of distance fallen.</p>"
    },
    "tags": [],
    "actions": [],
    "attackNotes": [],
    "effectNotes": [],
    "changes": [],
    "contextNotes": [],
    "links": {
      "children": [],
      "charges": []
    },
    "tag": "classFeat_expertLeaperUc",
    "useCustomTag": true,
    "armorProf": {
      "value": []
    },
    "weaponProf": {
      "value": []
    },
    "languages": {
      "value": []
    },
    "scriptCalls": [],
    "subType": "classFeat",
    "associations": {
      "classes": [["Rogue (Unchained)"]]
    },
    "abilityType": "ex"
  }
}
