{
  "_id": "XMRuzcZXSu0FHYlM",
  "name": "Eye for an Eye",
  "type": "feat",
  "img": "systems/pf1/icons/items/inventory/banner-red.jpg",
  "sort": 0,
  "flags": {},
  "system": {
    "description": {
      "value": "<p>At 8th level, the cavalier gains @Compendium[pf1.feats.JNlMhMhcDO8wkXiw]{Critical Focus}&nbsp;as a bonus feat. The cavalier can grant a&nbsp;<a href=\"https://aonprd.com/Feats.aspx?Category=Critical\">critical feat</a>&nbsp;(in place of a teamwork feat) to her allies using the tactician ability.</p>"
    },
    "tags": [],
    "actions": [],
    "attackNotes": [],
    "effectNotes": [],
    "changes": [],
    "contextNotes": [],
    "links": {
      "children": [],
      "charges": []
    },
    "tag": "classFeat_eyeForAnEye",
    "useCustomTag": true,
    "armorProf": {
      "value": []
    },
    "weaponProf": {
      "value": []
    },
    "languages": {
      "value": []
    },
    "scriptCalls": [],
    "subType": "classFeat",
    "associations": {
      "classes": [["Cavalier"]]
    },
    "abilityType": "ex"
  }
}
