{
  "_id": "ZzIawDSt5YQLMoN1",
  "name": "Gearbreaker",
  "type": "feat",
  "img": "systems/pf1/icons/feats/deafening-critical.jpg",
  "sort": 0,
  "flags": {},
  "system": {
    "description": {
      "value": "<p>Once per round while raging, whenever the barbarian makes an attack against a construct, she can ignore an amount of that construct’s hardness equal to her barbarian level. This ability must be used before the attack roll is made.</p>\n<p>A barbarian must have the smasher rage power before selecting this rage power. This power stacks with&nbsp;<a href=\"https://aonprd.com/ArchetypeDisplay.aspx?FixedName=Barbarian%20Numerian%20Liberator\">hard hitter</a>.</p>"
    },
    "tags": [],
    "actions": [],
    "attackNotes": [],
    "effectNotes": [],
    "changes": [],
    "contextNotes": [],
    "links": {
      "children": [],
      "charges": []
    },
    "tag": "classFeat_gearbreaker",
    "useCustomTag": true,
    "armorProf": {
      "value": []
    },
    "weaponProf": {
      "value": []
    },
    "languages": {
      "value": []
    },
    "scriptCalls": [],
    "subType": "classFeat",
    "associations": {
      "classes": [["Barbarian"], ["Skald"]]
    },
    "abilityType": "ex"
  }
}
