{
  "_id": "Ah0k65fajVE804wu",
  "name": "Grappling Infusion",
  "type": "feat",
  "img": "systems/pf1/icons/spells/runes-blue-1.jpg",
  "sort": 0,
  "flags": {},
  "system": {
    "description": {
      "value": "<p><strong>Element&nbsp;</strong>universal;&nbsp;<strong>Type&nbsp;</strong>substance infusion;&nbsp;<strong>Level&nbsp;</strong>5;&nbsp;<strong>Burn&nbsp;</strong>3<br><strong>Associated Blasts&nbsp;</strong>any<br><strong>Saving Throw&nbsp;</strong>none</p>\n<p>Your cloud, deadly earth, or wall blast grows tendrils that hold your enemies in place. Whenever a creature takes damage from the infused blast, you can attempt a combat maneuver check to have the blast grapple that opponent. Your bonus on this check is equal to 2 + your kineticist level + your Constitution modifier (treat the blast as a Huge creature). The blast only grapples opponents; it can’t perform other functions of grapple maneuvers such as pinning or moving the opponent.</p>\n<p>If the blast is already grappling an opponent, it receives a +5 bonus on its combat maneuver check to maintain the grapple, as normal. You can use this infusion only if you also use the cloud, deadly earth, or wall form infusion.</p>"
    },
    "tags": [],
    "actions": [],
    "attackNotes": [],
    "effectNotes": [],
    "changes": [],
    "contextNotes": [],
    "links": {
      "children": [],
      "charges": []
    },
    "tag": "classFeat_grapplingInfusion",
    "useCustomTag": true,
    "armorProf": {
      "value": []
    },
    "weaponProf": {
      "value": []
    },
    "languages": {
      "value": []
    },
    "scriptCalls": [],
    "subType": "classFeat",
    "associations": {
      "classes": [["Kineticist"]]
    }
  }
}
