{
  "_id": "jp6QQDkRXHJlrlb2",
  "name": "Greater Gloom Magic",
  "type": "feat",
  "img": "systems/pf1/icons/items/weapons/dagger.PNG",
  "sort": 0,
  "flags": {},
  "system": {
    "description": {
      "value": "<p>A rogue with this talent gains the ability to cast&nbsp;deeper darkness&nbsp;once each day as a spell-like ability. The darkness created by this ability does not impair the rogue’s vision. The caster level for this ability is equal to the rogue’s level. A rogue must have an Intelligence score of at least 13 and the gloom magic and minor magic rogue talents before choosing this talent.</p>"
    },
    "tags": [],
    "actions": [],
    "attackNotes": [],
    "effectNotes": [],
    "changes": [],
    "contextNotes": [],
    "links": {
      "children": [],
      "charges": []
    },
    "tag": "classFeat_greaterGloomMagic",
    "useCustomTag": true,
    "armorProf": {
      "value": []
    },
    "weaponProf": {
      "value": []
    },
    "languages": {
      "value": []
    },
    "scriptCalls": [],
    "subType": "classFeat",
    "associations": {
      "classes": [["Rogue"]]
    },
    "abilityType": "sp"
  }
}
