{
  "_id": "22lXokptV5JXN2R9",
  "name": "Greater Divine Might",
  "type": "feat",
  "img": "systems/pf1/icons/skills/blue_27.jpg",
  "sort": 0,
  "flags": {},
  "system": {
    "description": {
      "value": "<p>At 18th level, the omdura uses her full&nbsp;<em>Charisma</em>&nbsp;bonus and full omdura level when using her divine might ability. A neutral omdura uses her full&nbsp;<em>Charisma</em>&nbsp;bonus and her omdura level – 3 when using her divine might ability.</p>"
    },
    "tags": [],
    "actions": [],
    "attackNotes": [],
    "effectNotes": [],
    "changes": [],
    "contextNotes": [],
    "links": {
      "children": [],
      "charges": []
    },
    "tag": "classFeat_greaterDivineMight",
    "useCustomTag": true,
    "armorProf": {
      "value": []
    },
    "weaponProf": {
      "value": []
    },
    "languages": {
      "value": []
    },
    "scriptCalls": [],
    "subType": "classFeat",
    "associations": {
      "classes": [["Omdura"]]
    },
    "abilityType": "ex"
  }
}
