{
  "_id": "lqCm6Fy7JVezprqU",
  "name": "Healing Domain",
  "type": "feat",
  "img": "systems/pf1/icons/spells/light-blue-2.jpg",
  "sort": 0,
  "flags": {},
  "system": {
    "description": {
      "value": "<p><strong>Granted Powers:</strong> Your touch staves off pain and death, and your healing magic is particularly vital and potent.</p>\n<p><strong>Domain Spells:</strong></p>\n<ul>\n<li>1st—@Compendium[pf1.spells.xoc3vhg3btmfjauq]{Cure Light Wounds},</li>\n<li>2nd—@Compendium[pf1.spells.e67esdjp4nojtbr7]{Cure Moderate Wounds},</li>\n<li>3rd—@Compendium[pf1.spells.norn02g8zdsspf2j]{Cure Serious Wounds},</li>\n<li>4th—@Compendium[pf1.spells.sa076xymi52eq3to]{Cure Critical Wounds},</li>\n<li>5th—@Compendium[pf1.spells.qiiis9ekgy3syu7j]{Breath Of Life},</li>\n<li>6th—@Compendium[pf1.spells.4re1j2w8wkvsvnsi]{Heal},</li>\n<li>7th—@Compendium[pf1.spells.3fbrrckyfagfzyop]{Regenerate},</li>\n<li>8th—@Compendium[pf1.spells.6346rs0f4sra9gt4]{Cure Critical Wounds, Mass},</li>\n<li>9th—@Compendium[pf1.spells.klcvk9ct1l7mhjwp]{Heal, Mass}.</li>\n</ul>"
    },
    "tags": [],
    "actions": [],
    "attackNotes": [],
    "effectNotes": [],
    "changes": [],
    "contextNotes": [],
    "links": {
      "children": [],
      "charges": []
    },
    "tag": "classFeat_healingDomain",
    "useCustomTag": true,
    "armorProf": {
      "value": []
    },
    "weaponProf": {
      "value": []
    },
    "languages": {
      "value": []
    },
    "scriptCalls": [],
    "subType": "classFeat",
    "associations": {
      "classes": [["Cleric"]]
    }
  }
}
