{
  "_id": "jYcTjFiFknyggOl6",
  "name": "Hidden Magic",
  "type": "feat",
  "img": "systems/pf1/icons/spells/light-royal-1.jpg",
  "sort": 0,
  "flags": {},
  "system": {
    "description": {
      "value": "<p>You gain the Conceal Spell feat as a bonus feat without needing to meet the prerequisites.</p>\n<p>At 7th level, you can also hide your use of spell trigger items using the Conceal Spell feat, though onlookers receive a +2 bonus on their skill checks to pierce your subterfuge.</p>\n<p>At 11th level, you can even hide the use of spell completion items using the Conceal Spell feat, though in this case, onlookers receive a +5 bonus on their skill checks to pierce your subterfuge.</p>"
    },
    "tags": [],
    "actions": [],
    "attackNotes": [],
    "effectNotes": [],
    "changes": [],
    "contextNotes": [],
    "links": {
      "children": [],
      "charges": []
    },
    "tag": "classFeat_hiddenMagic",
    "useCustomTag": true,
    "armorProf": {
      "value": []
    },
    "weaponProf": {
      "value": []
    },
    "languages": {
      "value": []
    },
    "scriptCalls": [],
    "subType": "classFeat",
    "associations": {
      "classes": [["Oracle"]]
    },
    "abilityType": "su"
  }
}
