{
  "_id": "nE79k9XBL67xrLCT",
  "name": "Hunter Tactics",
  "type": "feat",
  "img": "systems/pf1/icons/skills/beast_01.jpg",
  "sort": 0,
  "flags": {},
  "system": {
    "description": {
      "value": "<p>At 3rd level, the hunter automatically grants her teamwork feats to her animal companion. The companion doesn’t need to meet the prerequisites of these teamwork feats.</p>"
    },
    "tags": [],
    "actions": [],
    "attackNotes": [],
    "effectNotes": [],
    "changes": [],
    "contextNotes": [],
    "links": {
      "children": [],
      "charges": []
    },
    "tag": "classFeat_hunterTactics",
    "useCustomTag": true,
    "armorProf": {
      "value": []
    },
    "weaponProf": {
      "value": []
    },
    "languages": {
      "value": []
    },
    "scriptCalls": [],
    "subType": "classFeat",
    "associations": {
      "classes": [["Hunter"]]
    },
    "abilityType": "ex"
  }
}
