{
  "_id": "h56K6HEBOItImPPL",
  "name": "Inspire Courage",
  "type": "feat",
  "img": "systems/pf1/icons/feats/stunning-fist.jpg",
  "sort": 0,
  "flags": {},
  "system": {
    "description": {
      "value": "<p>A 1st level bard can use his performance to inspire courage in his allies (including himself), bolstering them against fear and improving their combat abilities. To be affected, an ally must be able to perceive the bard’s performance. An affected ally receives a +1&nbsp;<em>morale bonus</em>&nbsp;on saving throws against&nbsp;<em>charm</em>&nbsp;and fear effects and a +1&nbsp;<em>competence bonus</em>&nbsp;on attack and weapon damage rolls. At 5th level, and every six bard levels thereafter, this bonus increases by +1, to a maximum of +4 at 17th level. Inspire courage is a mind-affecting ability. inspire courage can use audible or visual components. The bard must choose which component to use when starting his performance.</p>"
    },
    "tags": [],
    "actions": [],
    "attackNotes": [],
    "effectNotes": [],
    "changes": [],
    "contextNotes": [],
    "links": {
      "children": [],
      "charges": []
    },
    "tag": "classFeat_inspireCourage",
    "useCustomTag": true,
    "armorProf": {
      "value": []
    },
    "weaponProf": {
      "value": []
    },
    "languages": {
      "value": []
    },
    "scriptCalls": [],
    "subType": "classFeat",
    "associations": {
      "classes": [["Bard"]]
    },
    "abilityType": "su"
  }
}
