{
  "_id": "Oe2xo4aHRfKKOAhj",
  "name": "Intuitive Understanding",
  "type": "feat",
  "img": "systems/pf1/icons/items/potions/unique-3.jpg",
  "sort": 0,
  "flags": {},
  "system": {
    "description": {
      "value": "<p>If the alchemist drinks an extract of the divination school while under the effects of a cognatogen (Ultimate Magic&nbsp;15), his effective caster level temporarily increases by 2. In addition, while under the effects of a cognatogen, the alchemist may use&nbsp;augury&nbsp;once as a spell-like ability (caster level equal to his alchemist level). At 10th level, he can use&nbsp;divination&nbsp;instead.</p>\n<p>An alchemist must be at least 4th level and must have the cognatogen discovery before selecting this discovery.</p>"
    },
    "tags": [],
    "actions": [],
    "attackNotes": [],
    "effectNotes": [],
    "changes": [],
    "contextNotes": [],
    "links": {
      "children": [],
      "charges": []
    },
    "tag": "classFeat_intuitiveUnderstanding",
    "useCustomTag": true,
    "armorProf": {
      "value": []
    },
    "weaponProf": {
      "value": []
    },
    "languages": {
      "value": []
    },
    "scriptCalls": [],
    "subType": "classFeat",
    "associations": {
      "classes": [["Alchemist"]]
    },
    "abilityType": "sp"
  }
}
