{
  "_id": "AOnFqb1h3gXbFUup",
  "name": "Investigator Talent",
  "type": "feat",
  "img": "systems/pf1/icons/skills/gray_04.jpg",
  "sort": 0,
  "flags": {},
  "system": {
    "description": {
      "value": "<p>At 3rd level and every 2 levels thereafter, an investigator gains an investigator talent. Except where otherwise noted, each investigator talent can only be selected once.<br><br>Investigator talents marked with an asterisk (*) add effects to an investigator’s studied combat or studied strike. Only one of these talents can be applied to an individual attack, but the decision can be made when the damage is dealt.</p>"
    },
    "tags": [],
    "actions": [],
    "attackNotes": [],
    "effectNotes": [],
    "changes": [],
    "contextNotes": [],
    "links": {
      "children": [],
      "charges": []
    },
    "tag": "classFeat_investigatorTalent",
    "useCustomTag": true,
    "armorProf": {
      "value": []
    },
    "weaponProf": {
      "value": []
    },
    "languages": {
      "value": []
    },
    "scriptCalls": [],
    "subType": "classFeat",
    "associations": {
      "classes": [["Investigator"]]
    }
  }
}
