{
  "_id": "aVMtWqERshuxhmr6",
  "name": "Irresistible Demand",
  "type": "feat",
  "img": "systems/pf1/icons/skills/ice_15.jpg",
  "sort": 0,
  "flags": {},
  "system": {
    "description": {
      "value": "<p>At 8th level, you can force others to do your bidding. As a&nbsp;<em>standard action</em>, you attempt to dominate a creature as though using the @Compendium[pf1.spells.66s5qm8kwycgobce]{Dominate Monster}&nbsp;spell, except that the creature must have a number of&nbsp;<em>Hit Dice</em>&nbsp;equal to or less than your wizard level. The targeted creature receives a&nbsp;<em>Will</em>&nbsp;<em>saving throw</em>&nbsp;each round to negate the effect. The DC is equal to 10 + 1/2 your wizard level + your&nbsp;<em>Intelligence</em>&nbsp;modifier. You can dominate creatures for a number of rounds per day equal to your wizard level. These rounds do not need to be consecutive. You must concentrate as a&nbsp;<em>standard action</em>&nbsp;to maintain control over a dominated creature.</p>"
    },
    "tags": [],
    "actions": [
      {
        "_id": "1sqbjl6m0kfgtbuc",
        "name": "Use",
        "img": "systems/pf1/icons/skills/ice_15.jpg",
        "description": "",
        "tag": "",
        "activation": {
          "cost": 1,
          "type": "standard"
        },
        "unchainedAction": {
          "activation": {
            "cost": 2,
            "type": "action"
          }
        },
        "duration": {
          "value": "1",
          "units": "round"
        },
        "target": {
          "value": ""
        },
        "range": {
          "value": null,
          "units": "",
          "maxIncrements": 1,
          "minValue": null,
          "minUnits": ""
        },
        "uses": {
          "autoDeductChargesCost": "",
          "self": {
            "value": 0,
            "maxFormula": "",
            "per": null
          },
          "per": "day",
          "value": 0,
          "maxFormula": "@classes.wizard.level"
        },
        "measureTemplate": {
          "type": "",
          "size": "0",
          "overrideColor": false,
          "customColor": "",
          "overrideTexture": false,
          "customTexture": ""
        },
        "attackName": "",
        "actionType": "",
        "attackBonus": "",
        "critConfirmBonus": "",
        "damage": {
          "parts": [],
          "critParts": [],
          "nonCritParts": []
        },
        "attackParts": [],
        "formulaicAttacks": {
          "count": {
            "formula": ""
          },
          "bonus": {
            "formula": ""
          },
          "label": null
        },
        "formula": "",
        "ability": {
          "attack": null,
          "damage": null,
          "damageMult": 1,
          "critRange": 20,
          "critMult": 2
        },
        "save": {
          "dc": 0,
          "type": "",
          "description": ""
        },
        "effectNotes": [],
        "attackNotes": [],
        "soundEffect": "",
        "powerAttack": {
          "multiplier": "",
          "damageBonus": 2,
          "critMultiplier": 1
        },
        "naturalAttack": {
          "primaryAttack": true,
          "secondary": {
            "attackBonus": "-5",
            "damageMult": 0.5
          }
        },
        "nonlethal": false,
        "usesAmmo": false,
        "spellEffect": "",
        "spellArea": "",
        "conditionals": [],
        "enh": {
          "value": null
        }
      }
    ],
    "uses": {
      "per": "day",
      "maxFormula": "@classes.wizard.level"
    },
    "attackNotes": [],
    "effectNotes": [],
    "changes": [],
    "contextNotes": [],
    "links": {
      "children": [],
      "charges": []
    },
    "tag": "classFeat_irresistibleDemand",
    "useCustomTag": true,
    "armorProf": {
      "value": []
    },
    "weaponProf": {
      "value": []
    },
    "languages": {
      "value": []
    },
    "scriptCalls": [],
    "subType": "classFeat",
    "associations": {
      "classes": [["Wizard"]]
    },
    "abilityType": "sp"
  }
}
