{
  "_id": "AtIHyWFKhIY5d0rP",
  "name": "Jynx Patron",
  "type": "feat",
  "img": "systems/pf1/icons/feats/improved-familiar.jpg",
  "sort": 0,
  "flags": {},
  "system": {
    "description": {
      "value": "<ul>\n<li>2nd — @Compendium[pf1.spells.wjdhmfdgwrevax3w]{Ill Omen}</li>\n<li>4th — @Compendium[pf1.spells.q63jn0kbrrb6t3ea]{Shatter}</li>\n<li>6th — @Compendium[pf1.spells.lsboosfk26m0ycqv]{Bestow Curse}</li>\n<li>8th — @Compendium[pf1.spells.a73dq2t8pd5n0y1g]{Retribution}</li>\n<li>10th — @Compendium[pf1.spells.3jaumkutti1ytulq]{Mark of Justice}</li>\n<li>12th — @Compendium[pf1.spells.z8xnkfpufuqapseq]{Eyebite}</li>\n<li>14th — @Compendium[pf1.spells.uyn64zazmaydnk7o]{Spell Turning}</li>\n<li>16th — @Compendium[pf1.spells.1mi4y3g4n8adtfl3]{Antipathy}</li>\n<li>18th — @Compendium[pf1.spells.khfprkujokr9uigq]{Energy Drain}</li>\n</ul>"
    },
    "tags": [],
    "actions": [],
    "attackNotes": [],
    "effectNotes": [],
    "changes": [],
    "contextNotes": [],
    "links": {
      "children": [],
      "charges": []
    },
    "tag": "classFeat_jynxPatron",
    "useCustomTag": true,
    "armorProf": {
      "value": []
    },
    "weaponProf": {
      "value": []
    },
    "languages": {
      "value": []
    },
    "scriptCalls": [],
    "subType": "classFeat",
    "associations": {
      "classes": [["Witch"]]
    }
  }
}
