{
  "_id": "9EGisgvR26lfHRbq",
  "name": "Leshy Subdomain",
  "type": "feat",
  "img": "systems/pf1/icons/skills/green_13.jpg",
  "sort": 0,
  "flags": {},
  "system": {
    "description": {
      "value": "<p><strong>Replacement Domain Spells:</strong></p>\n<ul>\n<li>1st—@Compendium[pf1.spells.6ho3wsspkqkhypt0]{Tree Shape}</li>\n<li>5th—@Compendium[pf1.spells.icjrw9y6pa1uatlz]{Commune with Nature}</li>\n</ul>"
    },
    "tags": [],
    "actions": [],
    "attackNotes": [],
    "effectNotes": [],
    "changes": [],
    "contextNotes": [],
    "links": {
      "children": [],
      "charges": []
    },
    "tag": "classFeat_leshySubdomain",
    "useCustomTag": true,
    "armorProf": {
      "value": []
    },
    "weaponProf": {
      "value": []
    },
    "languages": {
      "value": []
    },
    "scriptCalls": [],
    "subType": "classFeat",
    "associations": {
      "classes": [["Cleric"]]
    }
  }
}
