{
  "_id": "qMMwDowcWY53xYjz",
  "name": "Liberation Subdomain",
  "type": "feat",
  "img": "systems/pf1/icons/skills/blue_13.jpg",
  "sort": 0,
  "flags": {},
  "system": {
    "description": {
      "value": "<p><strong>Replacement Domain Spells:</strong></p>\n<ul>\n<li>1st—@Compendium[pf1.spells.yk5bgi6j9kbtigof]{Sanctuary}</li>\n<li>5th—@Compendium[pf1.spells.q3st18udsalnyz5v]{Plane Shift}</li>\n</ul>"
    },
    "tags": [],
    "actions": [],
    "attackNotes": [],
    "effectNotes": [],
    "changes": [],
    "contextNotes": [],
    "links": {
      "children": [],
      "charges": []
    },
    "tag": "classFeat_liberationSubdomain",
    "useCustomTag": true,
    "armorProf": {
      "value": []
    },
    "weaponProf": {
      "value": []
    },
    "languages": {
      "value": []
    },
    "scriptCalls": [],
    "subType": "classFeat",
    "associations": {
      "classes": [["Cleric"]]
    }
  }
}
