{
  "_id": "sOwXPOtI5IlEBKwr",
  "name": "Martial Flexibility",
  "type": "feat",
  "img": "systems/pf1/icons/skills/yellow_27.jpg",
  "sort": 0,
  "flags": {},
  "system": {
    "description": {
      "value": "<p>A brawler can take a move action to gain the benefit of a combat feat she doesn’t possess. This effect lasts for 1 minute. The brawler must meet all the feat’s prerequisites. She may use this ability a number of times per day equal to 3 + 1/2 her brawler level (minimum 1).<br><br>The brawler can use this ability again before the duration expires in order to replace the previous combat feat with another choice.<br><br>If a combat feat has a daily use limitation (such as @Compendium[pf1.feats.GsjouI6B8X7BA5wN]{Stunning Fist}), any uses of that combat feat while using this ability count toward that feat’s daily limit. At 6th level, a brawler can use this ability to gain the benefit of two combat feats at the same time. She may select one feat as a swift action or two feats as a move action. She may use one of these feats to meet a prerequisite of the second feat; doing so means that she cannot replace a feat currently fulfilling another’s prerequisite without also replacing those feats that require it. Each individual feat selected counts toward her daily uses of this ability.<br><br>At 10th level, a brawler can use this ability to gain the benefit of three combat feats at the same time. She may select one feat as a free action, two feats as a swift action, or three feats as a move action. She may use one of the feats to meet a prerequisite of the second and third feats, and use the second feat to meet a prerequisite of the third feat. Each individual feat selected counts toward her daily uses of this ability.<br><br>At 12th level, a brawler can use this ability to gain the benefit of one combat feat as an immediate action or three combat feats as a swift action. Each individual feat selected counts toward her daily uses of this ability.<br><br>At 20th level, a brawler can use this ability to gain the benefit of any number of combat feats as a swift action. Each feat selected counts toward her daily uses of this ability.</p>"
    },
    "tags": [],
    "actions": [
      {
        "_id": "nh3affxtt0joew0s",
        "name": "Use",
        "img": "systems/pf1/icons/skills/yellow_27.jpg",
        "description": "",
        "tag": "",
        "activation": {
          "cost": 1,
          "type": "special"
        },
        "unchainedAction": {
          "activation": {
            "cost": 1,
            "type": "special"
          }
        },
        "duration": {
          "value": null,
          "units": ""
        },
        "target": {
          "value": ""
        },
        "range": {
          "value": null,
          "units": "",
          "maxIncrements": 1,
          "minValue": null,
          "minUnits": ""
        },
        "uses": {
          "autoDeductChargesCost": "",
          "self": {
            "value": 0,
            "maxFormula": "",
            "per": null
          },
          "per": "day",
          "value": 0,
          "maxFormula": "3 + floor(@classes.brawler.level / 2)"
        },
        "measureTemplate": {
          "type": "",
          "size": "",
          "overrideColor": false,
          "customColor": "",
          "overrideTexture": false,
          "customTexture": ""
        },
        "attackName": "",
        "actionType": "",
        "attackBonus": "",
        "critConfirmBonus": "",
        "damage": {
          "parts": [],
          "critParts": [],
          "nonCritParts": []
        },
        "attackParts": [],
        "formulaicAttacks": {
          "count": {
            "formula": ""
          },
          "bonus": {
            "formula": ""
          },
          "label": null
        },
        "formula": "",
        "ability": {
          "attack": null,
          "damage": null,
          "damageMult": 1,
          "critRange": 20,
          "critMult": 2
        },
        "save": {
          "dc": 0,
          "type": "",
          "description": ""
        },
        "effectNotes": [],
        "attackNotes": [],
        "soundEffect": "",
        "powerAttack": {
          "multiplier": "",
          "damageBonus": 2,
          "critMultiplier": 1
        },
        "naturalAttack": {
          "primaryAttack": true,
          "secondary": {
            "attackBonus": "-5",
            "damageMult": 0.5
          }
        },
        "nonlethal": false,
        "usesAmmo": false,
        "spellEffect": "",
        "spellArea": "",
        "conditionals": [],
        "enh": {
          "value": null
        }
      }
    ],
    "uses": {
      "per": "day",
      "maxFormula": "3 + floor(@classes.brawler.level / 2)"
    },
    "attackNotes": [],
    "effectNotes": [],
    "changes": [],
    "contextNotes": [],
    "links": {
      "children": [],
      "charges": []
    },
    "tag": "classFeat_martialFlexibility",
    "useCustomTag": true,
    "armorProf": {
      "value": []
    },
    "weaponProf": {
      "value": []
    },
    "languages": {
      "value": []
    },
    "scriptCalls": [],
    "subType": "classFeat",
    "associations": {
      "classes": [["Brawler"]]
    },
    "abilityType": "ex"
  }
}
