{
  "_id": "mvyIXBt01WtR0lM1",
  "name": "Master Tactician",
  "type": "feat",
  "img": "systems/pf1/icons/items/inventory/map-xmark.jpg",
  "sort": 0,
  "flags": {},
  "system": {
    "description": {
      "value": "<p>At 17th level, the cavalier receives an additional&nbsp;<em>teamwork feat</em>&nbsp;as a bonus feat. He must meet the prerequisites for this feat. The cavalier can grant this feat to his allies using the tactician ability. Whenever the cavalier uses the tactician ability, he grants any two teamwork feats that he knows. He can select from any of his teamwork feats, not just his bonus feats.</p>"
    },
    "tags": [],
    "actions": [],
    "attackNotes": [],
    "effectNotes": [],
    "changes": [],
    "contextNotes": [],
    "links": {
      "children": [],
      "charges": []
    },
    "tag": "classFeat_masterTactician",
    "useCustomTag": true,
    "armorProf": {
      "value": []
    },
    "weaponProf": {
      "value": []
    },
    "languages": {
      "value": []
    },
    "scriptCalls": [],
    "subType": "classFeat",
    "associations": {
      "classes": [["Cavalier"]]
    },
    "abilityType": "ex"
  }
}
