{
  "_id": "btjzccR1YDUNW1td",
  "name": "Moon Subdomain",
  "type": "feat",
  "img": "systems/pf1/icons/skills/gray_07.jpg",
  "sort": 0,
  "flags": {},
  "system": {
    "description": {
      "value": "<p><strong>Replacement Domain Spells:</strong></p>\n<ul>\n<li>1st—@Compendium[pf1.spells.bl71og1gklwncmt7]{Faerie Fire}</li>\n<li>4th—@Compendium[pf1.spells.2mh7g81k30bv7b5m]{Moonstruck}</li>\n<li>6th—@Compendium[pf1.spells.ifcnx1yyw6e7ousm]{Dream}</li>\n</ul>"
    },
    "tags": [],
    "actions": [],
    "attackNotes": [],
    "effectNotes": [],
    "changes": [],
    "contextNotes": [],
    "links": {
      "children": [],
      "charges": []
    },
    "tag": "classFeat_moonSubdomain",
    "useCustomTag": true,
    "armorProf": {
      "value": []
    },
    "weaponProf": {
      "value": []
    },
    "languages": {
      "value": []
    },
    "scriptCalls": [],
    "subType": "classFeat",
    "associations": {
      "classes": [["Cleric"]]
    }
  }
}
