{
  "_id": "MAX14onx1EqjCj0a",
  "name": "Oneiromancy",
  "type": "feat",
  "img": "systems/pf1/icons/spells/slice-spirit-3.jpg",
  "sort": 0,
  "flags": {},
  "system": {
    "description": {
      "value": "<p>As a standard action, you can tamper with the minds of sleeping creatures. You plant a subconscious thought in a sleeping creature’s mind by attempting a Diplomacy or Intimidate check to modify the sleeping creature’s attitude or request a service from it. If you succeed, when the creature wakes it behaves in the way you dictated with the normal restrictions for the Diplomacy or Intimidate skill.</p>\n<p>The target of oneiromancy remains unaware of this manipulation, though if you fail your Diplomacy check the subject might have its starting attitude toward you negatively impacted, as normal. You must be adjacent to the sleeping creature to use this ability.</p>\n<p>Alternatively, you can use this ability as part of the casting of @Compendium[pf1.spells.ifcnx1yyw6e7ousm]{Dream}, @Compendium[pf1.spells.sbjna6uk79pysjv6]{Minor Dream}, or @Compendium[pf1.spells.siv3ub7hbmcklf8c]{Nightmare}. In this case, the oneiromancy effect takes place when the spell is cast.</p>\n<p>You can use this ability a number of times per day equal to 3 + your Charisma modifier. Creatures that don’t dream are immune to this effect.</p>"
    },
    "tags": [],
    "actions": [
      {
        "_id": "tr41d6vuh0er1s52",
        "name": "Use",
        "img": "systems/pf1/icons/spells/slice-spirit-3.jpg",
        "description": "",
        "tag": "",
        "activation": {
          "cost": 1,
          "type": "standard"
        },
        "unchainedAction": {
          "activation": {
            "cost": 2,
            "type": "action"
          }
        },
        "duration": {
          "value": null,
          "units": "inst"
        },
        "target": {
          "value": "sleeping creature"
        },
        "range": {
          "value": null,
          "units": "",
          "maxIncrements": 1,
          "minValue": null,
          "minUnits": ""
        },
        "uses": {
          "autoDeductChargesCost": "",
          "self": {
            "value": 0,
            "maxFormula": "",
            "per": null
          },
          "per": "day",
          "value": 0,
          "maxFormula": "3 + @abilities.cha.mod"
        },
        "measureTemplate": {
          "type": "",
          "size": "",
          "overrideColor": false,
          "customColor": "",
          "overrideTexture": false,
          "customTexture": ""
        },
        "attackName": "",
        "actionType": "",
        "attackBonus": "",
        "critConfirmBonus": "",
        "damage": {
          "parts": [],
          "critParts": [],
          "nonCritParts": []
        },
        "attackParts": [],
        "formulaicAttacks": {
          "count": {
            "formula": ""
          },
          "bonus": {
            "formula": ""
          },
          "label": null
        },
        "formula": "",
        "ability": {
          "attack": null,
          "damage": null,
          "damageMult": 1,
          "critRange": 20,
          "critMult": 2
        },
        "save": {
          "dc": 0,
          "type": "",
          "description": ""
        },
        "effectNotes": [],
        "attackNotes": [],
        "soundEffect": "",
        "powerAttack": {
          "multiplier": "",
          "damageBonus": 2,
          "critMultiplier": 1
        },
        "naturalAttack": {
          "primaryAttack": true,
          "secondary": {
            "attackBonus": "-5",
            "damageMult": 0.5
          }
        },
        "nonlethal": false,
        "usesAmmo": false,
        "spellEffect": "",
        "spellArea": "",
        "conditionals": [],
        "enh": {
          "value": null
        }
      }
    ],
    "uses": {
      "per": "day",
      "maxFormula": "3 + @abilities.cha.mod"
    },
    "attackNotes": [],
    "effectNotes": [],
    "changes": [],
    "contextNotes": [],
    "links": {
      "children": [],
      "charges": []
    },
    "tag": "classFeat_oneiromancy",
    "useCustomTag": true,
    "armorProf": {
      "value": []
    },
    "weaponProf": {
      "value": []
    },
    "languages": {
      "value": []
    },
    "scriptCalls": [],
    "subType": "classFeat",
    "associations": {
      "classes": [["Psychic"]]
    },
    "abilityType": "su"
  }
}
