{
  "_id": "dXKjXbc2rxljS1DS",
  "name": "Peace Patron",
  "type": "feat",
  "img": "systems/pf1/icons/feats/improved-familiar.jpg",
  "sort": 0,
  "flags": {},
  "system": {
    "description": {
      "value": "<ul>\n<li>2nd — @Compendium[pf1.spells.yk5bgi6j9kbtigof]{Sanctuary}</li>\n<li>4th — @Compendium[pf1.spells.6orhthk4g27rncuu]{Calm Emotions}</li>\n<li>6th — @Compendium[pf1.spells.xhd6734dulevnwef]{Wind Wall}</li>\n<li>8th — @Compendium[pf1.spells.k3zn13pbr5tr9zac]{Dismissal}</li>\n<li>10th — @Compendium[pf1.spells.z8hhy7qitegvb7a4]{Serenity}</li>\n<li>12th — @Compendium[pf1.spells.r37k9siiazcdqkc7]{Word of Recall}</li>\n<li>14th — @Compendium[pf1.spells.5h7qpvgnqof7oku7]{Forcecage}</li>\n<li>16th — @Compendium[pf1.spells.xlzqpkl8fpm3sn4u]{Euphoric Tranquility}</li>\n<li>18th — @Compendium[pf1.spells.1mi4y3g4n8adtfl3]{Antipathy}</li>\n</ul>"
    },
    "tags": [],
    "actions": [],
    "attackNotes": [],
    "effectNotes": [],
    "changes": [],
    "contextNotes": [],
    "links": {
      "children": [],
      "charges": []
    },
    "tag": "classFeat_peacePatron",
    "useCustomTag": true,
    "armorProf": {
      "value": []
    },
    "weaponProf": {
      "value": []
    },
    "languages": {
      "value": []
    },
    "scriptCalls": [],
    "subType": "classFeat",
    "associations": {
      "classes": [["Witch"]]
    }
  }
}
