{
  "_id": "NYCJPKxtOT6baDxb",
  "name": "Plague Bomb",
  "type": "feat",
  "img": "systems/pf1/icons/items/potions/unique-3.jpg",
  "sort": 0,
  "flags": {},
  "system": {
    "description": {
      "value": "<p>The effects of the smoke created by an alchemist’s bomb duplicates the effects of @Compendium[pf1.spells.ppeb97nxg1rmdpme]{Contagion}&nbsp;instead of @Compendium[pf1.spells.g33euis7yi9pwddy]{Fog Cloud}, filling an area equal to twice the bomb’s splash area for 1 round per level. An alchemist must be at least 8th level and must have the smoke bomb discovery before selecting this discovery.</p>"
    },
    "tags": [],
    "actions": [],
    "attackNotes": [],
    "effectNotes": [],
    "changes": [],
    "contextNotes": [],
    "links": {
      "children": [],
      "charges": []
    },
    "tag": "classFeat_plagueBomb",
    "useCustomTag": true,
    "armorProf": {
      "value": []
    },
    "weaponProf": {
      "value": []
    },
    "languages": {
      "value": []
    },
    "scriptCalls": [],
    "subType": "classFeat",
    "associations": {
      "classes": [["Alchemist"]]
    },
    "abilityType": "su"
  }
}
