{
  "_id": "C7UgLJt7yRHnAqyG",
  "name": "Poison Lore",
  "type": "feat",
  "img": "systems/pf1/icons/items/potions/minor-green.jpg",
  "sort": 0,
  "flags": {},
  "system": {
    "description": {
      "value": "<p>An investigator has a deep understanding and appreciation for poisons. At 2nd level, he cannot accidentally&nbsp;<em>poison</em>&nbsp;himself when applying&nbsp;<em>poison</em>&nbsp;to a weapon. If the investigator spends 1 minute physically examining the&nbsp;<em>poison</em>, he can attempt a&nbsp;<em>Knowledge</em>&nbsp;(nature) check to identify any natural&nbsp;<em>poison</em>&nbsp;or&nbsp;<em>Knowledge</em>&nbsp;(arcana) check to identify any magical&nbsp;<em>poison</em>&nbsp;(DC = the&nbsp;<em>poison’s</em>&nbsp;saving throw DC). Lastly, once a&nbsp;<em>poison</em>&nbsp;is identified, he can spend 1 minute and attempt a&nbsp;<em>Craft</em>&nbsp;(alchemy) check (DC = the&nbsp;<em>poison’s</em>&nbsp;saving throw DC) to neutralize 1 dose of the&nbsp;<em>poison</em>. Success renders the dose harmless. The investigator has no chance of accidentally poisoning himself when examining or attempting to neutralize a&nbsp;<em>poison</em>.</p>"
    },
    "tags": [],
    "actions": [],
    "attackNotes": [],
    "effectNotes": [],
    "changes": [],
    "contextNotes": [],
    "links": {
      "children": [],
      "charges": []
    },
    "tag": "classFeat_poisonLore",
    "useCustomTag": true,
    "armorProf": {
      "value": []
    },
    "weaponProf": {
      "value": []
    },
    "languages": {
      "value": []
    },
    "scriptCalls": [],
    "subType": "classFeat",
    "associations": {
      "classes": [["Investigator"]]
    },
    "abilityType": "ex"
  }
}
