{
  "_id": "JJqoLGcu8c5thD6D",
  "name": "Primal Speaker",
  "type": "feat",
  "img": "systems/pf1/icons/skills/green_03.jpg",
  "sort": 0,
  "flags": {},
  "system": {
    "description": {
      "value": "<p>The shaman can speak with mammoths and any other megafauna or elephant creatures as if she were under the effects of&nbsp;speak with animals.</p>\n<p>At 5th level, the shaman gains a bonus on Handle Animal checks when dealing with those animals equal to half her shaman level.</p>\n<p>At 10th level, the shaman can affect one such animal within 30 feet as if she’d cast&nbsp;charm animal&nbsp;(Will negates).</p>\n<p>Whether or not the target succeeds at the saving throw, it can’t be the target of this hex again for 24 hours.</p>"
    },
    "tags": [],
    "actions": [],
    "attackNotes": [],
    "effectNotes": [],
    "changes": [],
    "contextNotes": [],
    "links": {
      "children": [],
      "charges": []
    },
    "tag": "classFeat_primalSpeaker",
    "useCustomTag": true,
    "armorProf": {
      "value": []
    },
    "weaponProf": {
      "value": []
    },
    "languages": {
      "value": []
    },
    "scriptCalls": [],
    "subType": "classFeat",
    "associations": {
      "classes": [["Shaman"]]
    },
    "abilityType": "ex"
  }
}
