{
  "_id": "nO0zMK4hEqV4QHwz",
  "name": "Protection Domain",
  "type": "feat",
  "img": "systems/pf1/icons/skills/blue_18.jpg",
  "sort": 0,
  "flags": {},
  "system": {
    "description": {
      "value": "<p><strong>Granted Powers:</strong> Your faith is your greatest source of protection, and you can use that faith to defend others. In addition, you receive a +1 resistance bonus on saving throws. This bonus increases by 1 for every 5 levels you possess.</p>\n<p><strong>Domain Spells: </strong></p>\n<ul>\n<li>1st—@Compendium[pf1.spells.yk5bgi6j9kbtigof]{Sanctuary}</li>\n<li>2nd—@Compendium[pf1.spells.menqakfoa1ftvi3f]{Shield Other}</li>\n<li>3rd—@Compendium[pf1.spells.1vh2ewwvzvxunoxk]{Protection from Energy}</li>\n<li>4th—@Compendium[pf1.spells.ui70binwqvjsgaam]{Spell Immunity}</li>\n<li>5th—@Compendium[pf1.spells.4k9bh8ny1il2oner]{Spell Resistance}</li>\n<li>6th—@Compendium[pf1.spells.niqxt53lhxrjfaty]{Antimagic Field}</li>\n<li>7th—@Compendium[pf1.spells.5w1zrztwbvd6xkgj]{Repulsion}</li>\n<li>8th—@Compendium[pf1.spells.blvetbc929cfx4m8]{Mind Blank}</li>\n<li>9th—@Compendium[pf1.spells.lxxliyxfw9uvbxmt]{Prismatic Sphere}</li>\n</ul>"
    },
    "tags": [],
    "actions": [],
    "attackNotes": [],
    "effectNotes": [],
    "changes": [],
    "contextNotes": [],
    "links": {
      "children": [],
      "charges": []
    },
    "tag": "classFeat_protectionDomain",
    "useCustomTag": true,
    "armorProf": {
      "value": []
    },
    "weaponProf": {
      "value": []
    },
    "languages": {
      "value": []
    },
    "scriptCalls": [],
    "subType": "classFeat",
    "associations": {
      "classes": [["Cleric"]]
    }
  }
}
