{
  "_id": "JtCZXN41TLQG48bo",
  "name": "Rage Powers (UC)",
  "type": "feat",
  "img": "systems/pf1/icons/feats/intimidating-prowess.jpg",
  "sort": 0,
  "flags": {},
  "system": {
    "description": {
      "value": "<p>As a barbarian gains levels, she learns to use her rage in new ways. At 2nd level and every 2 levels thereafter, the barbarian gains a rage power. A barbarian gains the benefits of rage powers only while raging. Some of these powers are always active during a rage, and others require the barbarian to take an action to use them. Unless otherwise noted, a barbarian cannot select an individual power more than once.<br><br>Some of the following rage powers are stances. Activating a stance rage power is a move action. A barbarian can’t have more than one stance rage power active at a time. If she activates a stance rage power while another one is active, the current stance immediately ends. The stance can be intentionally ended at the beginning of the barbarian’s turn as a free action; otherwise, it lasts until the rage ends.</p>"
    },
    "tags": [],
    "actions": [],
    "attackNotes": [],
    "effectNotes": [],
    "changes": [],
    "contextNotes": [],
    "links": {
      "children": [],
      "charges": []
    },
    "tag": "classFeat_ragePowersUc",
    "useCustomTag": true,
    "armorProf": {
      "value": []
    },
    "weaponProf": {
      "value": []
    },
    "languages": {
      "value": []
    },
    "scriptCalls": [],
    "subType": "classFeat",
    "associations": {
      "classes": [["Barbarian (Unchained)"]]
    },
    "abilityType": "ex"
  }
}
