{
  "_id": "64m65Z8ayGAHNDLT",
  "name": "Remade Self",
  "type": "feat",
  "img": "systems/pf1/icons/skills/blue_35.jpg",
  "sort": 0,
  "flags": {},
  "system": {
    "description": {
      "value": "<p>At 20th level, the psychic is affected by one of the following spells as a constant spell-like ability:&nbsp;</p>\n<ul>\n<li>@Compendium[pf1.spells.2dc7e9wby8qpi6m0]{Arcane Sight}</li>\n<li>@Compendium[pf1.spells.7d6sv5ecvi7kho3m]{Fly}</li>\n<li>@Compendium[pf1.spells.s9amdo5398alb5p0]{Haste}</li>\n<li>@Compendium[pf1.spells.vqfrp8t0c1lw1jna]{Heroism}</li>\n<li>@Compendium[pf1.spells.awia42zci8nufpfl]{Nondetection}</li>\n<li>@Compendium[pf1.spells.m1rmcpcaixcpz9ib]{Tongues}</li>\n</ul>\n<p>This ability is chosen when the psychic reaches 20th level and can’t be changed.</p>\n<p>While the psychic is under the effects of this spell-like ability, each time she casts a psychic spell, she can link one phrenic amplification or major amplification she knows that has a point cost of 1 to that spell without spending any points from her phrenic pool. This amplification is in addition to the normal maximum of one amplification per spell.</p>"
    },
    "tags": [],
    "actions": [],
    "attackNotes": [],
    "effectNotes": [],
    "changes": [],
    "contextNotes": [],
    "links": {
      "children": [],
      "charges": []
    },
    "tag": "classFeat_remadeSelf",
    "useCustomTag": true,
    "armorProf": {
      "value": []
    },
    "weaponProf": {
      "value": []
    },
    "languages": {
      "value": []
    },
    "scriptCalls": [],
    "subType": "classFeat",
    "associations": {
      "classes": [["Psychic"]]
    },
    "abilityType": "sp"
  }
}
