{
  "_id": "HQgbqhlaaG9LFJFS",
  "name": "Ride the Blast",
  "type": "feat",
  "img": "systems/pf1/icons/spells/runes-blue-1.jpg",
  "sort": 0,
  "flags": {},
  "system": {
    "description": {
      "value": "<p><strong>Element&nbsp;</strong>universal;&nbsp;<strong>Type&nbsp;</strong>utility (Sp);&nbsp;<strong>Level&nbsp;</strong>6;&nbsp;<strong>Burn&nbsp;</strong>0</p>\n<p>You can use this wild talent as part of activating a kinetic blast other than telekinetic blast. You transform yourself into your element or energy and send yourself along with your kinetic blast. You appear at the end of the blast’s path, adjacent to the blast’s target (or final target, for form infusions like chain) or at the center of the burst or spread for form infusions like explosion.</p>\n<p>This ability doesn’t work with form infusions that involve melee attacks (such as kinetic blade) or that use a cone shape (such as spray).</p>"
    },
    "tags": [],
    "actions": [],
    "attackNotes": [],
    "effectNotes": [],
    "changes": [],
    "contextNotes": [],
    "links": {
      "children": [],
      "charges": []
    },
    "tag": "classFeat_rideTheBlast",
    "useCustomTag": true,
    "armorProf": {
      "value": []
    },
    "weaponProf": {
      "value": []
    },
    "languages": {
      "value": []
    },
    "scriptCalls": [],
    "subType": "classFeat",
    "associations": {
      "classes": [["Kineticist"]]
    },
    "abilityType": "sp"
  }
}
