{
  "_id": "BpWKqeBybsuPbO05",
  "name": "Shadow Blend",
  "type": "feat",
  "img": "systems/pf1/icons/skills/violet_26.jpg",
  "sort": 0,
  "flags": {},
  "system": {
    "description": {
      "value": "<p>The mesmerist can trigger this trick whenever the subject attempts a Stealth check while in an area of dim or darker light. The subject gains total concealment from all enemies (50% miss chance) as long as it remains within areas of dim or darker light. Against creatures with darkvision, the subject gains concealment (20% miss chance) rather than total concealment.</p>\n<p>Once triggered, this effect lasts for 1 round per mesmerist level or until the subject enters an area of normal or brighter light.</p>"
    },
    "tags": [],
    "actions": [],
    "attackNotes": [],
    "effectNotes": [],
    "changes": [],
    "contextNotes": [],
    "links": {
      "children": [],
      "charges": []
    },
    "tag": "classFeat_shadowBlend",
    "useCustomTag": true,
    "armorProf": {
      "value": []
    },
    "weaponProf": {
      "value": []
    },
    "languages": {
      "value": []
    },
    "scriptCalls": [],
    "subType": "classFeat",
    "associations": {
      "classes": [["Mesmerist"]]
    }
  }
}
