{
  "_id": "cEAIwzTP9f9m8TxW",
  "name": "Shapechanger Bloodline",
  "type": "feat",
  "img": "systems/pf1/icons/skills/blue_34.jpg",
  "sort": 0,
  "flags": {},
  "system": {
    "description": {
      "value": "<p><em>Channeling the power of your shapeshifting ancestors that you carry in your blood, you gain powers that allow you to change your shape and alter your appearance and physical abilities.</em></p>\n<p><strong>Class Skill:</strong>&nbsp;<em>Disguise</em>.</p>\n<p><strong>Bonus Spells:</strong></p>\n<ul>\n<li>@Compendium[pf1.spells.oj36nfak6jc2s5ky]{Disguise Self}&nbsp;(3rd),</li>\n<li>@Compendium[pf1.spells.kouqz0pm1xl8xilm]{Alter Self}&nbsp;(5th),</li>\n<li>@Compendium[pf1.spells.7d6sv5ecvi7kho3m]{Fly}&nbsp;(7th),</li>\n<li>@Compendium[pf1.spells.774kmgcb7ygviht0]{Beast Shape II}&nbsp;(9th),</li>\n<li>@Compendium[pf1.spells.d40ia71c2eljm91k]{Polymorph}&nbsp;(11th),</li>\n<li>@Compendium[pf1.spells.9pbl3ktd5oqejl19]{Transformation}&nbsp;(13th),</li>\n<li>@Compendium[pf1.spells.t44p3oeq43jwcgwg]{Polymorph, Greater}&nbsp;(15th),</li>\n<li>@Compendium[pf1.spells.ukacuu0cvdjkqxwu]{Frightful Aspect}&nbsp;(17th),</li>\n<li>@Compendium[pf1.spells.n3lp01euzcdmtbw5]{Shapechange}&nbsp;(19th).</li>\n</ul>\n<p><strong>Bonus Feats:</strong></p>\n<ul>\n<li>@Compendium[pf1.feats.u7rGDZUL296QIuA0]{Combat Casting},</li>\n<li>@Compendium[pf1.feats.JreaiTHdyWFNj3Tb]{Dodge},</li>\n<li>@Compendium[pf1.feats.btXWioB3SKJv8YEG]{Extend Spell},</li>\n<li>@Compendium[pf1.feats.fVRnBIHR4Jq6btvm]{Great Fortitude},</li>\n<li>@Compendium[pf1.feats.Uuiu3p982omhMEPj]{Improved Initiative},</li>\n<li>@Compendium[pf1.feats.0bZf3SDkvVOe2ujH]{Lightning Reflexes},</li>\n<li>@Compendium[pf1.feats.7zJTztNW7hdaqjKc]{Skill Focus}&nbsp;(<em>Disguise</em>),</li>\n<li>@Compendium[pf1.feats.8snLqsJN4LLL00Nq]{Toughness}.</li>\n</ul>\n<p><strong>Bloodline Arcana:</strong> You are very skilled with magic that transforms you. Transmutation spells you cast only on yourself affect you as though your&nbsp;<em>caster level</em>&nbsp;were 1 higher.</p>"
    },
    "tags": [],
    "actions": [],
    "attackNotes": [],
    "effectNotes": [],
    "changes": [],
    "contextNotes": [],
    "links": {
      "children": [],
      "charges": []
    },
    "tag": "classFeat_shapechangerBloodline",
    "useCustomTag": true,
    "armorProf": {
      "value": []
    },
    "weaponProf": {
      "value": []
    },
    "languages": {
      "value": []
    },
    "scriptCalls": [],
    "subType": "classFeat",
    "associations": {
      "classes": [["Sorcerer"]]
    }
  }
}
