{
  "_id": "HBdCx5T2fni9jcM7",
  "name": "Spellscar",
  "type": "feat",
  "img": "systems/pf1/icons/spells/light-magenta-2.jpg",
  "sort": 0,
  "flags": {},
  "system": {
    "description": {
      "value": "<p><strong>Class Skills:</strong> An oracle with the spellscar mystery adds Knowledge (arcana), Knowledge (nature), Survival, and Use Magic Device to her list of class skills.<br><br><strong>Bonus Spells:</strong>&nbsp;</p>\n<ul>\n<li>@Compendium[pf1.spells.mczdgwo3xl8c6e26]{Ray Of Enfeeblement} (2nd),&nbsp;</li>\n<li>@Compendium[pf1.spells.x5hunybxpzhd3gcm]{Obscure Object} (4th),&nbsp;</li>\n<li>@Compendium[pf1.spells.gmgwyjfpeuuc4t4o]{Dispel Magic}&nbsp;(6th),</li>\n<li>@Compendium[pf1.spells.exwa9xra4u82j0sx]{Globe of Invulnerability, Lesser} (8th),</li>\n<li>@Compendium[pf1.spells.myg2b9ww43nnlbr2]{Break Enchantment} (10th),</li>\n<li>@Compendium[pf1.spells.niqxt53lhxrjfaty]{Antimagic Field} (12th),</li>\n<li>@Compendium[pf1.spells.uyn64zazmaydnk7o]{Spell Turning} (14th),</li>\n<li>@Compendium[pf1.spells.4pryfl3cihbio5ph]{Spellscar} (16th),</li>\n<li>@Compendium[pf1.spells.19p4nr8rsvt42lmn]{Mage's Disjunction} (18th).</li>\n</ul>"
    },
    "tags": [],
    "actions": [],
    "attackNotes": [],
    "effectNotes": [],
    "changes": [],
    "contextNotes": [],
    "links": {
      "children": [],
      "charges": []
    },
    "tag": "classFeat_spellscar",
    "useCustomTag": true,
    "armorProf": {
      "value": []
    },
    "weaponProf": {
      "value": []
    },
    "languages": {
      "value": []
    },
    "scriptCalls": [],
    "subType": "classFeat",
    "associations": {
      "classes": [["Oracle"]]
    }
  }
}
