{
  "_id": "Q4Z9iU23UvkEqfp5",
  "name": "Spellbreaker (BAR)",
  "type": "feat",
  "img": "systems/pf1/icons/feats/deafening-critical.jpg",
  "sort": 0,
  "flags": {},
  "system": {
    "description": {
      "value": "<p>When raging, the barbarian gains @Compendium[pf1.feats.yE3hVOvBq9rx6TAw]{Spellbreaker}&nbsp;as a bonus feat.</p>\n<p>A barbarian must have the disruptive rage power and be at least 12th level to select this rage power.</p>"
    },
    "tags": [],
    "actions": [],
    "attackNotes": [],
    "effectNotes": [],
    "changes": [],
    "contextNotes": [],
    "links": {
      "children": [],
      "charges": []
    },
    "tag": "classFeat_spellbreakerBar",
    "useCustomTag": true,
    "armorProf": {
      "value": []
    },
    "weaponProf": {
      "value": []
    },
    "languages": {
      "value": []
    },
    "scriptCalls": [],
    "subType": "classFeat",
    "associations": {
      "classes": [["Barbarian"], ["Skald"]]
    }
  }
}
