{
  "_id": "Rao7jnaGBzSbltiw",
  "name": "Spiritual Interference",
  "type": "feat",
  "img": "systems/pf1/icons/skills/blue_36.jpg",
  "sort": 0,
  "flags": {},
  "system": {
    "description": {
      "value": "<p>At 4th level, whenever a spiritualist is within the reach of her ectoplasmic manifested phantom, she gains a +2 shield bonus to her Armor Class and a +2 circumstance bonus on her saving throws. She doesn’t gain these bonuses when the ectoplasmic manifested phantom is grappled, helpless, or unconscious.</p>\n<p>A spiritualist within 30 feet of her incorporeally manifested phantom receives a +2 circumstance bonus on saving throws against mind-affecting effects. This bonus is a supernatural ability and does not apply if the phantom is unconscious.</p>"
    },
    "tags": [],
    "actions": [],
    "attackNotes": [],
    "effectNotes": [],
    "changes": [],
    "contextNotes": [],
    "links": {
      "children": [],
      "charges": []
    },
    "tag": "classFeat_spiritualInterference",
    "useCustomTag": true,
    "armorProf": {
      "value": []
    },
    "weaponProf": {
      "value": []
    },
    "languages": {
      "value": []
    },
    "scriptCalls": [],
    "subType": "classFeat",
    "associations": {
      "classes": [["Spiritualist"]]
    },
    "abilityType": "ex"
  }
}
