{
  "_id": "kbezFXN7AVXJiRpR",
  "name": "Sun Totem, Greater",
  "type": "feat",
  "img": "systems/pf1/icons/feats/deafening-critical.jpg",
  "sort": 0,
  "flags": {},
  "system": {
    "description": {
      "value": "<p>The barbarian takes on aspects of the sun. She gains fire resistance 20 when raging. While raging, she is surrounded by a halo of flame that deals 1d6 points of fire damage to anyone that hits her with a touch attack or unarmed attack or succeeds at a bull rush, drag, or grapple combat maneuver against her. Her unarmed strikes and attacks with natural weapons deal 1d6 additional points of fire damage.</p>\n<p>A barbarian must have the sun totem rage power and be at least 10th level to select this rage power.</p>"
    },
    "tags": [],
    "actions": [],
    "attackNotes": [],
    "effectNotes": [],
    "changes": [],
    "contextNotes": [],
    "links": {
      "children": [],
      "charges": []
    },
    "tag": "classFeat_sunTotemGreater",
    "useCustomTag": true,
    "armorProf": {
      "value": []
    },
    "weaponProf": {
      "value": []
    },
    "languages": {
      "value": []
    },
    "scriptCalls": [],
    "subType": "classFeat",
    "associations": {
      "classes": [["Barbarian"], ["Skald"]]
    },
    "abilityType": "su"
  }
}
