{
  "_id": "bJEyHrSMtanOn1FA",
  "name": "Telekinetic Haul",
  "type": "feat",
  "img": "systems/pf1/icons/spells/link-blue-2.jpg",
  "sort": 0,
  "flags": {},
  "system": {
    "description": {
      "value": "<p><strong>Element&nbsp;</strong>aether;&nbsp;<strong>Type&nbsp;</strong>utility (Sp);&nbsp;<strong>Level&nbsp;</strong>2;&nbsp;<strong>Burn&nbsp;</strong>0<br><strong>Prerequisite&nbsp;</strong>basic telekinesis</p>\n<p>When using basic telekinesis, you can move an object that weighs up to 100 pounds per kineticist level you possess.</p>\n<p>When using your telekinetic blast, you can throw an object weighing up to 100 pounds per kineticist level you possess, but this doesn’t increase the damage.</p>\n<p>If you accept 1 point of burn, the maximum weight increases to 1,000 pounds per kineticist level you possess and the duration increases to 1 minute per kineticist level you possess.</p>"
    },
    "tags": [],
    "actions": [],
    "attackNotes": [],
    "effectNotes": [],
    "changes": [],
    "contextNotes": [],
    "links": {
      "children": [],
      "charges": []
    },
    "tag": "classFeat_telekineticHaul",
    "useCustomTag": true,
    "armorProf": {
      "value": []
    },
    "weaponProf": {
      "value": []
    },
    "languages": {
      "value": []
    },
    "scriptCalls": [],
    "subType": "classFeat",
    "associations": {
      "classes": [["Kineticist"]]
    },
    "abilityType": "sp"
  }
}
