{
  "_id": "gQ5ALLQWJ83osKcy",
  "name": "Thoughtful Reexamining",
  "type": "feat",
  "img": "systems/pf1/icons/items/weapons/butterfly-knife.PNG",
  "sort": 0,
  "flags": {},
  "system": {
    "description": {
      "value": "<p>Once per day, a rogue with this talent can reroll a Knowledge, Sense Motive, or Perception skill check to try to gain new or better information from the roll. This reroll can be made any time during the same day as the original check.</p>"
    },
    "tags": [],
    "actions": [],
    "attackNotes": [],
    "effectNotes": [],
    "changes": [],
    "contextNotes": [],
    "links": {
      "children": [],
      "charges": []
    },
    "tag": "classFeat_thoughtfulReexamining",
    "useCustomTag": true,
    "armorProf": {
      "value": []
    },
    "weaponProf": {
      "value": []
    },
    "languages": {
      "value": []
    },
    "scriptCalls": [],
    "subType": "classFeat",
    "associations": {
      "classes": [["Rogue"]]
    },
    "abilityType": "ex"
  }
}
