{
  "_id": "DV0riFDTJczFxn11",
  "name": "Trap Spotter (UC)",
  "type": "feat",
  "img": "systems/pf1/icons/items/weapons/hunga-munga.PNG",
  "sort": 0,
  "flags": {},
  "system": {
    "description": {
      "value": "<p>Whenever a rogue with this talent comes within 10 feet of a trap, she can attempt an immediate Perception check to notice the trap. This check should be made in secret by the GM.</p>"
    },
    "tags": [],
    "actions": [],
    "uses": {
      "per": ""
    },
    "attackNotes": [],
    "effectNotes": [],
    "changes": [],
    "contextNotes": [],
    "links": {
      "children": [],
      "charges": []
    },
    "tag": "classFeat_trapSpotterUc",
    "useCustomTag": true,
    "armorProf": {
      "value": []
    },
    "weaponProf": {
      "value": []
    },
    "languages": {
      "value": []
    },
    "scriptCalls": [],
    "subType": "classFeat",
    "associations": {
      "classes": [["Rogue (Unchained)"]]
    },
    "abilityType": "ex",
    "classSkills": {
      "acr": false,
      "apr": false,
      "art": false,
      "blf": false,
      "clm": false,
      "crf": false,
      "dip": false,
      "dev": false,
      "dis": false,
      "esc": false,
      "fly": false,
      "han": false,
      "hea": false,
      "int": false,
      "kar": false,
      "kdu": false,
      "ken": false,
      "kge": false,
      "khi": false,
      "klo": false,
      "kna": false,
      "kno": false,
      "kpl": false,
      "kre": false,
      "lin": false,
      "lor": false,
      "per": false,
      "prf": false,
      "pro": false,
      "rid": false,
      "sen": false,
      "slt": false,
      "spl": false,
      "ste": false,
      "sur": false,
      "swm": false,
      "umd": false
    }
  }
}
