{
  "_id": "5nt6CAITIC4LEF4t",
  "name": "Underhanded Trick",
  "type": "feat",
  "img": "systems/pf1/icons/items/weapons/dagger.PNG",
  "sort": 0,
  "flags": {},
  "system": {
    "description": {
      "value": "<p>A rogue who selects this talent gains Improved Dirty Trick&nbsp;as a bonus feat, even if she does not meet the prerequisites. At 6th level, she is treated as if she meets all the prerequisites for Greater Dirty Trick&nbsp;(although she must take the feat as normal). If she succeeds in giving her target the blinded condition, the target cannot remove the condition during the first round of blindness.</p>"
    },
    "tags": [],
    "actions": [],
    "attackNotes": [],
    "effectNotes": [],
    "changes": [],
    "contextNotes": [],
    "links": {
      "children": [],
      "charges": []
    },
    "tag": "classFeat_underhandedTrick",
    "useCustomTag": true,
    "armorProf": {
      "value": []
    },
    "weaponProf": {
      "value": []
    },
    "languages": {
      "value": []
    },
    "scriptCalls": [],
    "subType": "classFeat",
    "associations": {
      "classes": [["Rogue"]]
    },
    "abilityType": "ex"
  }
}
