{
  "_id": "qjpLIatoQIzmcehq",
  "name": "Wild Shape (SHI)",
  "type": "feat",
  "img": "systems/pf1/icons/skills/blue_29.jpg",
  "sort": 0,
  "flags": {},
  "system": {
    "description": {
      "value": "<p>At 4th level, a shifter gains the ability to turn herself into the major form of one of her aspects and back again. This ability functions as&nbsp;beast shape II, except as noted here. The shifter can turn into the major form of only one of her aspects at a time. Using wild shape to change to a major form or back is a standard action that doesn’t provoke attacks of opportunity. Often a particular aspect’s major form grants abilities beyond the normal effect of&nbsp;beast shape II. Each major form details the abilities the shifter gains with that major form and at what level; she gains these instead of the form abilities from&nbsp;beast shape II, but she still gains&nbsp;beast shape II&nbsp;abilities that are size dependent.<br><br>A shifter loses her ability to speak while in animal form because she is limited to the sounds that a normal, untrained animal of that form can make, but she can communicate with other animals of the same general grouping as her form. She can also communicate in nonverbal ways with allies.<br><br>A shifter can use wild shape for a number of hours each day equal to her shifter level + her Wisdom modifier. It need not be consecutive but must be spent in 1 hour increments. For abilities that function based on ‘uses of wild shape,’ each hour of wild shape counts as a use.<br><br>A shifters can take feats and other abilities that require wild shape; for the purpose of qualifying for prerequisites, her effective druid level is equal to her shifter level.</p>"
    },
    "tags": [],
    "actions": [
      {
        "_id": "ajij0bn12b4y79c2",
        "name": "Use",
        "img": "systems/pf1/icons/skills/blue_29.jpg",
        "description": "",
        "tag": "",
        "activation": {
          "cost": 1,
          "type": "standard"
        },
        "unchainedAction": {
          "activation": {
            "cost": 2,
            "type": "action"
          }
        },
        "duration": {
          "value": "1",
          "units": "hour"
        },
        "target": {
          "value": "self"
        },
        "range": {
          "value": null,
          "units": "personal",
          "maxIncrements": 1,
          "minValue": null,
          "minUnits": ""
        },
        "uses": {
          "autoDeductChargesCost": "",
          "self": {
            "value": 0,
            "maxFormula": "",
            "per": null
          },
          "per": "day",
          "value": 0,
          "maxFormula": "@classes.shifter.level + @abilities.wis.mod"
        },
        "measureTemplate": {
          "type": "",
          "size": "0",
          "overrideColor": false,
          "customColor": "",
          "overrideTexture": false,
          "customTexture": ""
        },
        "attackName": "",
        "actionType": "",
        "attackBonus": "",
        "critConfirmBonus": "",
        "damage": {
          "parts": [],
          "critParts": [],
          "nonCritParts": []
        },
        "attackParts": [],
        "formulaicAttacks": {
          "count": {
            "formula": ""
          },
          "bonus": {
            "formula": ""
          },
          "label": null
        },
        "formula": "",
        "ability": {
          "attack": null,
          "damage": null,
          "damageMult": 1,
          "critRange": 20,
          "critMult": 2
        },
        "save": {
          "dc": 0,
          "type": "",
          "description": ""
        },
        "effectNotes": [],
        "attackNotes": [],
        "soundEffect": "",
        "powerAttack": {
          "multiplier": "",
          "damageBonus": 2,
          "critMultiplier": 1
        },
        "naturalAttack": {
          "primaryAttack": true,
          "secondary": {
            "attackBonus": "-5",
            "damageMult": 0.5
          }
        },
        "nonlethal": false,
        "usesAmmo": false,
        "spellEffect": "",
        "spellArea": "",
        "conditionals": [],
        "enh": {
          "value": null
        }
      }
    ],
    "uses": {
      "per": "day",
      "maxFormula": "@classes.shifter.level + @abilities.wis.mod"
    },
    "attackNotes": [],
    "effectNotes": [],
    "changes": [],
    "contextNotes": [],
    "links": {
      "children": [],
      "charges": []
    },
    "tag": "classFeat_wildShapeShi",
    "useCustomTag": true,
    "armorProf": {
      "value": []
    },
    "weaponProf": {
      "value": []
    },
    "languages": {
      "value": []
    },
    "scriptCalls": [],
    "subType": "classFeat",
    "associations": {
      "classes": [["Shifter"]]
    },
    "abilityType": "su"
  }
}
