{
  "_id": "sJdBOE9lwz5XAkUi",
  "name": "Wild Shape",
  "type": "feat",
  "img": "systems/pf1/icons/skills/green_21.jpg",
  "sort": 0,
  "flags": {},
  "system": {
    "description": {
      "value": "<p>At 4th level, a druid gains the ability to turn herself into any small or Medium&nbsp;<em>animal</em>&nbsp;and back again once per day. Her options for new forms include all creatures with the&nbsp;<em>animal</em>&nbsp;type. This ability functions like the&nbsp;<em>beast shape I</em>&nbsp;spell, except as noted here. The effect lasts for 1 hour per druid level, or until she changes back. Changing form (to&nbsp;<em>animal</em>&nbsp;or back) is a standard action and doesn’t provoke an attack of opportunity. The form chosen must be that of an animal the druid is familiar with.</p>\n<p>A druid loses her ability to speak while in&nbsp;<em>animal</em>&nbsp;form because she is limited to the sounds that a normal, untrained animal can make, but she can communicate normally with other animals of the same general grouping as her new form. (The normal sound a wild parrot makes is a squawk, so changing to this form does not permit speech.)</p>\n<p>A druid can use this ability an additional time per day at 6th level and every two levels thereafter, for a total of eight times at 18th level. At 20th level, a druid can use wild shape at will. As a druid gains in levels, this ability allows the druid to take on the form of larger and smaller animals,&nbsp;<em>elementals</em>, and plants. Each form expends one daily usage of this ability, regardless of the form taken.</p>\n<p>At 6th level, a druid can use wild shape to change into a Large or Tiny&nbsp;<em>animal</em>&nbsp;or a Small&nbsp;<em>elemental</em>. When taking the form of an&nbsp;<em>animal</em>, a druid’s wild shape now functions as&nbsp;<em>beast shape II</em>. When taking the form of an&nbsp;<em>elemental</em>, the druid’s wild shape functions as&nbsp;<em>elemental body I</em>.</p>\n<p>At 8th level, a druid can use wild shape to change into a Huge or Diminutive&nbsp;<em>animal</em>, a Medium&nbsp;<em>elemental</em>, or a Small or Medium plant creature. When taking the form of animals, a druid’s wild shape now functions as&nbsp;<em>beast shape III</em>. When taking the form of an elemental, the druid’s wild shape now functions as&nbsp;<em>elemental body II</em>. When taking the form of a plant creature, the druid’s wild shape functions as&nbsp;<em>plant shape I</em>.</p>\n<p>At 10th level, a druid can use wild shape to change into a Large&nbsp;<em>elemental</em>&nbsp;or a Large plant creature. When taking the form of an&nbsp;<em>elemental</em>, the druid’s wild shape now functions as&nbsp;<em>elemental body III</em>. When taking the form of a plant, the druid’s wild shape now functions as&nbsp;<em>plant shape II</em>.</p>\n<p>At 12th level, a druid can use wild shape to change into a Huge&nbsp;<em>elemental</em>&nbsp;or a Huge plant creature. When taking the form of an&nbsp;<em>elemental</em>, the druid’s wild shape now functions as&nbsp;<em>elemental body IV</em>. When taking the form of a plant, the druid’s wild shape now functions as&nbsp;<em>plant shape III</em>.</p>"
    },
    "tags": [],
    "actions": [
      {
        "_id": "t1lo0qlokxp4kze3",
        "name": "Use",
        "img": "systems/pf1/icons/skills/green_21.jpg",
        "description": "",
        "tag": "",
        "activation": {
          "cost": 1,
          "type": "standard"
        },
        "unchainedAction": {
          "activation": {
            "cost": 2,
            "type": "action"
          }
        },
        "duration": {
          "value": "@attributes.hd.total",
          "units": "hour"
        },
        "target": {
          "value": "Self"
        },
        "range": {
          "value": null,
          "units": "personal",
          "maxIncrements": 1,
          "minValue": null,
          "minUnits": ""
        },
        "uses": {
          "autoDeductChargesCost": "",
          "self": {
            "value": 0,
            "maxFormula": "",
            "per": null
          },
          "per": "day",
          "value": 0,
          "maxFormula": "(floor((@classes.druid.level - 2) / 2))"
        },
        "measureTemplate": {
          "type": "",
          "size": "0",
          "overrideColor": false,
          "customColor": "",
          "overrideTexture": false,
          "customTexture": ""
        },
        "attackName": "",
        "actionType": "",
        "attackBonus": "",
        "critConfirmBonus": "",
        "damage": {
          "parts": [],
          "critParts": [],
          "nonCritParts": []
        },
        "attackParts": [],
        "formulaicAttacks": {
          "count": {
            "formula": ""
          },
          "bonus": {
            "formula": ""
          },
          "label": null
        },
        "formula": "",
        "ability": {
          "attack": null,
          "damage": null,
          "damageMult": 1,
          "critRange": 20,
          "critMult": 2
        },
        "save": {
          "dc": 0,
          "type": "",
          "description": ""
        },
        "effectNotes": [],
        "attackNotes": [],
        "soundEffect": "",
        "powerAttack": {
          "multiplier": "",
          "damageBonus": 2,
          "critMultiplier": 1
        },
        "naturalAttack": {
          "primaryAttack": true,
          "secondary": {
            "attackBonus": "-5",
            "damageMult": 0.5
          }
        },
        "nonlethal": false,
        "usesAmmo": false,
        "spellEffect": "",
        "spellArea": "",
        "conditionals": [],
        "enh": {
          "value": null
        }
      }
    ],
    "uses": {
      "per": "day",
      "maxFormula": "(floor((@classes.druid.level - 2) / 2))"
    },
    "attackNotes": [],
    "effectNotes": [],
    "changes": [],
    "contextNotes": [],
    "links": {
      "children": [],
      "charges": []
    },
    "tag": "classFeat_wildShape",
    "useCustomTag": true,
    "armorProf": {
      "value": []
    },
    "weaponProf": {
      "value": []
    },
    "languages": {
      "value": []
    },
    "scriptCalls": [],
    "subType": "classFeat",
    "associations": {
      "classes": [["Druid"], ["Shifter"]]
    },
    "abilityType": "su"
  }
}
