{
  "_id": "mjxpdh9jlmr92f1q",
  "name": "Draconic Reservoir",
  "type": "spell",
  "img": "systems/pf1/icons/misc/magic-swirl.png",
  "sort": 0,
  "flags": {},
  "system": {
    "tags": [],
    "actions": [
      {
        "_id": "dpponqnf2drcl326",
        "name": "Use",
        "img": "systems/pf1/icons/misc/magic-swirl.png",
        "description": "",
        "tag": "",
        "activation": {
          "cost": 1,
          "type": "standard"
        },
        "unchainedAction": {
          "activation": {
            "cost": 2,
            "type": "action"
          }
        },
        "duration": {
          "value": "10 minutes/level or until discharged; see text",
          "units": ""
        },
        "target": {
          "value": "creature touched"
        },
        "range": {
          "value": null,
          "units": "touch",
          "maxIncrements": 1,
          "minValue": null,
          "minUnits": ""
        },
        "uses": {
          "autoDeductChargesCost": "",
          "self": {
            "value": 0,
            "maxFormula": "",
            "per": null
          },
          "per": "",
          "value": 0,
          "maxFormula": ""
        },
        "measureTemplate": {
          "type": "",
          "size": "0",
          "overrideColor": false,
          "customColor": "",
          "overrideTexture": false,
          "customTexture": ""
        },
        "attackName": "",
        "actionType": "spellsave",
        "attackBonus": "",
        "critConfirmBonus": "",
        "damage": {
          "parts": [],
          "critParts": [],
          "nonCritParts": []
        },
        "attackParts": [],
        "formulaicAttacks": {
          "count": {
            "formula": ""
          },
          "bonus": {
            "formula": ""
          },
          "label": null
        },
        "formula": "",
        "ability": {
          "attack": "",
          "damage": "",
          "damageMult": 1,
          "critRange": 20,
          "critMult": 2
        },
        "save": {
          "dc": "0",
          "type": "fort",
          "description": "Fortitude negates (harmless)"
        },
        "effectNotes": [],
        "attackNotes": [],
        "soundEffect": "",
        "powerAttack": {
          "multiplier": "",
          "damageBonus": 2,
          "critMultiplier": 1
        },
        "naturalAttack": {
          "primaryAttack": true,
          "secondary": {
            "attackBonus": "-5",
            "damageMult": 0.5
          }
        },
        "nonlethal": false,
        "usesAmmo": false,
        "spellEffect": "",
        "spellArea": "",
        "conditionals": [],
        "enh": {
          "value": null
        }
      }
    ],
    "uses": {
      "per": ""
    },
    "attackNotes": [],
    "effectNotes": [],
    "links": {
      "children": []
    },
    "scriptCalls": [],
    "learnedAt": {
      "class": [
        ["sorcerer/wizard", 3],
        ["alchemist", 3],
        ["bloodrager", 3]
      ],
      "domain": [],
      "subDomain": [["Dragon", 3]],
      "elementalSchool": [],
      "bloodline": []
    },
    "level": 3,
    "school": "evo",
    "types": "acid, cold, electricity, or fire",
    "components": {
      "verbal": true,
      "somatic": true,
      "material": true
    },
    "materials": {
      "value": "a scale from dragon that produces the energy you seek to absorb"
    },
    "shortDescription": "<p><i>Draconic reservoir</i> functions as <i>protection from energy</i>, absorbing 6 points of one type of energy damage per caster level (acid, cold, electricity, or fire, maximum 60 points). Each round, as a swift action, the subject can release 1d6 points of the absorbed energy and apply it to any melee attack, as if using an <i>acidic</i>, <i>flaming</i>, <i>frost</i>, or <i>shock</i> weapon. The first creature the subject strikes with this attack takes the energy damage in addition to any other consequences of the attack.</p><p>Releasing energy in this way does not \"free up\" space to absorb still more energy; the maximum amount of energy the spell can absorb remains fixed. The subject cannot release more energy than he currently has absorbed. Once the subject has absorbed all the energy allowed by the spell, he takes damage as normal from that energy type. Once the energy has been released, the spell is discharged.</p><p><i>Draconic reservoir</i> does not stack with <i>protection from energy</i>.</p><p><i>Draconic reservoir</i> overlaps (and does not stack with) <i>resist energy</i>. If a character is warded by <i>draconic reservoir</i> and <i>resist energy</i>, <i>draconic reservoir</i> absorbs damage until it reaches its maximum limit.</p>"
  }
}
