{
  "_id": "ljz85cb6CjZbUD71",
  "name": "Expel Blood",
  "type": "spell",
  "img": "icons/skills/wounds/blood-cells-red.webp",
  "sort": 0,
  "flags": {},
  "system": {
    "tags": [],
    "actions": [
      {
        "_id": "7raqomho36gtm2vu",
        "name": "Use",
        "img": "icons/skills/wounds/blood-cells-red.webp",
        "description": "",
        "tag": "",
        "activation": {
          "cost": 1,
          "type": "round"
        },
        "unchainedAction": {
          "activation": {
            "cost": 1,
            "type": ""
          }
        },
        "duration": {
          "value": "instantaneous and 1 round/level; see text",
          "units": ""
        },
        "target": {
          "value": "one Small or larger living creature"
        },
        "range": {
          "value": null,
          "units": "close",
          "maxIncrements": 1,
          "minValue": null,
          "minUnits": ""
        },
        "uses": {
          "autoDeductChargesCost": "1 + @sl",
          "self": {
            "value": 0,
            "maxFormula": "",
            "per": null
          },
          "per": null,
          "value": 0,
          "maxFormula": ""
        },
        "measureTemplate": {
          "type": "",
          "size": "",
          "overrideColor": false,
          "customColor": "",
          "overrideTexture": false,
          "customTexture": ""
        },
        "attackName": "",
        "actionType": "spellsave",
        "attackBonus": "",
        "critConfirmBonus": "",
        "damage": {
          "parts": [],
          "critParts": [],
          "nonCritParts": []
        },
        "attackParts": [],
        "formulaicAttacks": {
          "count": {
            "formula": ""
          },
          "bonus": {
            "formula": ""
          },
          "label": null
        },
        "formula": "",
        "ability": {
          "attack": null,
          "damage": "",
          "damageMult": 1,
          "critRange": 20,
          "critMult": 2
        },
        "save": {
          "dc": "0",
          "type": "fort",
          "description": "Fortitude negates"
        },
        "effectNotes": ["<b>Save Fail Effect</b> [[2d4]] Constitution damage"],
        "attackNotes": [],
        "soundEffect": "",
        "powerAttack": {
          "multiplier": "",
          "damageBonus": 2,
          "critMultiplier": 1
        },
        "naturalAttack": {
          "primaryAttack": true,
          "secondary": {
            "attackBonus": "-5",
            "damageMult": 0.5
          }
        },
        "nonlethal": false,
        "usesAmmo": false,
        "spellEffect": "",
        "spellArea": "",
        "conditionals": [],
        "enh": {
          "value": null
        }
      }
    ],
    "attackNotes": [],
    "effectNotes": [],
    "links": {
      "children": []
    },
    "scriptCalls": [],
    "learnedAt": {
      "class": [
        ["arcanist", 7],
        ["sorcerer/wizard", 7],
        ["summoner", 6],
        ["unchained Summoner", 6],
        ["witch", 7]
      ],
      "domain": [],
      "subDomain": [],
      "elementalSchool": [],
      "bloodline": []
    },
    "level": 7,
    "school": "con",
    "types": "evil, water",
    "components": {
      "verbal": true,
      "somatic": true,
      "material": true
    },
    "materials": {
      "value": "a drop of blood from each of three different creatures"
    },
    "spellbook": "",
    "shortDescription": "<p><span id=\"ctl00_MainContent_DataListTypes_ctl00_LabelName\">You animate a portion of the target&rsquo;s blood, causing it to force itself out of the victim&rsquo;s body and form a corrupted water elemental. The target takes 2d4 points of Constitution damage unless it succeeds at a Fortitude saving throw. Additionally, if the target fails the saving throw, blood (or an analogous internal fluid, such as ichor) pours from the target&rsquo;s body and pools in an empty adjacent square of your choice. The fluids immediately form into a fiendish water elemental (<em>Pathfinder RPG Bestiary</em> 294, 126) of the same size as the target (but not larger than a Large fiendish water elemental). This fiendish water elemental does not have the vortex ability, but it has the blood drain special attack (<em>Pathfinder RPG Bestiary</em> 2 294), which deals 1d3 points of Constitution damage at the end of the water elemental&rsquo;s turn if it grapples a foe. The elemental gains @Compendium[pf1.feats.ZmQkRk93nbHxsQSt]{Improved Grapple} as a bonus feat. You have no control over the fiendish water elemental once it is summoned, though the water elemental does not attack you under any circumstances.</span></p>\n<p><span id=\"ctl00_MainContent_DataListTypes_ctl00_LabelName\">This spell does not affect creatures that are Small or smaller or those that don&rsquo;t have blood or some analogous internal fluid.</span></p>"
  }
}
