{
  "_id": "s0y6bnvrqo99e2j4",
  "name": "Firewalker's Meditation",
  "type": "spell",
  "img": "systems/pf1/icons/misc/magic-swirl.png",
  "sort": 0,
  "flags": {},
  "system": {
    "tags": [],
    "actions": [
      {
        "_id": "m40vb36qqhkwm222",
        "name": "Use",
        "img": "systems/pf1/icons/misc/magic-swirl.png",
        "description": "",
        "tag": "",
        "activation": {
          "cost": 1,
          "type": "hour"
        },
        "unchainedAction": {
          "activation": {
            "cost": 1,
            "type": "hour"
          }
        },
        "duration": {
          "value": "24 hours or until discharged",
          "units": ""
        },
        "target": {
          "value": "you"
        },
        "range": {
          "value": null,
          "units": "personal",
          "maxIncrements": 1,
          "minValue": null,
          "minUnits": ""
        },
        "uses": {
          "autoDeductChargesCost": "",
          "self": {
            "value": 0,
            "maxFormula": "",
            "per": null
          },
          "per": "",
          "value": 0,
          "maxFormula": ""
        },
        "measureTemplate": {
          "type": "",
          "size": "0",
          "overrideColor": false,
          "customColor": "",
          "overrideTexture": false,
          "customTexture": ""
        },
        "attackName": "",
        "actionType": "",
        "attackBonus": "",
        "critConfirmBonus": "",
        "damage": {
          "parts": [],
          "critParts": [],
          "nonCritParts": []
        },
        "attackParts": [],
        "formulaicAttacks": {
          "count": {
            "formula": ""
          },
          "bonus": {
            "formula": ""
          },
          "label": null
        },
        "formula": "",
        "ability": {
          "attack": "",
          "damage": "",
          "damageMult": 1,
          "critRange": 20,
          "critMult": 2
        },
        "save": {
          "dc": "0",
          "type": "",
          "description": ""
        },
        "effectNotes": [],
        "attackNotes": [],
        "soundEffect": "",
        "powerAttack": {
          "multiplier": "",
          "damageBonus": 2,
          "critMultiplier": 1
        },
        "naturalAttack": {
          "primaryAttack": true,
          "secondary": {
            "attackBonus": "-5",
            "damageMult": 0.5
          }
        },
        "nonlethal": false,
        "usesAmmo": false,
        "spellEffect": "",
        "spellArea": "",
        "conditionals": [],
        "enh": {
          "value": null
        }
      }
    ],
    "uses": {
      "per": ""
    },
    "attackNotes": [],
    "effectNotes": [],
    "links": {
      "children": []
    },
    "scriptCalls": [],
    "learnedAt": {
      "class": [
        ["cleric/oracle", 4],
        ["druid", 4],
        ["paladin", 3],
        ["shaman", 4],
        ["hunter", 4]
      ],
      "domain": [],
      "subDomain": [],
      "elementalSchool": [],
      "bloodline": []
    },
    "level": 4,
    "school": "abj",
    "types": "meditative",
    "components": {
      "verbal": true,
      "material": true
    },
    "materials": {
      "value": "soothing incense worth 400 gp",
      "gpValue": 400
    },
    "spellbook": "",
    "preparation": {
      "spontaneousPrepared": false
    },
    "sr": false,
    "shortDescription": "<p>You focus your mind on blocking out pain, allowing your body to endure punishments that would be otherwise unbearable. While under the effects of this spell, you continue to register pain-you simply don't suffer the deleterious effects such sensations bring. For example, if you were lit on fire as you slept, you would still wake from the pain of burning even though some of the fire damage you endured (perhaps all of it) would be negated by this spell.  You gain DR 5/magic, resist fire 10, and a +4 bonus on saving throws to resist pain effects. Once the spell has prevented a total of 10 points of damage per caster level (maximum 100 points), it is discharged. At any time during the spell's duration when you take damage that would be subject to the damage  reduction or energy resistance granted by this spell, you can expend the spell's remaining duration as an immediate action in order to increase the effects to DR 10/magic, resist fire 30, and immunity to pain effects. If you do so, these enhanced effects persist for 3 rounds. After this time, the spell ends.</p>"
  }
}
