{
  "_id": "fv14vemq9gduhyhu",
  "name": "Form of the Alien Dragon III",
  "type": "spell",
  "img": "systems/pf1/icons/misc/magic-swirl.png",
  "sort": 0,
  "flags": {},
  "system": {
    "tags": [],
    "actions": [
      {
        "_id": "agi8wvzsobmigmf3",
        "name": "Use",
        "img": "systems/pf1/icons/misc/magic-swirl.png",
        "description": "",
        "tag": "",
        "activation": {
          "cost": 1,
          "type": "standard"
        },
        "unchainedAction": {
          "activation": {
            "cost": 2,
            "type": "action"
          }
        },
        "duration": {
          "value": "1 minute/level (D)",
          "units": ""
        },
        "target": {
          "value": "you"
        },
        "range": {
          "value": null,
          "units": "personal",
          "maxIncrements": 1,
          "minValue": null,
          "minUnits": ""
        },
        "uses": {
          "autoDeductChargesCost": "",
          "self": {
            "value": 0,
            "maxFormula": "",
            "per": null
          },
          "per": "",
          "value": 0,
          "maxFormula": ""
        },
        "measureTemplate": {
          "type": "",
          "size": "0",
          "overrideColor": false,
          "customColor": "",
          "overrideTexture": false,
          "customTexture": ""
        },
        "attackName": "",
        "actionType": "spellsave",
        "attackBonus": "",
        "critConfirmBonus": "",
        "damage": {
          "parts": [],
          "critParts": [],
          "nonCritParts": []
        },
        "attackParts": [],
        "formulaicAttacks": {
          "count": {
            "formula": ""
          },
          "bonus": {
            "formula": ""
          },
          "label": null
        },
        "formula": "",
        "ability": {
          "attack": "",
          "damage": "",
          "damageMult": 1,
          "critRange": 20,
          "critMult": 2
        },
        "save": {
          "dc": "0",
          "type": "",
          "description": "see text"
        },
        "effectNotes": [],
        "attackNotes": [],
        "soundEffect": "",
        "powerAttack": {
          "multiplier": "",
          "damageBonus": 2,
          "critMultiplier": 1
        },
        "naturalAttack": {
          "primaryAttack": true,
          "secondary": {
            "attackBonus": "-5",
            "damageMult": 0.5
          }
        },
        "nonlethal": false,
        "usesAmmo": false,
        "spellEffect": "",
        "spellArea": "",
        "conditionals": [],
        "enh": {
          "value": null
        }
      }
    ],
    "uses": {
      "per": ""
    },
    "attackNotes": [],
    "effectNotes": [],
    "links": {
      "children": []
    },
    "scriptCalls": [],
    "learnedAt": {
      "class": [
        ["sorcerer/wizard", 8],
        ["psychic", 9]
      ],
      "domain": [],
      "subDomain": [],
      "elementalSchool": [],
      "bloodline": []
    },
    "level": 8,
    "school": "trs",
    "subschool": "polymorph",
    "components": {
      "verbal": true,
      "somatic": true,
      "material": true
    },
    "materials": {
      "value": "a scale of the dragon type you plan to assume"
    },
    "sr": false,
    "shortDescription": "<p>This spell functions as per <i><i>Form of the Alien Dragon I</i>I</i>, except it also allows you to take the form of a Huge esoteric or outer dragon. Psychics can choose from the esoteric dragon (astral, dream, etheric, nightmare, or occult) forms only. You gain the following: a +10 size bonus to your Strength, a +8 size bonus to your Constitution, a +8 natural armor bonus, a fly speed of 120 feet (poor), blindsense with a range of 60 feet, darkvision with a range of 120 feet, a breath weapon, damage reduction 10/magic, frightful presence (DC = DC for this spell), and immunity to one form of energy or effect (of the same type <i>Form of the Alien Dragon I</i> grants either a bonus against or resistance to, if any). You also gain one bite attack (2d8), two claw attacks (2d6), two wing attacks (1d8), and one tail slap attack (2d6). You can use the breath weapon as often as you like, but must wait 1d4 rounds between uses. All breath weapons deal 12d8 points of damage unless noted otherwise and allow a Reflex save to halve the normal damage. Line breath weapons increase to 100-foot lines and cones increase to 50-foot cones.</p>"
  }
}
