{
  "_id": "xmw9a4h8bgvlx0ub",
  "name": "Gusting Sphere",
  "type": "spell",
  "img": "systems/pf1/icons/misc/magic-swirl.png",
  "sort": 0,
  "flags": {},
  "system": {
    "tags": [],
    "actions": [
      {
        "_id": "ft6duaa6mjgr7th8",
        "name": "Use",
        "img": "systems/pf1/icons/misc/magic-swirl.png",
        "description": "",
        "tag": "",
        "activation": {
          "cost": 1,
          "type": "standard"
        },
        "unchainedAction": {
          "activation": {
            "cost": 2,
            "type": "action"
          }
        },
        "duration": {
          "value": "1 round/level",
          "units": ""
        },
        "target": {
          "value": ""
        },
        "range": {
          "value": null,
          "units": "medium",
          "maxIncrements": 1,
          "minValue": null,
          "minUnits": ""
        },
        "uses": {
          "autoDeductChargesCost": "",
          "self": {
            "value": 0,
            "maxFormula": "",
            "per": null
          },
          "per": "",
          "value": 0,
          "maxFormula": ""
        },
        "measureTemplate": {
          "type": "",
          "size": "0",
          "overrideColor": false,
          "customColor": "",
          "overrideTexture": false,
          "customTexture": ""
        },
        "attackName": "",
        "actionType": "spellsave",
        "attackBonus": "",
        "critConfirmBonus": "",
        "damage": {
          "parts": [],
          "critParts": [],
          "nonCritParts": []
        },
        "attackParts": [],
        "formulaicAttacks": {
          "count": {
            "formula": ""
          },
          "bonus": {
            "formula": ""
          },
          "label": null
        },
        "formula": "",
        "ability": {
          "attack": "",
          "damage": "",
          "damageMult": 1,
          "critRange": 20,
          "critMult": 2
        },
        "save": {
          "dc": "0",
          "type": "ref",
          "description": "Fortitude negates (object) or Reflex negates; see text"
        },
        "effectNotes": [],
        "attackNotes": [],
        "soundEffect": "",
        "powerAttack": {
          "multiplier": "",
          "damageBonus": 2,
          "critMultiplier": 1
        },
        "naturalAttack": {
          "primaryAttack": true,
          "secondary": {
            "attackBonus": "-5",
            "damageMult": 0.5
          }
        },
        "nonlethal": false,
        "usesAmmo": false,
        "spellEffect": "5-ft.-diameter sphere of air",
        "spellArea": "",
        "conditionals": [],
        "enh": {
          "value": null
        }
      }
    ],
    "uses": {
      "per": ""
    },
    "attackNotes": [],
    "effectNotes": [],
    "links": {
      "children": []
    },
    "scriptCalls": [],
    "learnedAt": {
      "class": [
        ["sorcerer/wizard", 2],
        ["druid", 2],
        ["magus", 2],
        ["bloodrager", 2],
        ["hunter", 2]
      ],
      "domain": [],
      "subDomain": [],
      "elementalSchool": [],
      "bloodline": []
    },
    "level": 2,
    "school": "evo",
    "types": "air",
    "components": {
      "verbal": true,
      "somatic": true
    },
    "shortDescription": "<p>A swirling ball of wind rolls in whichever direction you point, hurling those it strikes with great force. The sphere is treated in all ways as an area of severe wind (<i>Core Rulebook</i> 439), applying a -4 penalty on ranged weapon attacks that pass through it. The sphere moves 30 feet per round. As part of this movement, it can ascend or jump up to 30 feet to strike a target. If it enters a space containing a Medium or smaller creature, it stops moving for that round and generates a sharp thrust of wind to bull rush the creature. The sphere's CMB for bull rush combat maneuvers uses your caster level in place of its base attack bonus, with a +2 bonus for its Strength score (14). Whether or not the bull rush is successful, the creature takes 1d6 points of nonlethal bludgeoning damage from the attack. If the bull rush fails, the creature is still subject to the severe winds from the sphere as long as they remain in the same square as it. A <i>gusting sphere</i> rolls over objects or barriers that are less than 4 feet tall.  The sphere moves as long as you actively direct it (a move action for you); otherwise, it merely stays at rest. A <i>gusting sphere</i> immediately dissipates if it exceeds the spell's range.</p>"
  }
}
