{
  "_id": "54x9nw6ni4rpphcn",
  "name": "Keen Senses",
  "type": "spell",
  "img": "systems/pf1/icons/misc/magic-swirl.png",
  "sort": 0,
  "flags": {},
  "system": {
    "tags": [],
    "actions": [
      {
        "_id": "8llqw8kjsi4em362",
        "name": "Use",
        "img": "systems/pf1/icons/misc/magic-swirl.png",
        "description": "",
        "tag": "",
        "activation": {
          "cost": 1,
          "type": "standard"
        },
        "unchainedAction": {
          "activation": {
            "cost": 2,
            "type": "action"
          }
        },
        "duration": {
          "value": "1 minute/level (D)",
          "units": ""
        },
        "target": {
          "value": "creature touched"
        },
        "range": {
          "value": null,
          "units": "touch",
          "maxIncrements": 1,
          "minValue": null,
          "minUnits": ""
        },
        "uses": {
          "autoDeductChargesCost": "",
          "self": {
            "value": 0,
            "maxFormula": "",
            "per": null
          },
          "per": "",
          "value": 0,
          "maxFormula": ""
        },
        "measureTemplate": {
          "type": "",
          "size": "0",
          "overrideColor": false,
          "customColor": "",
          "overrideTexture": false,
          "customTexture": ""
        },
        "attackName": "",
        "actionType": "spellsave",
        "attackBonus": "",
        "critConfirmBonus": "",
        "damage": {
          "parts": [],
          "critParts": [],
          "nonCritParts": []
        },
        "attackParts": [],
        "formulaicAttacks": {
          "count": {
            "formula": ""
          },
          "bonus": {
            "formula": ""
          },
          "label": null
        },
        "formula": "",
        "ability": {
          "attack": "",
          "damage": "",
          "damageMult": 1,
          "critRange": 20,
          "critMult": 2
        },
        "save": {
          "dc": "0",
          "type": "will",
          "description": "Will negates (harmless)"
        },
        "effectNotes": [],
        "attackNotes": [],
        "soundEffect": "",
        "powerAttack": {
          "multiplier": "",
          "damageBonus": 2,
          "critMultiplier": 1
        },
        "naturalAttack": {
          "primaryAttack": true,
          "secondary": {
            "attackBonus": "-5",
            "damageMult": 0.5
          }
        },
        "nonlethal": false,
        "usesAmmo": false,
        "spellEffect": "",
        "spellArea": "",
        "conditionals": [],
        "enh": {
          "value": null
        }
      }
    ],
    "uses": {
      "per": ""
    },
    "attackNotes": [],
    "effectNotes": [],
    "links": {
      "children": []
    },
    "scriptCalls": [],
    "learnedAt": {
      "class": [
        ["druid", 1],
        ["ranger", 1],
        ["alchemist", 1],
        ["occultist", 1],
        ["hunter", 1]
      ],
      "domain": [],
      "subDomain": [],
      "elementalSchool": [],
      "bloodline": []
    },
    "school": "trs",
    "components": {
      "verbal": true,
      "material": true,
      "divineFocus": 2
    },
    "materials": {
      "value": "a hawk's feather"
    },
    "shortDescription": "<p>The subject gains a +2 competence bonus on Perception checks and gains low-light vision. Subjects that have low-light vision double the distance they can see under the effects of this spell.</p>"
  }
}
