{
  "_id": "c3vws58yy0pk47gs",
  "name": "Planar Ally, Lesser",
  "type": "spell",
  "img": "systems/pf1/icons/misc/magic-swirl.png",
  "sort": 0,
  "flags": {},
  "system": {
    "tags": [],
    "actions": [
      {
        "_id": "3v5uyzhdmce5dlem",
        "name": "Use",
        "img": "systems/pf1/icons/misc/magic-swirl.png",
        "description": "",
        "tag": "",
        "activation": {
          "cost": 10,
          "type": "minute"
        },
        "unchainedAction": {
          "activation": {
            "cost": 10,
            "type": "minute"
          }
        },
        "duration": {
          "value": "instantaneous",
          "units": ""
        },
        "target": {
          "value": ""
        },
        "range": {
          "value": null,
          "units": "close",
          "maxIncrements": 1,
          "minValue": null,
          "minUnits": ""
        },
        "uses": {
          "autoDeductChargesCost": "",
          "self": {
            "value": 0,
            "maxFormula": "",
            "per": null
          },
          "per": "",
          "value": 0,
          "maxFormula": ""
        },
        "measureTemplate": {
          "type": "",
          "size": "0",
          "overrideColor": false,
          "customColor": "",
          "overrideTexture": false,
          "customTexture": ""
        },
        "attackName": "",
        "actionType": "other",
        "attackBonus": "",
        "critConfirmBonus": "",
        "damage": {
          "parts": [],
          "critParts": [],
          "nonCritParts": []
        },
        "attackParts": [],
        "formulaicAttacks": {
          "count": {
            "formula": ""
          },
          "bonus": {
            "formula": ""
          },
          "label": null
        },
        "formula": "",
        "ability": {
          "attack": "",
          "damage": "",
          "damageMult": 1,
          "critRange": 20,
          "critMult": 2
        },
        "save": {
          "dc": "0",
          "type": "",
          "description": ""
        },
        "effectNotes": [],
        "attackNotes": [],
        "soundEffect": "",
        "powerAttack": {
          "multiplier": "",
          "damageBonus": 2,
          "critMultiplier": 1
        },
        "naturalAttack": {
          "primaryAttack": true,
          "secondary": {
            "attackBonus": "-5",
            "damageMult": 0.5
          }
        },
        "nonlethal": false,
        "usesAmmo": false,
        "spellEffect": "one called outsider of 6 HD or less",
        "spellArea": "",
        "conditionals": [],
        "enh": {
          "value": null
        }
      }
    ],
    "uses": {
      "per": ""
    },
    "attackNotes": [],
    "effectNotes": [],
    "links": {
      "children": []
    },
    "scriptCalls": [],
    "learnedAt": {
      "class": [
        ["cleric/oracle", 4],
        ["shaman", 4],
        ["psychic", 4],
        ["medium", 3]
      ],
      "domain": [],
      "subDomain": [],
      "elementalSchool": [],
      "bloodline": []
    },
    "level": 4,
    "school": "con",
    "subschool": "calling",
    "types": "see text",
    "components": {
      "verbal": true,
      "somatic": true,
      "material": true,
      "divineFocus": 1
    },
    "materials": {
      "value": "offerings worth 500 gp plus payment, see text",
      "gpValue": 500
    },
    "spellbook": "",
    "preparation": {
      "spontaneousPrepared": false
    },
    "sr": false,
    "shortDescription": "<p>By casting this spell, you request your deity to send you an outsider (of 6 HD or less) of the deity's choice. If you serve no particular deity, the spell is a general plea answered by a creature sharing your philosophical alignment. If you know an individual creature's name, you may request that individual by speaking the name during the spell (though you might get a different creature anyway).</p><p>You may ask the creature to perform one task in exchange for a payment from you. Tasks might range from the simple to the complex. You must be able to communicate with the creature called in order to bargain for its services.</p><p>The creature called requires a payment for its services. This payment can take a variety of forms, from donating gold or magic items to an allied temple, to a gift given directly to the creature, to some other action on your part that matches the creature's alignment and goals.</p><p>Regardless, this payment must be made before the creature agrees to perform any services. The bargaining takes at least 1 round, so any actions by the creature begin in the round after it arrives.</p><p>A task taking up to 1 minute per caster level requires a payment of 100 gp per HD of the creature called. For a task taking up to 1 hour per caster level, the creature requires a payment of 500 gp per HD. A long-term task, one requiring up to 1 day per caster level, requires a payment of 1,000 gp per HD.</p><p>A nonhazardous task requires only half the indicated payment, while an especially hazardous task might require a greater gift. Few if any creatures will accept a task that seems suicidal (remember, a called creature actually dies when it is killed, unlike a summoned creature). However, if the task is strongly aligned with the creature's ethos, it may halve or even waive the payment.</p><p>At the end of its task, or when the duration bargained for expires, the creature returns to its home plane (after reporting back to you, if appropriate and possible).</p><p><i>Note:</i> When you use a calling spell that calls an air, chaotic, earth, evil, fire, good, lawful, or water creature, it is a spell of that type.</p>"
  }
}
