{
  "_id": "minvlyfqe8pkuwhl",
  "name": "Secret Sign",
  "type": "spell",
  "img": "systems/pf1/icons/misc/magic-swirl.png",
  "sort": 0,
  "flags": {},
  "system": {
    "tags": [],
    "actions": [
      {
        "_id": "367aezu2u5d6hwbr",
        "name": "Use",
        "img": "systems/pf1/icons/misc/magic-swirl.png",
        "description": "",
        "tag": "",
        "activation": {
          "cost": 1,
          "type": "standard"
        },
        "unchainedAction": {
          "activation": {
            "cost": 2,
            "type": "action"
          }
        },
        "duration": {
          "value": "1 day/level",
          "units": ""
        },
        "target": {
          "value": "one creature or object"
        },
        "range": {
          "value": null,
          "units": "touch",
          "maxIncrements": 1,
          "minValue": null,
          "minUnits": ""
        },
        "uses": {
          "autoDeductChargesCost": "",
          "self": {
            "value": 0,
            "maxFormula": "",
            "per": null
          },
          "per": "",
          "value": 0,
          "maxFormula": ""
        },
        "measureTemplate": {
          "type": "",
          "size": "0",
          "overrideColor": false,
          "customColor": "",
          "overrideTexture": false,
          "customTexture": ""
        },
        "attackName": "",
        "actionType": "spellsave",
        "attackBonus": "",
        "critConfirmBonus": "",
        "damage": {
          "parts": [],
          "critParts": [],
          "nonCritParts": []
        },
        "attackParts": [],
        "formulaicAttacks": {
          "count": {
            "formula": ""
          },
          "bonus": {
            "formula": ""
          },
          "label": null
        },
        "formula": "",
        "ability": {
          "attack": "",
          "damage": "",
          "damageMult": 1,
          "critRange": 20,
          "critMult": 2
        },
        "save": {
          "dc": "0",
          "type": "will",
          "description": "Will negates (object)"
        },
        "effectNotes": [],
        "attackNotes": [],
        "soundEffect": "",
        "powerAttack": {
          "multiplier": "",
          "damageBonus": 2,
          "critMultiplier": 1
        },
        "naturalAttack": {
          "primaryAttack": true,
          "secondary": {
            "attackBonus": "-5",
            "damageMult": 0.5
          }
        },
        "nonlethal": false,
        "usesAmmo": false,
        "spellEffect": "",
        "spellArea": "",
        "conditionals": [],
        "enh": {
          "value": null
        }
      }
    ],
    "uses": {
      "per": ""
    },
    "attackNotes": [],
    "effectNotes": [],
    "links": {
      "children": []
    },
    "scriptCalls": [],
    "learnedAt": {
      "class": [
        ["sorcerer/wizard", 2],
        ["bard", 1],
        ["witch", 2],
        ["inquisitor", 1],
        ["shaman", 1]
      ],
      "domain": [],
      "subDomain": [],
      "elementalSchool": [],
      "bloodline": []
    },
    "level": 2,
    "school": "ill",
    "subschool": "glamer",
    "components": {
      "verbal": true,
      "somatic": true,
      "material": true
    },
    "materials": {
      "value": "a lemon peel"
    },
    "shortDescription": "<p>You invisibly inscribe a small mark or short message (no more than 25 words) on a creature or object, similar to the way <i>arcane mark</i> works. The sign can be no more than 6 inches across, and if it's a written message, it can be in any language you can read and write at the time of the spell's casting. As you cast the spell, you can define one auditory, olfactory, tangible, or visual criterion-such as all creatures wearing green bands on their left arms or only creatures who smell of lavender or only orcs-that allows designated creatures within 30 feet to see the <i>secret sign</i>.  Disguises and illusions that mimic the set criterion can fool this spell. Normal darkness doesn't conceal a visual trigger, but magical darkness or invisibility does. Auditory criteria (such as a password) and tangible criteria (such as pressing your hand against a specific object or wall) can be performed by anyone who learns of them. A <i>secret sign</i> cannot distinguish alignment, level, Hit Dice, or class except by external garb, but can differentiate apparent races, genders, and garments. <i>See invisibility</i> and <i>invisibility purge</i> reveal the sign, but <i>glitterdust</i> does not.  A caster of at least 10th level can make <i>secret sign</i> permanent on an object with a <i>permanency</i> spell using 5,000 gp of diamond dust as a material component.</p>"
  }
}
