{
  "_id": "mv346x3o4ada240u",
  "name": "Synaptic Scramble",
  "type": "spell",
  "img": "systems/pf1/icons/misc/magic-swirl.png",
  "sort": 0,
  "flags": {},
  "system": {
    "tags": [],
    "actions": [
      {
        "_id": "l8bs0w0wkp0411kc",
        "name": "Use",
        "img": "systems/pf1/icons/misc/magic-swirl.png",
        "description": "",
        "tag": "",
        "activation": {
          "cost": 1,
          "type": "standard"
        },
        "unchainedAction": {
          "activation": {
            "cost": 2,
            "type": "action"
          }
        },
        "duration": {
          "value": "1 round/level",
          "units": ""
        },
        "target": {
          "value": "one creature"
        },
        "range": {
          "value": null,
          "units": "medium",
          "maxIncrements": 1,
          "minValue": null,
          "minUnits": ""
        },
        "uses": {
          "autoDeductChargesCost": "",
          "self": {
            "value": 0,
            "maxFormula": "",
            "per": null
          },
          "per": "",
          "value": 0,
          "maxFormula": ""
        },
        "measureTemplate": {
          "type": "",
          "size": "0",
          "overrideColor": false,
          "customColor": "",
          "overrideTexture": false,
          "customTexture": ""
        },
        "attackName": "",
        "actionType": "spellsave",
        "attackBonus": "",
        "critConfirmBonus": "",
        "damage": {
          "parts": [],
          "critParts": [],
          "nonCritParts": []
        },
        "attackParts": [],
        "formulaicAttacks": {
          "count": {
            "formula": ""
          },
          "bonus": {
            "formula": ""
          },
          "label": null
        },
        "formula": "",
        "ability": {
          "attack": "",
          "damage": "",
          "damageMult": 1,
          "critRange": 20,
          "critMult": 2
        },
        "save": {
          "dc": "0",
          "type": "will",
          "description": "Will negates"
        },
        "effectNotes": [],
        "attackNotes": [],
        "soundEffect": "",
        "powerAttack": {
          "multiplier": "",
          "damageBonus": 2,
          "critMultiplier": 1
        },
        "naturalAttack": {
          "primaryAttack": true,
          "secondary": {
            "attackBonus": "-5",
            "damageMult": 0.5
          }
        },
        "nonlethal": false,
        "usesAmmo": false,
        "spellEffect": "",
        "spellArea": "",
        "conditionals": [],
        "enh": {
          "value": null
        }
      }
    ],
    "uses": {
      "per": ""
    },
    "attackNotes": [],
    "effectNotes": [],
    "links": {
      "children": []
    },
    "scriptCalls": [],
    "learnedAt": {
      "class": [
        ["psychic", 4],
        ["mesmerist", 3]
      ],
      "domain": [],
      "subDomain": [],
      "elementalSchool": [],
      "bloodline": []
    },
    "level": 4,
    "school": "enc",
    "subschool": "compulsion",
    "types": "mind-affecting",
    "components": {
      "verbal": true,
      "somatic": true
    },
    "shortDescription": "<p>You scramble the synaptic connections of your target, causing it to lose the ability to coherently communicate and to take unintended actions when it meant to perform others. The target cannot effectively communicate while under the spell's influence, and thus cannot engage in acts like speaking, attempting Bluff checks to pass secret messages, writing, or using telepathy, although the spell doesn't prevent verbalizations made for purposes other than communication, such as command words or the verbal component of spellcasting.  The target's mind is too scrambled to take full-round actions or longer actions, as the target's attention inevitably wanders before the action completes. Whenever the target attempts to take a move action or a standard action, roll on the following table instead. If the result on the table is an action that the target cannot take, the target takes no action instead.     <table border ='1'><tr><th>d%</th><th>Action</th></tr><tr><td>1-20</td><td>Move action (must use move action to move)</td></tr><tr><td>21-40</td><td>Other move action (perform a move action other than moving)</td></tr><tr><td>41-60</td><td>Attack action (spend a standard action on the attack action, attacking once with a weapon)</td></tr><tr><td>61-80</td><td>Other standard action (perform a standard action that isn't the attack action)</td></tr><tr><td>81-100</td><td>Desired action (perform whatever standard or move action the creature desires to perform)</td></tr></table>   </p>"
  }
}
